%YAML 1.1
%TAG !u! tag:unity3d.com,2011:
--- !u!74 &7400000
AnimationClip:
  m_ObjectHideFlags: 0
  m_CorrespondingSourceObject: {fileID: 0}
  m_PrefabInstance: {fileID: 0}
  m_PrefabAsset: {fileID: 0}
  m_Name: Idle_17
  serializedVersion: 6
  m_Legacy: 1
  m_Compressed: 0
  m_UseHighQualityCurve: 1
  m_RotationCurves:
  - curve:
      serializedVersion: 2
      m_Curve:
      - serializedVersion: 3
        time: 0
        value: {x: 0, y: 0, z: 0, w: 1}
        inSlope: {x: -0.0178688, y: -0.00008989828, z: -0.002271237, w: -0.00001358985}
        outSlope: {x: -0.0178688, y: -0.00008989828, z: -0.002271237, w: -0.00001358985}
        tangentMode: 0
        weightedMode: 0
        inWeight: {x: 0.3333333, y: 0.3333333, z: 0.3333333, w: 0.3333333}
        outWeight: {x: 0.3333333, y: 0.3333333, z: 0.3333333, w: 0.3333333}
      - serializedVersion: 3
        time: 0.3333334
        value: {x: -0.01798069, y: -0.0002125315, z: -0.002288532, w: 0.9998357}
        inSlope: {x: 0.04681873, y: -0.0009231329, z: 0.005931951, w: 0.0008368495}
        outSlope: {x: 0.04681873, y: -0.0009231329, z: 0.005931951, w: 0.0008368495}
        tangentMode: 0
        weightedMode: 0
        inWeight: {x: 0.3333333, y: 0.3333333, z: 0.3333333, w: 0.3333333}
        outWeight: {x: 0.3333333, y: 0.3333333, z: 0.3333333, w: 0.3333333}
      - serializedVersion: 3
        time: 0.875
        value: {x: 0.01249996, y: -0.001936459, z: -0.0001244224, w: 0.99992}
        inSlope: {x: 0.03667378, y: -0.008400818, z: -0.006990725, w: -0.0004742143}
        outSlope: {x: 0.03667378, y: -0.008400818, z: -0.006990725, w: -0.0004742143}
        tangentMode: 0
        weightedMode: 0
        inWeight: {x: 0.3333333, y: 0.3333333, z: 0.3333333, w: 0.3333333}
        outWeight: {x: 0.3333333, y: 0.3333333, z: 0.3333333, w: 0.3333333}
      - serializedVersion: 3
        time: 1.208333
        value: {x: -0.001553777, y: 0.00001839911, z: -0.002109101, w: 0.9999966}
        inSlope: {x: -0.1579058, y: 0.02540351, z: -0.0009633498, w: -0.0002474787}
        outSlope: {x: -0.1579058, y: 0.02540351, z: -0.0009633498, w: -0.0002474787}
        tangentMode: 0
        weightedMode: 0
        inWeight: {x: 0.3333333, y: 0.3333333, z: 0.3333333, w: 0.3333333}
        outWeight: {x: 0.3333333, y: 0.3333333, z: 0.3333333, w: 0.3333333}
      - serializedVersion: 3
        time: 1.583333
        value: {x: -0.004250341, y: -0.0002472984, z: 0.0006714741, w: 0.9999907}
        inSlope: {x: 0.1367199, y: -0.02260187, z: 0.01912636, w: 0.0005514627}
        outSlope: {x: 0.1367199, y: -0.02260187, z: 0.01912636, w: 0.0005514627}
        tangentMode: 0
        weightedMode: 0
        inWeight: {x: 0.3333333, y: 0.3333333, z: 0.3333333, w: 0.3333333}
        outWeight: {x: 0.3333333, y: 0.3333333, z: 0.3333333, w: 0.3333333}
      - serializedVersion: 3
        time: 2.25
        value: {x: 0, y: 0, z: 0, w: 1}
        inSlope: {x: -0.005040954, y: 0.0008355943, z: -0.001078935, w: 0.0000007152585}
        outSlope: {x: -0.005040954, y: 0.0008355943, z: -0.001078935, w: 0.0000007152585}
        tangentMode: 0
        weightedMode: 0
        inWeight: {x: 0.3333333, y: 0.3333333, z: 0.3333333, w: 0.3333333}
        outWeight: {x: 0.3333333, y: 0.3333333, z: 0.3333333, w: 0.3333333}
      m_PreInfinity: 2
      m_PostInfinity: 2
      m_RotationOrder: 4
    path: micro_dragon_clean:root_drag
  - curve:
      serializedVersion: 2
      m_Curve:
      - serializedVersion: 3
        time: 0
        value: {x: 0, y: 0, z: 0, w: 1}
        inSlope: {x: -0.05412882, y: 0.02692418, z: 0.003423886, w: -0.0001523494}
        outSlope: {x: -0.05412882, y: 0.02692418, z: 0.003423886, w: -0.0001523494}
        tangentMode: 0
        weightedMode: 0
        inWeight: {x: 0.3333333, y: 0.3333333, z: 0.3333333, w: 0.3333333}
        outWeight: {x: 0.3333333, y: 0.3333333, z: 0.3333333, w: 0.3333333}
      - serializedVersion: 3
        time: 0.25
        value: {x: -0.01941794, y: 0.00939343, z: 0.001171628, w: 0.9997666}
        inSlope: {x: 0.002920075, y: -0.01190224, z: -0.0085348, w: 0.0001745224}
        outSlope: {x: 0.002920075, y: -0.01190224, z: -0.0085348, w: 0.0001745224}
        tangentMode: 0
        weightedMode: 0
        inWeight: {x: 0.3333333, y: 0.3333333, z: 0.3333333, w: 0.3333333}
        outWeight: {x: 0.3333333, y: 0.3333333, z: 0.3333333, w: 0.3333333}
      - serializedVersion: 3
        time: 0.9166667
        value: {x: -0.01015976, y: -0.002429297, z: 0.002213034, w: 0.999943}
        inSlope: {x: -0.1302837, y: 0.03704724, z: -0.00005362439, w: -0.001379013}
        outSlope: {x: -0.1302837, y: 0.03704724, z: -0.00005362439, w: -0.001379013}
        tangentMode: 0
        weightedMode: 0
        inWeight: {x: 0.3333333, y: 0.3333333, z: 0.3333333, w: 0.3333333}
        outWeight: {x: 0.3333333, y: 0.3333333, z: 0.3333333, w: 0.3333333}
      - serializedVersion: 3
        time: 1.166667
        value: {x: -0.03825593, y: 0.002796227, z: 0.002417729, w: 0.9992611}
        inSlope: {x: 0.001308516, y: -0.01414482, z: 0.003791155, w: 0.00007653239}
        outSlope: {x: 0.001308516, y: -0.01414482, z: 0.003791155, w: 0.00007653239}
        tangentMode: 0
        weightedMode: 0
        inWeight: {x: 0.3333333, y: 0.3333333, z: 0.3333333, w: 0.3333333}
        outWeight: {x: 0.3333333, y: 0.3333333, z: 0.3333333, w: 0.3333333}
      - serializedVersion: 3
        time: 1.708333
        value: {x: -0.003232538, y: -0.01248843, z: 0.007023813, w: 0.9998921}
        inSlope: {x: 0.1340937, y: 0.00405376, z: 0.0008622304, w: 0.0005121236}
        outSlope: {x: 0.1340937, y: 0.00405376, z: 0.0008622304, w: 0.0005121236}
        tangentMode: 0
        weightedMode: 0
        inWeight: {x: 0.3333333, y: 0.3333333, z: 0.3333333, w: 0.3333333}
        outWeight: {x: 0.3333333, y: 0.3333333, z: 0.3333333, w: 0.3333333}
      - serializedVersion: 3
        time: 2.25
        value: {x: 0, y: 0, z: 0, w: 1}
        inSlope: {x: -0.0303514, y: 0.01383059, z: -0.01103761, w: 0.00005149861}
        outSlope: {x: -0.0303514, y: 0.01383059, z: -0.01103761, w: 0.00005149861}
        tangentMode: 0
        weightedMode: 0
        inWeight: {x: 0.3333333, y: 0.3333333, z: 0.3333333, w: 0.3333333}
        outWeight: {x: 0.3333333, y: 0.3333333, z: 0.3333333, w: 0.3333333}
      m_PreInfinity: 2
      m_PostInfinity: 2
      m_RotationOrder: 4
    path: micro_dragon_clean:root_drag/micro_dragon_clean:body_drag
  - curve:
      serializedVersion: 2
      m_Curve:
      - serializedVersion: 3
        time: 0
        value: {x: 0, y: 0, z: 0, w: 1}
        inSlope: {x: 0, y: 0, z: 0, w: 0}
        outSlope: {x: 0, y: 0, z: 0, w: 0}
        tangentMode: 0
        weightedMode: 0
        inWeight: {x: 0.3333333, y: 0.3333333, z: 0.3333333, w: 0.3333333}
        outWeight: {x: 0.3333333, y: 0.3333333, z: 0.3333333, w: 0.3333333}
      - serializedVersion: 3
        time: 2.25
        value: {x: 0, y: 0, z: 0, w: 1}
        inSlope: {x: 0, y: 0, z: 0, w: 0}
        outSlope: {x: 0, y: 0, z: 0, w: 0}
        tangentMode: 0
        weightedMode: 0
        inWeight: {x: 0.3333333, y: 0.3333333, z: 0.3333333, w: 0.3333333}
        outWeight: {x: 0.3333333, y: 0.3333333, z: 0.3333333, w: 0.3333333}
      m_PreInfinity: 2
      m_PostInfinity: 2
      m_RotationOrder: 4
    path: micro_dragon_clean:root_drag/micro_dragon_clean:body_drag/micro_dragon_clean:head_drag
  - curve:
      serializedVersion: 2
      m_Curve:
      - serializedVersion: 3
        time: 0
        value: {x: 0, y: 0, z: 0, w: 1}
        inSlope: {x: 1.120997, y: -1.623607, z: -3.663571, w: -0.7202207}
        outSlope: {x: 1.120997, y: -1.623607, z: -3.663571, w: -0.7202207}
        tangentMode: 0
        weightedMode: 0
        inWeight: {x: 0.3333333, y: 0.3333333, z: 0.3333333, w: 0.3333333}
        outWeight: {x: 0.3333333, y: 0.3333333, z: 0.3333333, w: 0.3333333}
      - serializedVersion: 3
        time: 0.04166669
        value: {x: 0.09341644, y: -0.1353006, z: -0.2990623, w: 0.9399621}
        inSlope: {x: 1.048506, y: -4.006643, z: -6.470791, w: -2.781741}
        outSlope: {x: 1.048506, y: -4.006643, z: -6.470791, w: -2.781741}
        tangentMode: 0
        weightedMode: 0
        inWeight: {x: 0.3333333, y: 0.3333333, z: 0.3333333, w: 0.3333333}
        outWeight: {x: 0.3333333, y: 0.3333333, z: 0.3333333, w: 0.3333333}
      - serializedVersion: 3
        time: 0.08333334
        value: {x: 0.08737554, y: -0.333887, z: -0.5392327, w: 0.7681882}
        inSlope: {x: -0.1094975, y: -2.594647, z: -2.981199, w: -2.223112}
        outSlope: {x: -0.1094975, y: -2.594647, z: -2.981199, w: -2.223112}
        tangentMode: 0
        weightedMode: 0
        inWeight: {x: 0.3333333, y: 0.3333333, z: 0.3333333, w: 0.3333333}
        outWeight: {x: 0.3333333, y: 0.3333333, z: 0.3333333, w: 0.3333333}
      - serializedVersion: 3
        time: 0.125
        value: {x: 0.08429165, y: -0.3515212, z: -0.5474955, w: 0.7547029}
        inSlope: {x: 2.254141, y: 3.03898, z: 4.800053, w: 2.155604}
        outSlope: {x: 2.254141, y: 3.03898, z: 4.800053, w: 2.155604}
        tangentMode: 0
        weightedMode: 0
        inWeight: {x: 0.3333333, y: 0.3333333, z: 0.3333333, w: 0.3333333}
        outWeight: {x: 0.3333333, y: 0.3333333, z: 0.3333333, w: 0.3333333}
      - serializedVersion: 3
        time: 0.1666667
        value: {x: 0.2752207, y: -0.08063845, z: -0.139228, w: 0.947822}
        inSlope: {x: 1.121018, y: 7.297596, z: 10.71439, w: 1.563995}
        outSlope: {x: 1.121018, y: 7.297596, z: 10.71439, w: 1.563995}
        tangentMode: 0
        weightedMode: 0
        inWeight: {x: 0.3333333, y: 0.3333333, z: 0.3333333, w: 0.3333333}
        outWeight: {x: 0.3333333, y: 0.3333333, z: 0.3333333, w: 0.3333333}
      - serializedVersion: 3
        time: 0.2083333
        value: {x: 0.17771, y: 0.2566118, z: 0.3453708, w: 0.8850359}
        inSlope: {x: -1.113855, y: 4.298203, z: 5.95285, w: -0.89626}
        outSlope: {x: -1.113855, y: 4.298203, z: 5.95285, w: -0.89626}
        tangentMode: 0
        weightedMode: 0
        inWeight: {x: 0.3333333, y: 0.3333333, z: 0.3333333, w: 0.3333333}
        outWeight: {x: 0.3333333, y: 0.3333333, z: 0.3333333, w: 0.3333333}
      - serializedVersion: 3
        time: 0.25
        value: {x: 0.1823995, y: 0.277545, z: 0.3568427, w: 0.8731337}
        inSlope: {x: 1.002938, y: -4.127129, z: -4.866577, w: 0.8925858}
        outSlope: {x: 1.002938, y: -4.127129, z: -4.866577, w: 0.8925858}
        tangentMode: 0
        weightedMode: 0
        inWeight: {x: 0.3333333, y: 0.3333333, z: 0.3333333, w: 0.3333333}
        outWeight: {x: 0.3333333, y: 0.3333333, z: 0.3333333, w: 0.3333333}
      - serializedVersion: 3
        time: 0.2916667
        value: {x: 0.2612881, y: -0.08731575, z: -0.06017749, w: 0.9594181}
        inSlope: {x: -2.383969, y: -7.926765, z: -10.71657, w: -1.45351}
        outSlope: {x: -2.383969, y: -7.926765, z: -10.71657, w: -1.45351}
        tangentMode: 0
        weightedMode: 0
        inWeight: {x: 0.3333333, y: 0.3333333, z: 0.3333333, w: 0.3333333}
        outWeight: {x: 0.3333333, y: 0.3333333, z: 0.3333333, w: 0.3333333}
      - serializedVersion: 3
        time: 0.3333334
        value: {x: -0.01626468, y: -0.3830191, z: -0.5362052, w: 0.7520078}
        inSlope: {x: -2.960976, y: -3.757718, z: -6.119728, w: -2.906879}
        outSlope: {x: -2.960976, y: -3.757718, z: -6.119728, w: -2.906879}
        tangentMode: 0
        weightedMode: 0
        inWeight: {x: 0.3333333, y: 0.3333333, z: 0.3333333, w: 0.3333333}
        outWeight: {x: 0.3333333, y: 0.3333333, z: 0.3333333, w: 0.3333333}
      - serializedVersion: 3
        time: 0.375
        value: {x: 0.01454001, y: -0.400459, z: -0.570155, w: 0.7171782}
        inSlope: {x: 2.251824, y: 1.968992, z: 2.643252, w: 1.861425}
        outSlope: {x: 2.251824, y: 1.968992, z: 2.643252, w: 1.861425}
        tangentMode: 0
        weightedMode: 0
        inWeight: {x: 0.3333333, y: 0.3333333, z: 0.3333333, w: 0.3333333}
        outWeight: {x: 0.3333333, y: 0.3333333, z: 0.3333333, w: 0.3333333}
      - serializedVersion: 3
        time: 0.4166667
        value: {x: 0.1713874, y: -0.2189363, z: -0.3159341, w: 0.9071267}
        inSlope: {x: 1.949114, y: 4.690435, z: 7.531111, w: 3.183773}
        outSlope: {x: 1.949114, y: 4.690435, z: 7.531111, w: 3.183773}
        tangentMode: 0
        weightedMode: 0
        inWeight: {x: 0.3333333, y: 0.3333333, z: 0.3333333, w: 0.3333333}
        outWeight: {x: 0.3333333, y: 0.3333333, z: 0.3333333, w: 0.3333333}
      - serializedVersion: 3
        time: 0.4583334
        value: {x: 0.1769663, y: -0.009589253, z: 0.05743786, w: 0.9824927}
        inSlope: {x: -0.05692628, y: 2.838983, z: 5.099052, w: 0.8722768}
        outSlope: {x: -0.05692628, y: 2.838983, z: 5.099052, w: 0.8722768}
        tangentMode: 0
        weightedMode: 0
        inWeight: {x: 0.3333333, y: 0.3333333, z: 0.3333333, w: 0.3333333}
        outWeight: {x: 0.3333333, y: 0.3333333, z: 0.3333333, w: 0.3333333}
      - serializedVersion: 3
        time: 0.5
        value: {x: 0.1666435, y: 0.01764567, z: 0.108987, w: 0.9798165}
        inSlope: {x: -0.2450311, y: 0.5783318, z: 1.115247, w: -0.08520484}
        outSlope: {x: -0.2450311, y: 0.5783318, z: 1.115247, w: -0.08520484}
        tangentMode: 0
        weightedMode: 0
        inWeight: {x: 0.3333333, y: 0.3333333, z: 0.3333333, w: 0.3333333}
        outWeight: {x: 0.3333333, y: 0.3333333, z: 0.3333333, w: 0.3333333}
      - serializedVersion: 3
        time: 0.7083334
        value: {x: 0.1308196, y: 0.07900274, z: 0.2356204, w: 0.959754}
        inSlope: {x: -0.07535989, y: 0.1006975, z: 0.222829, w: -0.05199767}
        outSlope: {x: -0.07535989, y: 0.1006975, z: 0.222829, w: -0.05199767}
        tangentMode: 0
        weightedMode: 0
        inWeight: {x: 0.3333333, y: 0.3333333, z: 0.3333333, w: 0.3333333}
        outWeight: {x: 0.3333333, y: 0.3333333, z: 0.3333333, w: 0.3333333}
      - serializedVersion: 3
        time: 0.8333334
        value: {x: 0.1266994, y: 0.08433424, z: 0.2475423, w: 0.9568478}
        inSlope: {x: -0.006360418, y: 0.008060314, z: 0.01815035, w: -0.004549031}
        outSlope: {x: -0.006360418, y: 0.008060314, z: 0.01815035, w: -0.004549031}
        tangentMode: 0
        weightedMode: 0
        inWeight: {x: 0.3333333, y: 0.3333333, z: 0.3333333, w: 0.3333333}
        outWeight: {x: 0.3333333, y: 0.3333333, z: 0.3333333, w: 0.3333333}
      - serializedVersion: 3
        time: 0.875
        value: {x: 0.1266331, y: 0.08441812, z: 0.2477314, w: 0.9568003}
        inSlope: {x: 1.501016, y: -2.957339, z: -4.957694, w: -0.2066341}
        outSlope: {x: 1.501016, y: -2.957339, z: -4.957694, w: -0.2066341}
        tangentMode: 0
        weightedMode: 0
        inWeight: {x: 0.3333333, y: 0.3333333, z: 0.3333333, w: 0.3333333}
        outWeight: {x: 0.3333333, y: 0.3333333, z: 0.3333333, w: 0.3333333}
      - serializedVersion: 3
        time: 0.9166667
        value: {x: 0.2517844, y: -0.1621111, z: -0.1655996, w: 0.9396283}
        inSlope: {x: 0.3348444, y: -6.443811, z: -8.71637, w: -2.645398}
        outSlope: {x: 0.3348444, y: -6.443811, z: -8.71637, w: -2.645398}
        tangentMode: 0
        weightedMode: 0
        inWeight: {x: 0.3333333, y: 0.3333333, z: 0.3333333, w: 0.3333333}
        outWeight: {x: 0.3333333, y: 0.3333333, z: 0.3333333, w: 0.3333333}
      - serializedVersion: 3
        time: 0.9583334
        value: {x: 0.1545371, y: -0.4525663, z: -0.4786333, w: 0.7363506}
        inSlope: {x: -1.131027, y: -3.532121, z: -3.934649, w: -2.594772}
        outSlope: {x: -1.131027, y: -3.532121, z: -3.934649, w: -2.594772}
        tangentMode: 0
        weightedMode: 0
        inWeight: {x: 0.3333333, y: 0.3333333, z: 0.3333333, w: 0.3333333}
        outWeight: {x: 0.3333333, y: 0.3333333, z: 0.3333333, w: 0.3333333}
      - serializedVersion: 3
        time: 1
        value: {x: 0.1575322, y: -0.4564543, z: -0.4934867, w: 0.7233976}
        inSlope: {x: 1.652969, y: 3.200407, z: 3.10771, w: 2.10799}
        outSlope: {x: 1.652969, y: 3.200407, z: 3.10771, w: 2.10799}
        tangentMode: 0
        weightedMode: 0
        inWeight: {x: 0.3333333, y: 0.3333333, z: 0.3333333, w: 0.3333333}
        outWeight: {x: 0.3333333, y: 0.3333333, z: 0.3333333, w: 0.3333333}
      - serializedVersion: 3
        time: 1.041667
        value: {x: 0.2922848, y: -0.1858652, z: -0.2196569, w: 0.9120168}
        inSlope: {x: 0.5816408, y: 6.836014, z: 8.245764, w: 2.749131}
        outSlope: {x: 0.5816408, y: 6.836014, z: 8.245764, w: 2.749131}
        tangentMode: 0
        weightedMode: 0
        inWeight: {x: 0.3333333, y: 0.3333333, z: 0.3333333, w: 0.3333333}
        outWeight: {x: 0.3333333, y: 0.3333333, z: 0.3333333, w: 0.3333333}
      - serializedVersion: 3
        time: 1.083333
        value: {x: 0.2060026, y: 0.1132137, z: 0.1936604, w: 0.9524921}
        inSlope: {x: -1.054991, y: 3.868768, z: 5.163179, w: 0.4098334}
        outSlope: {x: -1.054991, y: 3.868768, z: 5.163179, w: 0.4098334}
        tangentMode: 0
        weightedMode: 0
        inWeight: {x: 0.3333333, y: 0.3333333, z: 0.3333333, w: 0.3333333}
        outWeight: {x: 0.3333333, y: 0.3333333, z: 0.3333333, w: 0.3333333}
      - serializedVersion: 3
        time: 1.125
        value: {x: 0.204369, y: 0.1365318, z: 0.2106076, w: 0.9461696}
        inSlope: {x: 1.166616, y: -3.284066, z: -4.515369, w: -0.3732243}
        outSlope: {x: 1.166616, y: -3.284066, z: -4.515369, w: -0.3732243}
        tangentMode: 0
        weightedMode: 0
        inWeight: {x: 0.3333333, y: 0.3333333, z: 0.3333333, w: 0.3333333}
        outWeight: {x: 0.3333333, y: 0.3333333, z: 0.3333333, w: 0.3333333}
      - serializedVersion: 3
        time: 1.166667
        value: {x: 0.3032208, y: -0.160459, z: -0.1826211, w: 0.9213901}
        inSlope: {x: -0.5979862, y: -7.069173, z: -8.270885, w: -2.517829}
        outSlope: {x: -0.5979862, y: -7.069173, z: -8.270885, w: -2.517829}
        tangentMode: 0
        weightedMode: 0
        inWeight: {x: 0.3333333, y: 0.3333333, z: 0.3333333, w: 0.3333333}
        outWeight: {x: 0.3333333, y: 0.3333333, z: 0.3333333, w: 0.3333333}
      - serializedVersion: 3
        time: 1.208333
        value: {x: 0.1545371, y: -0.4525663, z: -0.4786333, w: 0.7363506}
        inSlope: {x: -1.800753, y: -3.574193, z: -3.647962, w: -2.323028}
        outSlope: {x: -1.800753, y: -3.574193, z: -3.647962, w: -2.323028}
        tangentMode: 0
        weightedMode: 0
        inWeight: {x: 0.3333333, y: 0.3333333, z: 0.3333333, w: 0.3333333}
        outWeight: {x: 0.3333333, y: 0.3333333, z: 0.3333333, w: 0.3333333}
      - serializedVersion: 3
        time: 1.25
        value: {x: 0.1531582, y: -0.4583082, z: -0.4866177, w: 0.7278045}
        inSlope: {x: -0.007540973, y: -0.08109681, z: -0.1416897, w: -0.1430283}
        outSlope: {x: -0.007540973, y: -0.08109681, z: -0.1416897, w: -0.1430283}
        tangentMode: 0
        weightedMode: 0
        inWeight: {x: 0.3333333, y: 0.3333333, z: 0.3333333, w: 0.3333333}
        outWeight: {x: 0.3333333, y: 0.3333333, z: 0.3333333, w: 0.3333333}
      - serializedVersion: 3
        time: 1.333333
        value: {x: 0.1575322, y: -0.4564543, z: -0.4934867, w: 0.7233976}
        inSlope: {x: 0.1506257, y: 0.3157575, z: 0.04216186, w: 0.1875824}
        outSlope: {x: 0.1506257, y: 0.3157575, z: 0.04216186, w: 0.1875824}
        tangentMode: 0
        weightedMode: 0
        inWeight: {x: 0.3333333, y: 0.3333333, z: 0.3333333, w: 0.3333333}
        outWeight: {x: 0.3333333, y: 0.3333333, z: 0.3333333, w: 0.3333333}
      - serializedVersion: 3
        time: 1.416667
        value: {x: 0.1758084, y: -0.3780893, z: -0.4588442, w: 0.7846031}
        inSlope: {x: 0.08831203, y: 1.556046, z: 0.9640785, w: 1.248103}
        outSlope: {x: 0.08831203, y: 1.556046, z: 0.9640785, w: 1.248103}
        tangentMode: 0
        weightedMode: 0
        inWeight: {x: 0.3333333, y: 0.3333333, z: 0.3333333, w: 0.3333333}
        outWeight: {x: 0.3333333, y: 0.3333333, z: 0.3333333, w: 0.3333333}
      - serializedVersion: 3
        time: 1.5
        value: {x: 0.153601, y: -0.2238129, z: -0.3322277, w: 0.9032936}
        inSlope: {x: -0.6655574, y: 1.786657, z: 1.911634, w: 1.261571}
        outSlope: {x: -0.6655574, y: 1.786657, z: 1.911634, w: 1.261571}
        tangentMode: 0
        weightedMode: 0
        inWeight: {x: 0.3333333, y: 0.3333333, z: 0.3333333, w: 0.3333333}
        outWeight: {x: 0.3333333, y: 0.3333333, z: 0.3333333, w: 0.3333333}
      - serializedVersion: 3
        time: 1.541667
        value: {x: 0.118357, y: -0.1544526, z: -0.2472845, w: 0.949203}
        inSlope: {x: -0.8714185, y: 1.42868, z: 1.923918, w: 0.8745782}
        outSlope: {x: -0.8714185, y: 1.42868, z: 1.923918, w: 0.8745782}
        tangentMode: 0
        weightedMode: 0
        inWeight: {x: 0.3333333, y: 0.3333333, z: 0.3333333, w: 0.3333333}
        outWeight: {x: 0.3333333, y: 0.3333333, z: 0.3333333, w: 0.3333333}
      - serializedVersion: 3
        time: 1.583333
        value: {x: 0.08098278, y: -0.1047562, z: -0.1719011, w: 0.9761752}
        inSlope: {x: -0.7123716, y: 0.9260396, z: 1.409654, w: 0.4506866}
        outSlope: {x: -0.7123716, y: 0.9260396, z: 1.409654, w: 0.4506866}
        tangentMode: 0
        weightedMode: 0
        inWeight: {x: 0.3333333, y: 0.3333333, z: 0.3333333, w: 0.3333333}
        outWeight: {x: 0.3333333, y: 0.3333333, z: 0.3333333, w: 0.3333333}
      - serializedVersion: 3
        time: 1.666667
        value: {x: 0.05064915, y: -0.0621337, z: -0.1125816, w: 0.9904037}
        inSlope: {x: -0.1945512, y: 0.337007, z: 0.4004382, w: 0.07728834}
        outSlope: {x: -0.1945512, y: 0.337007, z: 0.4004382, w: 0.07728834}
        tangentMode: 0
        weightedMode: 0
        inWeight: {x: 0.3333333, y: 0.3333333, z: 0.3333333, w: 0.3333333}
        outWeight: {x: 0.3333333, y: 0.3333333, z: 0.3333333, w: 0.3333333}
      - serializedVersion: 3
        time: 2.166667
        value: {x: 0.0005487693, y: -0.0001642035, z: -0.001963791, w: 0.9999979}
        inSlope: {x: -0.01471681, y: 0.0064341, z: 0.04815409, w: 0.0001323221}
        outSlope: {x: -0.01471681, y: 0.0064341, z: 0.04815409, w: 0.0001323221}
        tangentMode: 0
        weightedMode: 0
        inWeight: {x: 0.3333333, y: 0.3333333, z: 0.3333333, w: 0.3333333}
        outWeight: {x: 0.3333333, y: 0.3333333, z: 0.3333333, w: 0.3333333}
      - serializedVersion: 3
        time: 2.25
        value: {x: 0, y: 0, z: 0, w: 1}
        inSlope: {x: -0.001490314, y: 0.0002454072, z: 0.005788602, w: 0.000001430517}
        outSlope: {x: -0.001490314, y: 0.0002454072, z: 0.005788602, w: 0.000001430517}
        tangentMode: 0
        weightedMode: 0
        inWeight: {x: 0.3333333, y: 0.3333333, z: 0.3333333, w: 0.3333333}
        outWeight: {x: 0.3333333, y: 0.3333333, z: 0.3333333, w: 0.3333333}
      m_PreInfinity: 2
      m_PostInfinity: 2
      m_RotationOrder: 4
    path: micro_dragon_clean:root_drag/micro_dragon_clean:body_drag/micro_dragon_clean:head_drag/micro_dragon_clean:right_wing_drag
  - curve:
      serializedVersion: 2
      m_Curve:
      - serializedVersion: 3
        time: 0
        value: {x: 0, y: 0, z: 0, w: 1}
        inSlope: {x: 0.6522488, y: 0.1889598, z: -0.1647048, w: 0.02586222}
        outSlope: {x: 0.6522488, y: 0.1889598, z: -0.1647048, w: 0.02586222}
        tangentMode: 0
        weightedMode: 0
        inWeight: {x: 0.3333333, y: 0.3333333, z: 0.3333333, w: 0.3333333}
        outWeight: {x: 0.3333333, y: 0.3333333, z: 0.3333333, w: 0.3333333}
      - serializedVersion: 3
        time: 0.04166669
        value: {x: -0.007646621, y: -0.0001584853, z: 0.002864163, w: 0.9999667}
        inSlope: {x: -0.1961379, y: -0.007346185, z: 0.07339884, w: -0.001829624}
        outSlope: {x: -0.1961379, y: -0.007346185, z: 0.07339884, w: -0.001829624}
        tangentMode: 0
        weightedMode: 0
        inWeight: {x: 0.3333333, y: 0.3333333, z: 0.3333333, w: 0.3333333}
        outWeight: {x: 0.3333333, y: 0.3333333, z: 0.3333333, w: 0.3333333}
      - serializedVersion: 3
        time: 0.2916667
        value: {x: -0.02052866, y: -0.00398434, z: 0.008874234, w: 0.999742}
        inSlope: {x: 0.2399297, y: -0.00734843, z: -0.0631307, w: 0.005158422}
        outSlope: {x: 0.2399297, y: -0.00734843, z: -0.0631307, w: 0.005158422}
        tangentMode: 0
        weightedMode: 0
        inWeight: {x: 0.3333333, y: 0.3333333, z: 0.3333333, w: 0.3333333}
        outWeight: {x: 0.3333333, y: 0.3333333, z: 0.3333333, w: 0.3333333}
      - serializedVersion: 3
        time: 0.5416667
        value: {x: 0.0189458, y: -0.004248693, z: 0.00132482, w: 0.9998106}
        inSlope: {x: 0.05555889, y: 0.00389499, z: -0.004698865, w: -0.001011371}
        outSlope: {x: 0.05555889, y: 0.00389499, z: -0.004698865, w: -0.001011371}
        tangentMode: 0
        weightedMode: 0
        inWeight: {x: 0.3333333, y: 0.3333333, z: 0.3333333, w: 0.3333333}
        outWeight: {x: 0.3333333, y: 0.3333333, z: 0.3333333, w: 0.3333333}
      - serializedVersion: 3
        time: 0.8333334
        value: {x: 0.02430678, y: 0.001408313, z: 0.0007407712, w: 0.9997033}
        inSlope: {x: -0.05136142, y: 0.04135556, z: 0.01332819, w: 0.001055719}
        outSlope: {x: -0.05136142, y: 0.04135556, z: 0.01332819, w: 0.001055719}
        tangentMode: 0
        weightedMode: 0
        inWeight: {x: 0.3333333, y: 0.3333333, z: 0.3333333, w: 0.3333333}
        outWeight: {x: 0.3333333, y: 0.3333333, z: 0.3333333, w: 0.3333333}
      - serializedVersion: 3
        time: 1.083333
        value: {x: -0.03376172, y: 0.009419498, z: 0.01705121, w: 0.99924}
        inSlope: {x: -0.03942981, y: 0.001828911, z: 0.01034484, w: -0.001411916}
        outSlope: {x: -0.03942981, y: 0.001828911, z: 0.01034484, w: -0.001411916}
        tangentMode: 0
        weightedMode: 0
        inWeight: {x: 0.3333333, y: 0.3333333, z: 0.3333333, w: 0.3333333}
        outWeight: {x: 0.3333333, y: 0.3333333, z: 0.3333333, w: 0.3333333}
      - serializedVersion: 3
        time: 1.625
        value: {x: 0.02656078, y: -0.001130663, z: -0.004401891, w: 0.9996369}
        inSlope: {x: 0.01198763, y: -0.008968392, z: -0.003751649, w: -0.0003368858}
        outSlope: {x: 0.01198763, y: -0.008968392, z: -0.003751649, w: -0.0003368858}
        tangentMode: 0
        weightedMode: 0
        inWeight: {x: 0.3333333, y: 0.3333333, z: 0.3333333, w: 0.3333333}
        outWeight: {x: 0.3333333, y: 0.3333333, z: 0.3333333, w: 0.3333333}
      - serializedVersion: 3
        time: 2.208333
        value: {x: 0.003522743, y: -0.0001486684, z: -0.0004503017, w: 0.9999937}
        inSlope: {x: -0.08295964, y: 0.006252293, z: 0.01080516, w: 0.0002932547}
        outSlope: {x: -0.08295964, y: 0.006252293, z: 0.01080516, w: 0.0002932547}
        tangentMode: 0
        weightedMode: 0
        inWeight: {x: 0.3333333, y: 0.3333333, z: 0.3333333, w: 0.3333333}
        outWeight: {x: 0.3333333, y: 0.3333333, z: 0.3333333, w: 0.3333333}
      - serializedVersion: 3
        time: 2.25
        value: {x: 0, y: 0, z: 0, w: 1}
        inSlope: {x: -0.04227308, y: 0.001784028, z: 0.005403642, w: 0.0000758174}
        outSlope: {x: -0.04227308, y: 0.001784028, z: 0.005403642, w: 0.0000758174}
        tangentMode: 0
        weightedMode: 0
        inWeight: {x: 0.3333333, y: 0.3333333, z: 0.3333333, w: 0.3333333}
        outWeight: {x: 0.3333333, y: 0.3333333, z: 0.3333333, w: 0.3333333}
      m_PreInfinity: 2
      m_PostInfinity: 2
      m_RotationOrder: 4
    path: micro_dragon_clean:root_drag/micro_dragon_clean:body_drag/micro_dragon_clean:head_drag/micro_dragon_clean:snout_drag
  - curve:
      serializedVersion: 2
      m_Curve:
      - serializedVersion: 3
        time: 0
        value: {x: 0, y: 0, z: 0, w: 1}
        inSlope: {x: 0.8547817, y: -0.453482, z: 1.946598, w: -0.1985399}
        outSlope: {x: 0.8547817, y: -0.453482, z: 1.946598, w: -0.1985399}
        tangentMode: 0
        weightedMode: 0
        inWeight: {x: 0.3333333, y: 0.3333333, z: 0.3333333, w: 0.3333333}
        outWeight: {x: 0.3333333, y: 0.3333333, z: 0.3333333, w: 0.3333333}
      - serializedVersion: 3
        time: 0.04166669
        value: {x: 0.07123184, y: -0.03779019, z: 0.1622165, w: 0.983455}
        inSlope: {x: 2.802401, y: -0.4903657, z: 5.585885, w: -1.767504}
        outSlope: {x: 2.802401, y: -0.4903657, z: 5.585885, w: -1.767504}
        tangentMode: 0
        weightedMode: 0
        inWeight: {x: 0.3333333, y: 0.3333333, z: 0.3333333, w: 0.3333333}
        outWeight: {x: 0.3333333, y: 0.3333333, z: 0.3333333, w: 0.3333333}
      - serializedVersion: 3
        time: 0.08333334
        value: {x: 0.2335334, y: -0.04086382, z: 0.4654904, w: 0.852708}
        inSlope: {x: 3.283638, y: 0.6148598, z: 5.662496, w: -3.497898}
        outSlope: {x: 3.283638, y: 0.6148598, z: 5.662496, w: -3.497898}
        tangentMode: 0
        weightedMode: 0
        inWeight: {x: 0.3333333, y: 0.3333333, z: 0.3333333, w: 0.3333333}
        outWeight: {x: 0.3333333, y: 0.3333333, z: 0.3333333, w: 0.3333333}
      - serializedVersion: 3
        time: 0.125
        value: {x: 0.3448683, y: 0.01344812, z: 0.6340911, w: 0.6919636}
        inSlope: {x: 1.526585, y: 0.7672966, z: 2.216755, w: -2.213642}
        outSlope: {x: 1.526585, y: 0.7672966, z: 2.216755, w: -2.213642}
        tangentMode: 0
        weightedMode: 0
        inWeight: {x: 0.3333333, y: 0.3333333, z: 0.3333333, w: 0.3333333}
        outWeight: {x: 0.3333333, y: 0.3333333, z: 0.3333333, w: 0.3333333}
      - serializedVersion: 3
        time: 0.1666667
        value: {x: 0.3607488, y: 0.02307756, z: 0.65022, w: 0.6682379}
        inSlope: {x: -0.6984111, y: -0.06039426, z: -5.681002, w: 3.029514}
        outSlope: {x: -0.6984111, y: -0.06039426, z: -5.681002, w: 3.029514}
        tangentMode: 0
        weightedMode: 0
        inWeight: {x: 0.3333333, y: 0.3333333, z: 0.3333333, w: 0.3333333}
        outWeight: {x: 0.3333333, y: 0.3333333, z: 0.3333333, w: 0.3333333}
      - serializedVersion: 3
        time: 0.2083333
        value: {x: 0.2866674, y: 0.00841527, z: 0.1606744, w: 0.944423}
        inSlope: {x: -0.6126042, y: 0.1905048, z: -12.94466, w: 2.156101}
        outSlope: {x: -0.6126042, y: 0.1905048, z: -12.94466, w: 2.156101}
        tangentMode: 0
        weightedMode: 0
        inWeight: {x: 0.3333333, y: 0.3333333, z: 0.3333333, w: 0.3333333}
        outWeight: {x: 0.3333333, y: 0.3333333, z: 0.3333333, w: 0.3333333}
      - serializedVersion: 3
        time: 0.25
        value: {x: 0.3096984, y: 0.03895295, z: -0.4285012, w: 0.8479129}
        inSlope: {x: 0.5241987, y: 0.3093507, z: -7.337402, w: -1.390437}
        outSlope: {x: 0.5241987, y: 0.3093507, z: -7.337402, w: -1.390437}
        tangentMode: 0
        weightedMode: 0
        inWeight: {x: 0.3333333, y: 0.3333333, z: 0.3333333, w: 0.3333333}
        outWeight: {x: 0.3333333, y: 0.3333333, z: 0.3333333, w: 0.3333333}
      - serializedVersion: 3
        time: 0.2916667
        value: {x: 0.3303506, y: 0.03419449, z: -0.4507757, w: 0.8285533}
        inSlope: {x: -0.4522717, y: -0.9914127, z: 6.301663, w: 1.302251}
        outSlope: {x: -0.4522717, y: -0.9914127, z: 6.301663, w: 1.302251}
        tangentMode: 0
        weightedMode: 0
        inWeight: {x: 0.3333333, y: 0.3333333, z: 0.3333333, w: 0.3333333}
        outWeight: {x: 0.3333333, y: 0.3333333, z: 0.3333333, w: 0.3333333}
      - serializedVersion: 3
        time: 0.3333334
        value: {x: 0.2720091, y: -0.04366481, z: 0.09663773, w: 0.9564338}
        inSlope: {x: 0.5382955, y: -1.354206, z: 13.26022, w: -2.119608}
        outSlope: {x: 0.5382955, y: -1.354206, z: 13.26022, w: -2.119608}
        tangentMode: 0
        weightedMode: 0
        inWeight: {x: 0.3333333, y: 0.3333333, z: 0.3333333, w: 0.3333333}
        outWeight: {x: 0.3333333, y: 0.3333333, z: 0.3333333, w: 0.3333333}
      - serializedVersion: 3
        time: 0.375
        value: {x: 0.3752084, y: -0.07865603, z: 0.6542421, w: 0.6519196}
        inSlope: {x: 1.544563, y: 0.5297911, z: 7.20121, w: -4.33769}
        outSlope: {x: 1.544563, y: 0.5297911, z: 7.20121, w: -4.33769}
        tangentMode: 0
        weightedMode: 0
        inWeight: {x: 0.3333333, y: 0.3333333, z: 0.3333333, w: 0.3333333}
        outWeight: {x: 0.3333333, y: 0.3333333, z: 0.3333333, w: 0.3333333}
      - serializedVersion: 3
        time: 0.4166667
        value: {x: 0.4007226, y: 0.000484522, z: 0.696738, w: 0.5949599}
        inSlope: {x: -1.210127, y: 0.4030919, z: -3.270165, w: 2.754519}
        outSlope: {x: -1.210127, y: 0.4030919, z: -3.270165, w: 2.754519}
        tangentMode: 0
        weightedMode: 0
        inWeight: {x: 0.3333333, y: 0.3333333, z: 0.3333333, w: 0.3333333}
        outWeight: {x: 0.3333333, y: 0.3333333, z: 0.3333333, w: 0.3333333}
      - serializedVersion: 3
        time: 0.4583334
        value: {x: 0.2743645, y: -0.04506502, z: 0.3817282, w: 0.881463}
        inSlope: {x: -2.710465, y: -0.3528422, z: -8.967393, w: 4.654938}
        outSlope: {x: -2.710465, y: -0.3528422, z: -8.967393, w: 4.654938}
        tangentMode: 0
        weightedMode: 0
        inWeight: {x: 0.3333333, y: 0.3333333, z: 0.3333333, w: 0.3333333}
        outWeight: {x: 0.3333333, y: 0.3333333, z: 0.3333333, w: 0.3333333}
      - serializedVersion: 3
        time: 0.5
        value: {x: 0.1748505, y: -0.02891903, z: -0.05054449, w: 0.9828715}
        inSlope: {x: -1.294931, y: 0.3085156, z: -5.885099, w: 1.180631}
        outSlope: {x: -1.294931, y: 0.3085156, z: -5.885099, w: 1.180631}
        tangentMode: 0
        weightedMode: 0
        inWeight: {x: 0.3333333, y: 0.3333333, z: 0.3333333, w: 0.3333333}
        outWeight: {x: 0.3333333, y: 0.3333333, z: 0.3333333, w: 0.3333333}
      - serializedVersion: 3
        time: 0.5416667
        value: {x: 0.1664536, y: -0.0193554, z: -0.1086964, w: 0.9798488}
        inSlope: {x: -0.1679346, y: 0.2141221, z: -1.251736, w: -0.09816666}
        outSlope: {x: -0.1679346, y: 0.2141221, z: -1.251736, w: -0.09816666}
        tangentMode: 0
        weightedMode: 0
        inWeight: {x: 0.3333333, y: 0.3333333, z: 0.3333333, w: 0.3333333}
        outWeight: {x: 0.3333333, y: 0.3333333, z: 0.3333333, w: 0.3333333}
      - serializedVersion: 3
        time: 0.75
        value: {x: 0.1526446, y: 0.0074041, z: -0.248402, w: 0.9565256}
        inSlope: {x: -0.01578301, y: 0.05039186, z: -0.2419408, w: -0.06000708}
        outSlope: {x: -0.01578301, y: 0.05039186, z: -0.2419408, w: -0.06000708}
        tangentMode: 0
        weightedMode: 0
        inWeight: {x: 0.3333333, y: 0.3333333, z: 0.3333333, w: 0.3333333}
        outWeight: {x: 0.3333333, y: 0.3333333, z: 0.3333333, w: 0.3333333}
      - serializedVersion: 3
        time: 0.875
        value: {x: 0.1518637, y: 0.01012073, z: -0.2613179, w: 0.9531778}
        inSlope: {x: -0.001125098, y: 0.004155828, z: -0.01963485, w: -0.005233529}
        outSlope: {x: -0.001125098, y: 0.004155828, z: -0.01963485, w: -0.005233529}
        tangentMode: 0
        weightedMode: 0
        inWeight: {x: 0.3333333, y: 0.3333333, z: 0.3333333, w: 0.3333333}
        outWeight: {x: 0.3333333, y: 0.3333333, z: 0.3333333, w: 0.3333333}
      - serializedVersion: 3
        time: 0.9166667
        value: {x: 0.1518521, y: 0.01016404, z: -0.2615224, w: 0.9531232}
        inSlope: {x: 1.726691, y: -0.6848797, z: 5.859011, w: -0.3173879}
        outSlope: {x: 1.726691, y: -0.6848797, z: 5.859011, w: -0.3173879}
        tangentMode: 0
        weightedMode: 0
        inWeight: {x: 0.3333333, y: 0.3333333, z: 0.3333333, w: 0.3333333}
        outWeight: {x: 0.3333333, y: 0.3333333, z: 0.3333333, w: 0.3333333}
      - serializedVersion: 3
        time: 0.9583334
        value: {x: 0.2957545, y: -0.04695252, z: 0.2269326, w: 0.9267288}
        inSlope: {x: 3.829977, y: 0.87059, z: 10.9803, w: -4.396872}
        outSlope: {x: 3.829977, y: 0.87059, z: 10.9803, w: -4.396872}
        tangentMode: 0
        weightedMode: 0
        inWeight: {x: 0.3333333, y: 0.3333333, z: 0.3333333, w: 0.3333333}
        outWeight: {x: 0.3333333, y: 0.3333333, z: 0.3333333, w: 0.3333333}
      - serializedVersion: 3
        time: 1
        value: {x: 0.4710165, y: 0.08271313, z: 0.6535018, w: 0.5867175}
        inSlope: {x: 2.105019, y: 1.831311, z: 5.24319, w: -4.267953}
        outSlope: {x: 2.105019, y: 1.831311, z: 5.24319, w: -4.267953}
        tangentMode: 0
        weightedMode: 0
        inWeight: {x: 0.3333333, y: 0.3333333, z: 0.3333333, w: 0.3333333}
        outWeight: {x: 0.3333333, y: 0.3333333, z: 0.3333333, w: 0.3333333}
      - serializedVersion: 3
        time: 1.041667
        value: {x: 0.4711725, y: 0.1056567, z: 0.6638647, w: 0.5710664}
        inSlope: {x: -1.496389, y: -1.068954, z: -4.389969, w: 3.674182}
        outSlope: {x: -1.496389, y: -1.068954, z: -4.389969, w: 3.674182}
        tangentMode: 0
        weightedMode: 0
        inWeight: {x: 0.3333333, y: 0.3333333, z: 0.3333333, w: 0.3333333}
        outWeight: {x: 0.3333333, y: 0.3333333, z: 0.3333333, w: 0.3333333}
      - serializedVersion: 3
        time: 1.083333
        value: {x: 0.3463175, y: -0.006366178, z: 0.2876715, w: 0.8928991}
        inSlope: {x: -2.840165, y: -1.071515, z: -10.65111, w: 4.497786}
        outSlope: {x: -2.840165, y: -1.071515, z: -10.65111, w: 4.497786}
        tangentMode: 0
        weightedMode: 0
        inWeight: {x: 0.3333333, y: 0.3333333, z: 0.3333333, w: 0.3333333}
        outWeight: {x: 0.3333333, y: 0.3333333, z: 0.3333333, w: 0.3333333}
      - serializedVersion: 3
        time: 1.125
        value: {x: 0.2344923, y: 0.01636384, z: -0.2237273, w: 0.9458815}
        inSlope: {x: -1.224144, y: 0.3989209, z: -6.446636, w: 0.5250443}
        outSlope: {x: -1.224144, y: 0.3989209, z: -6.446636, w: 0.5250443}
        tangentMode: 0
        weightedMode: 0
        inWeight: {x: 0.3333333, y: 0.3333333, z: 0.3333333, w: 0.3333333}
        outWeight: {x: 0.3333333, y: 0.3333333, z: 0.3333333, w: 0.3333333}
      - serializedVersion: 3
        time: 1.166667
        value: {x: 0.2443056, y: 0.02687723, z: -0.2495478, w: 0.9366527}
        inSlope: {x: 1.301016, y: -0.3177944, z: 5.599397, w: -0.4621705}
        outSlope: {x: 1.301016, y: -0.3177944, z: 5.599397, w: -0.4621705}
        tangentMode: 0
        weightedMode: 0
        inWeight: {x: 0.3333333, y: 0.3333333, z: 0.3333333, w: 0.3333333}
        outWeight: {x: 0.3333333, y: 0.3333333, z: 0.3333333, w: 0.3333333}
      - serializedVersion: 3
        time: 1.208333
        value: {x: 0.3429103, y: -0.01011898, z: 0.2428886, w: 0.9073673}
        inSlope: {x: 2.720533, y: 0.6700314, z: 10.83661, w: -4.199226}
        outSlope: {x: 2.720533, y: 0.6700314, z: 10.83661, w: -4.199226}
        tangentMode: 0
        weightedMode: 0
        inWeight: {x: 0.3333333, y: 0.3333333, z: 0.3333333, w: 0.3333333}
        outWeight: {x: 0.3333333, y: 0.3333333, z: 0.3333333, w: 0.3333333}
      - serializedVersion: 3
        time: 1.25
        value: {x: 0.4710165, y: 0.08271313, z: 0.6535018, w: 0.5867175}
        inSlope: {x: 1.570567, y: 1.261498, z: 5.025471, w: -4.008745}
        outSlope: {x: 1.570567, y: 1.261498, z: 5.025471, w: -4.008745}
        tangentMode: 0
        weightedMode: 0
        inWeight: {x: 0.3333333, y: 0.3333333, z: 0.3333333, w: 0.3333333}
        outWeight: {x: 0.3333333, y: 0.3333333, z: 0.3333333, w: 0.3333333}
      - serializedVersion: 3
        time: 1.291667
        value: {x: 0.4737908, y: 0.0950058, z: 0.6616774, w: 0.5733055}
        inSlope: {x: 0.03321033, y: 0.2191147, z: 0.129768, w: -0.2099037}
        outSlope: {x: 0.03321033, y: 0.2191147, z: 0.129768, w: -0.2099037}
        tangentMode: 0
        weightedMode: 0
        inWeight: {x: 0.3333333, y: 0.3333333, z: 0.3333333, w: 0.3333333}
        outWeight: {x: 0.3333333, y: 0.3333333, z: 0.3333333, w: 0.3333333}
      - serializedVersion: 3
        time: 1.333333
        value: {x: 0.473784, y: 0.1009727, z: 0.6643158, w: 0.5692255}
        inSlope: {x: -0.03141835, y: 0.1278103, z: 0.02624705, w: -0.02686932}
        outSlope: {x: -0.03141835, y: 0.1278103, z: 0.02624705, w: -0.02686932}
        tangentMode: 0
        weightedMode: 0
        inWeight: {x: 0.3333333, y: 0.3333333, z: 0.3333333, w: 0.3333333}
        outWeight: {x: 0.3333333, y: 0.3333333, z: 0.3333333, w: 0.3333333}
      - serializedVersion: 3
        time: 1.375
        value: {x: 0.4711726, y: 0.1056567, z: 0.6638647, w: 0.5710664}
        inSlope: {x: -0.2228333, y: -0.1300708, z: -0.2206288, w: 0.4432139}
        outSlope: {x: -0.2228333, y: -0.1300708, z: -0.2206288, w: 0.4432139}
        tangentMode: 0
        weightedMode: 0
        inWeight: {x: 0.3333333, y: 0.3333333, z: 0.3333333, w: 0.3333333}
        outWeight: {x: 0.3333333, y: 0.3333333, z: 0.3333333, w: 0.3333333}
      - serializedVersion: 3
        time: 1.416667
        value: {x: 0.4552145, y: 0.09013344, z: 0.6459301, w: 0.6061601}
        inSlope: {x: -0.6736258, y: -0.7274153, z: -0.8272542, w: 1.389535}
        outSlope: {x: -0.6736258, y: -0.7274153, z: -0.8272542, w: 1.389535}
        tangentMode: 0
        weightedMode: 0
        inWeight: {x: 0.3333333, y: 0.3333333, z: 0.3333333, w: 0.3333333}
        outWeight: {x: 0.3333333, y: 0.3333333, z: 0.3333333, w: 0.3333333}
      - serializedVersion: 3
        time: 1.458333
        value: {x: 0.4150371, y: 0.04503872, z: 0.5949268, w: 0.6868609}
        inSlope: {x: -1.256926, y: -1.17607, z: -1.615714, w: 2.142018}
        outSlope: {x: -1.256926, y: -1.17607, z: -1.615714, w: 2.142018}
        tangentMode: 0
        weightedMode: 0
        inWeight: {x: 0.3333333, y: 0.3333333, z: 0.3333333, w: 0.3333333}
        outWeight: {x: 0.3333333, y: 0.3333333, z: 0.3333333, w: 0.3333333}
      - serializedVersion: 3
        time: 1.5
        value: {x: 0.3504708, y: -0.00787229, z: 0.5112873, w: 0.7846614}
        inSlope: {x: -1.761184, y: -1.130053, z: -2.298146, w: 2.23878}
        outSlope: {x: -1.761184, y: -1.130053, z: -2.298146, w: 2.23878}
        tangentMode: 0
        weightedMode: 0
        inWeight: {x: 0.3333333, y: 0.3333333, z: 0.3333333, w: 0.3333333}
        outWeight: {x: 0.3333333, y: 0.3333333, z: 0.3333333, w: 0.3333333}
      - serializedVersion: 3
        time: 1.541667
        value: {x: 0.2682716, y: -0.04913235, z: 0.4034146, w: 0.873426}
        inSlope: {x: -2.002983, y: -0.7270044, z: -2.656851, w: 1.825628}
        outSlope: {x: -2.002983, y: -0.7270044, z: -2.656851, w: 1.825628}
        tangentMode: 0
        weightedMode: 0
        inWeight: {x: 0.3333333, y: 0.3333333, z: 0.3333333, w: 0.3333333}
        outWeight: {x: 0.3333333, y: 0.3333333, z: 0.3333333, w: 0.3333333}
      - serializedVersion: 3
        time: 1.583333
        value: {x: 0.1835554, y: -0.06845605, z: 0.289883, w: 0.9367972}
        inSlope: {x: -1.843079, y: -0.2260013, z: -2.50882, w: 1.180878}
        outSlope: {x: -1.843079, y: -0.2260013, z: -2.50882, w: 1.180878}
        tangentMode: 0
        weightedMode: 0
        inWeight: {x: 0.3333333, y: 0.3333333, z: 0.3333333, w: 0.3333333}
        outWeight: {x: 0.3333333, y: 0.3333333, z: 0.3333333, w: 0.3333333}
      - serializedVersion: 3
        time: 1.625
        value: {x: 0.1146818, y: -0.06796578, z: 0.1943464, w: 0.9718324}
        inSlope: {x: -1.272223, y: 0.1175722, z: -1.807908, w: 0.5841516}
        outSlope: {x: -1.272223, y: 0.1175722, z: -1.807908, w: 0.5841516}
        tangentMode: 0
        weightedMode: 0
        inWeight: {x: 0.3333333, y: 0.3333333, z: 0.3333333, w: 0.3333333}
        outWeight: {x: 0.3333333, y: 0.3333333, z: 0.3333333, w: 0.3333333}
      - serializedVersion: 3
        time: 1.666667
        value: {x: 0.0775368, y: -0.05865835, z: 0.139224, w: 0.9854765}
        inSlope: {x: -0.633711, y: 0.2237042, z: -0.9788898, w: 0.2235944}
        outSlope: {x: -0.633711, y: 0.2237042, z: -0.9788898, w: 0.2235944}
        tangentMode: 0
        weightedMode: 0
        inWeight: {x: 0.3333333, y: 0.3333333, z: 0.3333333, w: 0.3333333}
        outWeight: {x: 0.3333333, y: 0.3333333, z: 0.3333333, w: 0.3333333}
      - serializedVersion: 3
        time: 1.75
        value: {x: 0.04868094, y: -0.04059061, z: 0.08993611, w: 0.9939286}
        inSlope: {x: -0.2903495, y: 0.2002026, z: -0.5078868, w: 0.06964587}
        outSlope: {x: -0.2903495, y: 0.2002026, z: -0.5078868, w: 0.06964587}
        tangentMode: 0
        weightedMode: 0
        inWeight: {x: 0.3333333, y: 0.3333333, z: 0.3333333, w: 0.3333333}
        outWeight: {x: 0.3333333, y: 0.3333333, z: 0.3333333, w: 0.3333333}
      - serializedVersion: 3
        time: 2.166667
        value: {x: 0.0004436898, y: -0.0004410154, z: 0.0008697766, w: 0.9999995}
        inSlope: {x: -0.01308971, y: 0.01296871, z: -0.02562956, w: 0.0000486373}
        outSlope: {x: -0.01308971, y: 0.01296871, z: -0.02562956, w: 0.0000486373}
        tangentMode: 0
        weightedMode: 0
        inWeight: {x: 0.3333333, y: 0.3333333, z: 0.3333333, w: 0.3333333}
        outWeight: {x: 0.3333333, y: 0.3333333, z: 0.3333333, w: 0.3333333}
      - serializedVersion: 3
        time: 2.25
        value: {x: 0, y: 0, z: 0, w: 1}
        inSlope: {x: -0.001088306, y: 0.001083244, z: -0.002134521, w: 0}
        outSlope: {x: -0.001088306, y: 0.001083244, z: -0.002134521, w: 0}
        tangentMode: 0
        weightedMode: 0
        inWeight: {x: 0.3333333, y: 0.3333333, z: 0.3333333, w: 0.3333333}
        outWeight: {x: 0.3333333, y: 0.3333333, z: 0.3333333, w: 0.3333333}
      m_PreInfinity: 2
      m_PostInfinity: 2
      m_RotationOrder: 4
    path: micro_dragon_clean:root_drag/micro_dragon_clean:body_drag/micro_dragon_clean:head_drag/micro_dragon_clean:left_wing_drag
  - curve:
      serializedVersion: 2
      m_Curve:
      - serializedVersion: 3
        time: 0
        value: {x: 0, y: 0, z: 0, w: 1}
        inSlope: {x: 0, y: 0, z: 0, w: 0}
        outSlope: {x: 0, y: 0, z: 0, w: 0}
        tangentMode: 0
        weightedMode: 0
        inWeight: {x: 0.3333333, y: 0.3333333, z: 0.3333333, w: 0.3333333}
        outWeight: {x: 0.3333333, y: 0.3333333, z: 0.3333333, w: 0.3333333}
      - serializedVersion: 3
        time: 2.25
        value: {x: 0, y: 0, z: 0, w: 1}
        inSlope: {x: 0, y: 0, z: 0, w: 0}
        outSlope: {x: 0, y: 0, z: 0, w: 0}
        tangentMode: 0
        weightedMode: 0
        inWeight: {x: 0.3333333, y: 0.3333333, z: 0.3333333, w: 0.3333333}
        outWeight: {x: 0.3333333, y: 0.3333333, z: 0.3333333, w: 0.3333333}
      m_PreInfinity: 2
      m_PostInfinity: 2
      m_RotationOrder: 4
    path: micro_dragon_clean:root_drag/micro_dragon_clean:body_drag/micro_dragon_clean:head_drag/micro_dragon_clean:eyes_drag
  - curve:
      serializedVersion: 2
      m_Curve:
      - serializedVersion: 3
        time: 0
        value: {x: 0, y: 0, z: 0, w: 1}
        inSlope: {x: 0, y: 0, z: 0, w: 0}
        outSlope: {x: 0, y: 0, z: 0, w: 0}
        tangentMode: 0
        weightedMode: 0
        inWeight: {x: 0.3333333, y: 0.3333333, z: 0.3333333, w: 0.3333333}
        outWeight: {x: 0.3333333, y: 0.3333333, z: 0.3333333, w: 0.3333333}
      - serializedVersion: 3
        time: 2.25
        value: {x: 0, y: 0, z: 0, w: 1}
        inSlope: {x: 0, y: 0, z: 0, w: 0}
        outSlope: {x: 0, y: 0, z: 0, w: 0}
        tangentMode: 0
        weightedMode: 0
        inWeight: {x: 0.3333333, y: 0.3333333, z: 0.3333333, w: 0.3333333}
        outWeight: {x: 0.3333333, y: 0.3333333, z: 0.3333333, w: 0.3333333}
      m_PreInfinity: 2
      m_PostInfinity: 2
      m_RotationOrder: 4
    path: micro_dragon_clean:root_drag/micro_dragon_clean:body_drag/micro_dragon_clean:head_drag/micro_dragon_clean:brows_drag
  - curve:
      serializedVersion: 2
      m_Curve:
      - serializedVersion: 3
        time: 0
        value: {x: 0, y: 0, z: 0, w: 1}
        inSlope: {x: -0.004595409, y: 0.07543737, z: 0.10674, w: -0.0007123944}
        outSlope: {x: -0.004595409, y: 0.07543737, z: 0.10674, w: -0.0007123944}
        tangentMode: 0
        weightedMode: 0
        inWeight: {x: 0.3333333, y: 0.3333333, z: 0.3333333, w: 0.3333333}
        outWeight: {x: 0.3333333, y: 0.3333333, z: 0.3333333, w: 0.3333333}
      - serializedVersion: 3
        time: 0.1666667
        value: {x: -0.006688998, y: 0.02099328, z: 0.03007271, w: 0.9993049}
        inSlope: {x: -0.07313116, y: 0.01913815, z: 0.03199574, w: -0.001770972}
        outSlope: {x: -0.07313116, y: 0.01913815, z: 0.03199574, w: -0.001770972}
        tangentMode: 0
        weightedMode: 0
        inWeight: {x: 0.3333333, y: 0.3333333, z: 0.3333333, w: 0.3333333}
        outWeight: {x: 0.3333333, y: 0.3333333, z: 0.3333333, w: 0.3333333}
      - serializedVersion: 3
        time: 0.8333334
        value: {x: -0.03505769, y: -0.03510364, z: -0.05091807, w: 0.9974698}
        inSlope: {x: -0.01155443, y: -0.04425292, z: -0.06611423, w: -0.005277877}
        outSlope: {x: -0.01155443, y: -0.04425292, z: -0.06611423, w: -0.005277877}
        tangentMode: 0
        weightedMode: 0
        inWeight: {x: 0.3333333, y: 0.3333333, z: 0.3333333, w: 0.3333333}
        outWeight: {x: 0.3333333, y: 0.3333333, z: 0.3333333, w: 0.3333333}
      - serializedVersion: 3
        time: 1
        value: {x: -0.02828965, y: -0.02734447, z: -0.03921723, w: 0.9984558}
        inSlope: {x: 0.1401723, y: 0.1981759, z: 0.2933262, w: 0.02006005}
        outSlope: {x: 0.1401723, y: 0.1981759, z: 0.2933262, w: 0.02006005}
        tangentMode: 0
        weightedMode: 0
        inWeight: {x: 0.3333333, y: 0.3333333, z: 0.3333333, w: 0.3333333}
        outWeight: {x: 0.3333333, y: 0.3333333, z: 0.3333333, w: 0.3333333}
      - serializedVersion: 3
        time: 1.166667
        value: {x: -0.009138126, y: 0.007002153, z: 0.009918291, w: 0.9998845}
        inSlope: {x: 0.01907527, y: 0.09888045, z: 0.1406641, w: -0.001459836}
        outSlope: {x: 0.01907527, y: 0.09888045, z: 0.1406641, w: -0.001459836}
        tangentMode: 0
        weightedMode: 0
        inWeight: {x: 0.3333333, y: 0.3333333, z: 0.3333333, w: 0.3333333}
        outWeight: {x: 0.3333333, y: 0.3333333, z: 0.3333333, w: 0.3333333}
      - serializedVersion: 3
        time: 1.416667
        value: {x: -0.01182525, y: 0.01107998, z: 0.01571204, w: 0.9997452}
        inSlope: {x: -0.01470223, y: -0.05651452, z: -0.09113702, w: 0.001663685}
        outSlope: {x: -0.01470223, y: -0.05651452, z: -0.09113702, w: 0.001663685}
        tangentMode: 0
        weightedMode: 0
        inWeight: {x: 0.3333333, y: 0.3333333, z: 0.3333333, w: 0.3333333}
        outWeight: {x: 0.3333333, y: 0.3333333, z: 0.3333333, w: 0.3333333}
      - serializedVersion: 3
        time: 1.791667
        value: {x: -0.02174172, y: -0.03225812, z: -0.05562229, w: 0.9976938}
        inSlope: {x: -0.02793527, y: -0.01327188, z: -0.02496855, w: -0.002391811}
        outSlope: {x: -0.02793527, y: -0.01327188, z: -0.02496855, w: -0.002391811}
        tangentMode: 0
        weightedMode: 0
        inWeight: {x: 0.3333333, y: 0.3333333, z: 0.3333333, w: 0.3333333}
        outWeight: {x: 0.3333333, y: 0.3333333, z: 0.3333333, w: 0.3333333}
      - serializedVersion: 3
        time: 2.083333
        value: {x: -0.02386743, y: -0.027255, z: -0.04138764, w: 0.9984862}
        inSlope: {x: 0.04954847, y: 0.06990962, z: 0.1603933, w: 0.009349839}
        outSlope: {x: 0.04954847, y: 0.06990962, z: 0.1603933, w: 0.009349839}
        tangentMode: 0
        weightedMode: 0
        inWeight: {x: 0.3333333, y: 0.3333333, z: 0.3333333, w: 0.3333333}
        outWeight: {x: 0.3333333, y: 0.3333333, z: 0.3333333, w: 0.3333333}
      - serializedVersion: 3
        time: 2.25
        value: {x: 0, y: 0, z: 0, w: 1}
        inSlope: {x: 0.04369664, y: 0.09502997, z: 0.1318935, w: 0.001180177}
        outSlope: {x: 0.04369664, y: 0.09502997, z: 0.1318935, w: 0.001180177}
        tangentMode: 0
        weightedMode: 0
        inWeight: {x: 0.3333333, y: 0.3333333, z: 0.3333333, w: 0.3333333}
        outWeight: {x: 0.3333333, y: 0.3333333, z: 0.3333333, w: 0.3333333}
      m_PreInfinity: 2
      m_PostInfinity: 2
      m_RotationOrder: 4
    path: micro_dragon_clean:root_drag/micro_dragon_clean:body_drag/micro_dragon_clean:left_shoulder_drag
  - curve:
      serializedVersion: 2
      m_Curve:
      - serializedVersion: 3
        time: 0
        value: {x: 0, y: 0, z: 0, w: 1}
        inSlope: {x: 0, y: 0, z: 0, w: 0}
        outSlope: {x: 0, y: 0, z: 0, w: 0}
        tangentMode: 0
        weightedMode: 0
        inWeight: {x: 0.3333333, y: 0.3333333, z: 0.3333333, w: 0.3333333}
        outWeight: {x: 0.3333333, y: 0.3333333, z: 0.3333333, w: 0.3333333}
      - serializedVersion: 3
        time: 2.25
        value: {x: 0, y: 0, z: 0, w: 1}
        inSlope: {x: 0, y: 0, z: 0, w: 0}
        outSlope: {x: 0, y: 0, z: 0, w: 0}
        tangentMode: 0
        weightedMode: 0
        inWeight: {x: 0.3333333, y: 0.3333333, z: 0.3333333, w: 0.3333333}
        outWeight: {x: 0.3333333, y: 0.3333333, z: 0.3333333, w: 0.3333333}
      m_PreInfinity: 2
      m_PostInfinity: 2
      m_RotationOrder: 4
    path: micro_dragon_clean:root_drag/micro_dragon_clean:body_drag/micro_dragon_clean:left_shoulder_drag/micro_dragon_clean:left_arm_drag
  - curve:
      serializedVersion: 2
      m_Curve:
      - serializedVersion: 3
        time: 0
        value: {x: 0, y: 0, z: 0, w: 1}
        inSlope: {x: 0.0310621, y: -0.05191094, z: -0.1561756, w: -0.001168727}
        outSlope: {x: 0.0310621, y: -0.05191094, z: -0.1561756, w: -0.001168727}
        tangentMode: 0
        weightedMode: 0
        inWeight: {x: 0.3333333, y: 0.3333333, z: 0.3333333, w: 0.3333333}
        outWeight: {x: 0.3333333, y: 0.3333333, z: 0.3333333, w: 0.3333333}
      - serializedVersion: 3
        time: 0.1666667
        value: {x: 0.01569783, y: -0.02817618, z: -0.0433775, w: 0.998538}
        inSlope: {x: 0.01800248, y: -0.04604069, z: -0.01948456, w: -0.002207277}
        outSlope: {x: 0.01800248, y: -0.04604069, z: -0.01948456, w: -0.002207277}
        tangentMode: 0
        weightedMode: 0
        inWeight: {x: 0.3333333, y: 0.3333333, z: 0.3333333, w: 0.3333333}
        outWeight: {x: 0.3333333, y: 0.3333333, z: 0.3333333, w: 0.3333333}
      - serializedVersion: 3
        time: 0.5
        value: {x: -0.01281961, y: -0.01059049, z: 0.05417898, w: 0.9983928}
        inSlope: {x: -0.07590443, y: 0.03890884, z: 0.246719, w: -0.01340676}
        outSlope: {x: -0.07590443, y: 0.03890884, z: 0.246719, w: -0.01340676}
        tangentMode: 0
        weightedMode: 0
        inWeight: {x: 0.3333333, y: 0.3333333, z: 0.3333333, w: 0.3333333}
        outWeight: {x: 0.3333333, y: 0.3333333, z: 0.3333333, w: 0.3333333}
      - serializedVersion: 3
        time: 0.7916667
        value: {x: -0.01433324, y: -0.008033439, z: 0.06411465, w: 0.9978073}
        inSlope: {x: 0.01636631, y: 0.00289009, z: -0.02129969, w: 0.001622915}
        outSlope: {x: 0.01636631, y: 0.00289009, z: -0.02129969, w: 0.001622915}
        tangentMode: 0
        weightedMode: 0
        inWeight: {x: 0.3333333, y: 0.3333333, z: 0.3333333, w: 0.3333333}
        outWeight: {x: 0.3333333, y: 0.3333333, z: 0.3333333, w: 0.3333333}
      - serializedVersion: 3
        time: 1.166667
        value: {x: -0.009544822, y: -0.00723024, z: 0.03332008, w: 0.999373}
        inSlope: {x: -0.01728007, y: -0.04109785, z: -0.1933235, w: 0.005585429}
        outSlope: {x: -0.01728007, y: -0.04109785, z: -0.1933235, w: 0.005585429}
        tangentMode: 0
        weightedMode: 0
        inWeight: {x: 0.3333333, y: 0.3333333, z: 0.3333333, w: 0.3333333}
        outWeight: {x: 0.3333333, y: 0.3333333, z: 0.3333333, w: 0.3333333}
      - serializedVersion: 3
        time: 1.375
        value: {x: -0.01891529, y: -0.0284747, z: -0.0008829288, w: 0.9994152}
        inSlope: {x: 0.0278852, y: 0.04787476, z: 0.129549, w: 0.00162506}
        outSlope: {x: 0.0278852, y: 0.04787476, z: 0.129549, w: 0.00162506}
        tangentMode: 0
        weightedMode: 0
        inWeight: {x: 0.3333333, y: 0.3333333, z: 0.3333333, w: 0.3333333}
        outWeight: {x: 0.3333333, y: 0.3333333, z: 0.3333333, w: 0.3333333}
      - serializedVersion: 3
        time: 1.708333
        value: {x: -0.001173705, y: 0.009424588, z: 0.09633706, w: 0.9953035}
        inSlope: {x: 0.01964628, y: 0.05219594, z: 0.1272261, w: -0.0124097}
        outSlope: {x: 0.01964628, y: 0.05219594, z: 0.1272261, w: -0.0124097}
        tangentMode: 0
        weightedMode: 0
        inWeight: {x: 0.3333333, y: 0.3333333, z: 0.3333333, w: 0.3333333}
        outWeight: {x: 0.3333333, y: 0.3333333, z: 0.3333333, w: 0.3333333}
      - serializedVersion: 3
        time: 2
        value: {x: -0.00006135075, y: 0.006055858, z: 0.08697394, w: 0.9961922}
        inSlope: {x: 0.004697484, y: -0.0439834, z: -0.1480361, w: 0.01302911}
        outSlope: {x: 0.004697484, y: -0.0439834, z: -0.1480361, w: 0.01302911}
        tangentMode: 0
        weightedMode: 0
        inWeight: {x: 0.3333333, y: 0.3333333, z: 0.3333333, w: 0.3333333}
        outWeight: {x: 0.3333333, y: 0.3333333, z: 0.3333333, w: 0.3333333}
      - serializedVersion: 3
        time: 2.208333
        value: {x: 0.00004772274, y: 0.00004344604, z: 0.01719322, w: 0.9998522}
        inSlope: {x: -0.001844635, y: -0.003507683, z: -0.4272036, w: 0.007607455}
        outSlope: {x: -0.001844635, y: -0.003507683, z: -0.4272036, w: 0.007607455}
        tangentMode: 0
        weightedMode: 0
        inWeight: {x: 0.3333333, y: 0.3333333, z: 0.3333333, w: 0.3333333}
        outWeight: {x: 0.3333333, y: 0.3333333, z: 0.3333333, w: 0.3333333}
      - serializedVersion: 3
        time: 2.25
        value: {x: 0, y: 0, z: 0, w: 1}
        inSlope: {x: -0.0005681999, y: -0.0005197768, z: -0.206318, w: 0.001773841}
        outSlope: {x: -0.0005681999, y: -0.0005197768, z: -0.206318, w: 0.001773841}
        tangentMode: 0
        weightedMode: 0
        inWeight: {x: 0.3333333, y: 0.3333333, z: 0.3333333, w: 0.3333333}
        outWeight: {x: 0.3333333, y: 0.3333333, z: 0.3333333, w: 0.3333333}
      m_PreInfinity: 2
      m_PostInfinity: 2
      m_RotationOrder: 4
    path: micro_dragon_clean:root_drag/micro_dragon_clean:body_drag/micro_dragon_clean:right_shoulder_drag
  - curve:
      serializedVersion: 2
      m_Curve:
      - serializedVersion: 3
        time: 0
        value: {x: 0, y: 0, z: 0, w: 1}
        inSlope: {x: 0, y: 0, z: 0, w: 0}
        outSlope: {x: 0, y: 0, z: 0, w: 0}
        tangentMode: 0
        weightedMode: 0
        inWeight: {x: 0.3333333, y: 0.3333333, z: 0.3333333, w: 0.3333333}
        outWeight: {x: 0.3333333, y: 0.3333333, z: 0.3333333, w: 0.3333333}
      - serializedVersion: 3
        time: 2.25
        value: {x: 0, y: 0, z: 0, w: 1}
        inSlope: {x: 0, y: 0, z: 0, w: 0}
        outSlope: {x: 0, y: 0, z: 0, w: 0}
        tangentMode: 0
        weightedMode: 0
        inWeight: {x: 0.3333333, y: 0.3333333, z: 0.3333333, w: 0.3333333}
        outWeight: {x: 0.3333333, y: 0.3333333, z: 0.3333333, w: 0.3333333}
      m_PreInfinity: 2
      m_PostInfinity: 2
      m_RotationOrder: 4
    path: micro_dragon_clean:root_drag/micro_dragon_clean:body_drag/micro_dragon_clean:right_shoulder_drag/micro_dragon_clean:right_arm_drag
  - curve:
      serializedVersion: 2
      m_Curve:
      - serializedVersion: 3
        time: 0
        value: {x: 0, y: 0, z: 0, w: 1}
        inSlope: {x: 1.459823, y: 1.437132, z: 0.1794356, w: 0.2342156}
        outSlope: {x: 1.459823, y: 1.437132, z: 0.1794356, w: 0.2342156}
        tangentMode: 0
        weightedMode: 0
        inWeight: {x: 0.3333333, y: 0.3333333, z: 0.3333333, w: 0.3333333}
        outWeight: {x: 0.3333333, y: 0.3333333, z: 0.3333333, w: 0.3333333}
      - serializedVersion: 3
        time: 0.04166669
        value: {x: -0.008583246, y: -0.02937883, z: -0.004866625, w: 0.9995196}
        inSlope: {x: -0.3907219, y: -1.18745, z: -0.1942979, w: -0.06687142}
        outSlope: {x: -0.3907219, y: -1.18745, z: -0.1942979, w: -0.06687142}
        tangentMode: 0
        weightedMode: 0
        inWeight: {x: 0.3333333, y: 0.3333333, z: 0.3333333, w: 0.3333333}
        outWeight: {x: 0.3333333, y: 0.3333333, z: 0.3333333, w: 0.3333333}
      - serializedVersion: 3
        time: 0.125
        value: {x: -0.06590848, y: -0.1804937, z: -0.03375729, w: 0.9807847}
        inSlope: {x: -0.8233694, y: -1.772194, z: -0.4498107, w: -0.3853318}
        outSlope: {x: -0.8233694, y: -1.772194, z: -0.4498107, w: -0.3853318}
        tangentMode: 0
        weightedMode: 0
        inWeight: {x: 0.3333333, y: 0.3333333, z: 0.3333333, w: 0.3333333}
        outWeight: {x: 0.3333333, y: 0.3333333, z: 0.3333333, w: 0.3333333}
      - serializedVersion: 3
        time: 0.2083333
        value: {x: -0.1311456, y: -0.2726255, z: -0.06759299, w: 0.9507404}
        inSlope: {x: -0.579581, y: 0.1634269, z: -0.09881216, w: -0.04075599}
        outSlope: {x: -0.579581, y: 0.1634269, z: -0.09881216, w: -0.04075599}
        tangentMode: 0
        weightedMode: 0
        inWeight: {x: 0.3333333, y: 0.3333333, z: 0.3333333, w: 0.3333333}
        outWeight: {x: 0.3333333, y: 0.3333333, z: 0.3333333, w: 0.3333333}
      - serializedVersion: 3
        time: 0.2916667
        value: {x: -0.157985, y: -0.1473773, z: -0.03794234, w: 0.9756439}
        inSlope: {x: -0.141394, y: 2.062223, z: 0.6099445, w: 0.3123964}
        outSlope: {x: -0.141394, y: 2.062223, z: 0.6099445, w: 0.3123964}
        tangentMode: 0
        weightedMode: 0
        inWeight: {x: 0.3333333, y: 0.3333333, z: 0.3333333, w: 0.3333333}
        outWeight: {x: 0.3333333, y: 0.3333333, z: 0.3333333, w: 0.3333333}
      - serializedVersion: 3
        time: 0.3333334
        value: {x: -0.1612555, y: -0.06116612, z: -0.01108134, w: 0.9849531}
        inSlope: {x: -0.04705863, y: 1.506386, z: 0.4730916, w: 0.1310312}
        outSlope: {x: -0.04705863, y: 1.506386, z: 0.4730916, w: 0.1310312}
        tangentMode: 0
        weightedMode: 0
        inWeight: {x: 0.3333333, y: 0.3333333, z: 0.3333333, w: 0.3333333}
        outWeight: {x: 0.3333333, y: 0.3333333, z: 0.3333333, w: 0.3333333}
      - serializedVersion: 3
        time: 0.375
        value: {x: -0.1619065, y: -0.02184507, z: 0.00148196, w: 0.9865632}
        inSlope: {x: 0.03615382, y: 0.2008748, z: 0.08218192, w: 0.01725771}
        outSlope: {x: 0.03615382, y: 0.2008748, z: 0.08218192, w: 0.01725771}
        tangentMode: 0
        weightedMode: 0
        inWeight: {x: 0.3333333, y: 0.3333333, z: 0.3333333, w: 0.3333333}
        outWeight: {x: 0.3333333, y: 0.3333333, z: 0.3333333, w: 0.3333333}
      - serializedVersion: 3
        time: 0.5
        value: {x: -0.1345127, y: -0.1626869, z: -0.03044216, w: 0.9769916}
        inSlope: {x: 0.363609, y: -1.418712, z: -0.2625368, w: -0.1867211}
        outSlope: {x: 0.363609, y: -1.418712, z: -0.2625368, w: -0.1867211}
        tangentMode: 0
        weightedMode: 0
        inWeight: {x: 0.3333333, y: 0.3333333, z: 0.3333333, w: 0.3333333}
        outWeight: {x: 0.3333333, y: 0.3333333, z: 0.3333333, w: 0.3333333}
      - serializedVersion: 3
        time: 0.5833334
        value: {x: -0.1007142, y: -0.239524, z: -0.03922125, w: 0.9648558}
        inSlope: {x: 0.3963685, y: -0.1323163, z: 0.07564601, w: 0.0140527}
        outSlope: {x: 0.3963685, y: -0.1323163, z: 0.07564601, w: 0.0140527}
        tangentMode: 0
        weightedMode: 0
        inWeight: {x: 0.3333333, y: 0.3333333, z: 0.3333333, w: 0.3333333}
        outWeight: {x: 0.3333333, y: 0.3333333, z: 0.3333333, w: 0.3333333}
      - serializedVersion: 3
        time: 0.75
        value: {x: -0.06140439, y: -0.1119049, z: -0.004145657, w: 0.9918113}
        inSlope: {x: 0.0757683, y: 0.919991, z: 0.192844, w: 0.1138029}
        outSlope: {x: 0.0757683, y: 0.919991, z: 0.192844, w: 0.1138029}
        tangentMode: 0
        weightedMode: 0
        inWeight: {x: 0.3333333, y: 0.3333333, z: 0.3333333, w: 0.3333333}
        outWeight: {x: 0.3333333, y: 0.3333333, z: 0.3333333, w: 0.3333333}
      - serializedVersion: 3
        time: 0.875
        value: {x: -0.05950406, y: -0.05898457, z: 0.005697639, w: 0.9964676}
        inSlope: {x: -0.02800173, y: 0.07813007, z: 0.002678209, w: 0.002914668}
        outSlope: {x: -0.02800173, y: 0.07813007, z: 0.002678209, w: 0.002914668}
        tangentMode: 0
        weightedMode: 0
        inWeight: {x: 0.3333333, y: 0.3333333, z: 0.3333333, w: 0.3333333}
        outWeight: {x: 0.3333333, y: 0.3333333, z: 0.3333333, w: 0.3333333}
      - serializedVersion: 3
        time: 1.041667
        value: {x: -0.09448697, y: -0.04641034, z: 0.00458108, w: 0.9944332}
        inSlope: {x: -0.4493207, y: 0.0716609, z: -0.01646926, w: -0.03998994}
        outSlope: {x: -0.4493207, y: 0.0716609, z: -0.01646926, w: -0.03998994}
        tangentMode: 0
        weightedMode: 0
        inWeight: {x: 0.3333333, y: 0.3333333, z: 0.3333333, w: 0.3333333}
        outWeight: {x: 0.3333333, y: 0.3333333, z: 0.3333333, w: 0.3333333}
      - serializedVersion: 3
        time: 1.25
        value: {x: -0.1598829, y: -0.03254805, z: 0.002967688, w: 0.9865948}
        inSlope: {x: -0.03457015, y: 0.06008555, z: 0.003240007, w: -0.003554115}
        outSlope: {x: -0.03457015, y: 0.06008555, z: 0.003240007, w: -0.003554115}
        tangentMode: 0
        weightedMode: 0
        inWeight: {x: 0.3333333, y: 0.3333333, z: 0.3333333, w: 0.3333333}
        outWeight: {x: 0.3333333, y: 0.3333333, z: 0.3333333, w: 0.3333333}
      - serializedVersion: 3
        time: 1.583333
        value: {x: -0.07005483, y: -0.01783052, z: 0.004535792, w: 0.9973735}
        inSlope: {x: 0.7191347, y: 0.03281927, z: 0.006395499, w: 0.04874329}
        outSlope: {x: 0.7191347, y: 0.03281927, z: 0.006395499, w: 0.04874329}
        tangentMode: 0
        weightedMode: 0
        inWeight: {x: 0.3333333, y: 0.3333333, z: 0.3333333, w: 0.3333333}
        outWeight: {x: 0.3333333, y: 0.3333333, z: 0.3333333, w: 0.3333333}
      - serializedVersion: 3
        time: 1.791667
        value: {x: 0.05714843, y: -0.01030018, z: 0.004675853, w: 0.9983016}
        inSlope: {x: 0.2105857, y: 0.03543788, z: -0.007714622, w: -0.01075528}
        outSlope: {x: 0.2105857, y: 0.03543788, z: -0.007714622, w: -0.01075528}
        tangentMode: 0
        weightedMode: 0
        inWeight: {x: 0.3333333, y: 0.3333333, z: 0.3333333, w: 0.3333333}
        outWeight: {x: 0.3333333, y: 0.3333333, z: 0.3333333, w: 0.3333333}
      - serializedVersion: 3
        time: 2.041667
        value: {x: 0.04327926, y: -0.002659631, z: 0.002112405, w: 0.9990572}
        inSlope: {x: -0.1617, y: 0.0232783, z: -0.0103044, w: 0.007010208}
        outSlope: {x: -0.1617, y: 0.0232783, z: -0.0103044, w: 0.007010208}
        tangentMode: 0
        weightedMode: 0
        inWeight: {x: 0.3333333, y: 0.3333333, z: 0.3333333, w: 0.3333333}
        outWeight: {x: 0.3333333, y: 0.3333333, z: 0.3333333, w: 0.3333333}
      - serializedVersion: 3
        time: 2.25
        value: {x: 0, y: 0, z: 0, w: 1}
        inSlope: {x: -0.1174837, y: 0.00145096, z: -0.005146727, w: 0.0005757831}
        outSlope: {x: -0.1174837, y: 0.00145096, z: -0.005146727, w: 0.0005757831}
        tangentMode: 0
        weightedMode: 0
        inWeight: {x: 0.3333333, y: 0.3333333, z: 0.3333333, w: 0.3333333}
        outWeight: {x: 0.3333333, y: 0.3333333, z: 0.3333333, w: 0.3333333}
      m_PreInfinity: 2
      m_PostInfinity: 2
      m_RotationOrder: 4
    path: micro_dragon_clean:root_drag/micro_dragon_clean:body_drag/micro_dragon_clean:tail_drag
  m_CompressedRotationCurves: []
  m_EulerCurves: []
  m_PositionCurves:
  - curve:
      serializedVersion: 2
      m_Curve:
      - serializedVersion: 3
        time: 0
        value: {x: 0, y: 0, z: 0}
        inSlope: {x: 0, y: 0, z: 0}
        outSlope: {x: 0, y: 0.0000004570032, z: 0}
        tangentMode: 0
        weightedMode: 0
        inWeight: {x: 0.3333333, y: 0.3333333, z: 0.3333333}
        outWeight: {x: 0.3333333, y: 0.3333333, z: 0.3333333}
      - serializedVersion: 3
        time: 0.25
        value: {x: 0, y: 0.1369354, z: 0}
        inSlope: {x: 0, y: 0.6099894, z: 0}
        outSlope: {x: 0, y: 0.6099877, z: 0}
        tangentMode: 0
        weightedMode: 0
        inWeight: {x: 0.3333333, y: 0.3333333, z: 0.3333333}
        outWeight: {x: 0.3333333, y: 0.3333333, z: 0.3333333}
      - serializedVersion: 3
        time: 0.4583334
        value: {x: 0, y: 0.1750035, z: 0}
        inSlope: {x: 0, y: -0.04058823, z: 0}
        outSlope: {x: 0, y: -0.04058867, z: 0}
        tangentMode: 0
        weightedMode: 0
        inWeight: {x: 0.3333333, y: 0.3333333, z: 0.3333333}
        outWeight: {x: 0.3333333, y: 0.3333333, z: 0.3333333}
      - serializedVersion: 3
        time: 1.041667
        value: {x: 0, y: 0.1079198, z: 0}
        inSlope: {x: 0, y: 0.0000001332954, z: 0}
        outSlope: {x: 0, y: 0.0000005977286, z: 0}
        tangentMode: 0
        weightedMode: 0
        inWeight: {x: 0.3333333, y: 0.3333333, z: 0.3333333}
        outWeight: {x: 0.3333333, y: 0.3333333, z: 0.3333333}
      - serializedVersion: 3
        time: 1.375
        value: {x: 0, y: 0.2431751, z: 0}
        inSlope: {x: 0, y: 0.324622, z: 0}
        outSlope: {x: 0, y: 0.3246136, z: 0}
        tangentMode: 0
        weightedMode: 0
        inWeight: {x: 0.3333333, y: 0.3333333, z: 0.3333333}
        outWeight: {x: 0.3333333, y: 0.3333333, z: 0.3333333}
      - serializedVersion: 3
        time: 1.583333
        value: {x: 0, y: 0.2657177, z: 0}
        inSlope: {x: 0, y: -0.0000009813101, z: 0}
        outSlope: {x: 0, y: -0.000003370105, z: 0}
        tangentMode: 0
        weightedMode: 0
        inWeight: {x: 0.3333333, y: 0.3333333, z: 0.3333333}
        outWeight: {x: 0.3333333, y: 0.3333333, z: 0.3333333}
      - serializedVersion: 3
        time: 2.25
        value: {x: 0, y: 0, z: 0}
        inSlope: {x: 0, y: -0.000001787264, z: 0}
        outSlope: {x: 0, y: 0, z: 0}
        tangentMode: 0
        weightedMode: 0
        inWeight: {x: 0.3333333, y: 0.3333333, z: 0.3333333}
        outWeight: {x: 0.3333333, y: 0.3333333, z: 0.3333333}
      m_PreInfinity: 2
      m_PostInfinity: 2
      m_RotationOrder: 4
    path: micro_dragon_clean:root_drag
  - curve:
      serializedVersion: 2
      m_Curve:
      - serializedVersion: 3
        time: 0
        value: {x: 0, y: 0.2229934, z: -0.01472573}
        inSlope: {x: 0, y: 0, z: 0}
        outSlope: {x: 0, y: 0, z: 0}
        tangentMode: 0
        weightedMode: 0
        inWeight: {x: 0.3333333, y: 0.3333333, z: 0.3333333}
        outWeight: {x: 0.3333333, y: 0.3333333, z: 0.3333333}
      - serializedVersion: 3
        time: 2.25
        value: {x: 0, y: 0.2229934, z: -0.01472573}
        inSlope: {x: 0, y: 0, z: 0}
        outSlope: {x: 0, y: 0, z: 0}
        tangentMode: 0
        weightedMode: 0
        inWeight: {x: 0.3333333, y: 0.3333333, z: 0.3333333}
        outWeight: {x: 0.3333333, y: 0.3333333, z: 0.3333333}
      m_PreInfinity: 2
      m_PostInfinity: 2
      m_RotationOrder: 4
    path: micro_dragon_clean:root_drag/micro_dragon_clean:body_drag
  - curve:
      serializedVersion: 2
      m_Curve:
      - serializedVersion: 3
        time: 0
        value: {x: 0, y: 0.3776337, z: -0.04502251}
        inSlope: {x: 0, y: 0, z: 0}
        outSlope: {x: 0, y: 0, z: 0}
        tangentMode: 0
        weightedMode: 0
        inWeight: {x: 0.3333333, y: 0.3333333, z: 0.3333333}
        outWeight: {x: 0.3333333, y: 0.3333333, z: 0.3333333}
      - serializedVersion: 3
        time: 2.25
        value: {x: 0, y: 0.3776337, z: -0.04502251}
        inSlope: {x: 0, y: 0, z: 0}
        outSlope: {x: 0, y: 0, z: 0}
        tangentMode: 0
        weightedMode: 0
        inWeight: {x: 0.3333333, y: 0.3333333, z: 0.3333333}
        outWeight: {x: 0.3333333, y: 0.3333333, z: 0.3333333}
      m_PreInfinity: 2
      m_PostInfinity: 2
      m_RotationOrder: 4
    path: micro_dragon_clean:root_drag/micro_dragon_clean:body_drag/micro_dragon_clean:head_drag
  - curve:
      serializedVersion: 2
      m_Curve:
      - serializedVersion: 3
        time: 0
        value: {x: 0.3920847, y: 0.3654264, z: -0.1960993}
        inSlope: {x: 0, y: 0, z: 0}
        outSlope: {x: 0, y: 0, z: 0}
        tangentMode: 0
        weightedMode: 0
        inWeight: {x: 0.3333333, y: 0.3333333, z: 0.3333333}
        outWeight: {x: 0.3333333, y: 0.3333333, z: 0.3333333}
      - serializedVersion: 3
        time: 2.25
        value: {x: 0.3920847, y: 0.3654264, z: -0.1960993}
        inSlope: {x: 0, y: 0, z: 0}
        outSlope: {x: 0, y: 0, z: 0}
        tangentMode: 0
        weightedMode: 0
        inWeight: {x: 0.3333333, y: 0.3333333, z: 0.3333333}
        outWeight: {x: 0.3333333, y: 0.3333333, z: 0.3333333}
      m_PreInfinity: 2
      m_PostInfinity: 2
      m_RotationOrder: 4
    path: micro_dragon_clean:root_drag/micro_dragon_clean:body_drag/micro_dragon_clean:head_drag/micro_dragon_clean:right_wing_drag
  - curve:
      serializedVersion: 2
      m_Curve:
      - serializedVersion: 3
        time: 0
        value: {x: 0, y: -0.1126452, z: 0.5164514}
        inSlope: {x: 0, y: 0, z: 0}
        outSlope: {x: 0, y: 0, z: 0}
        tangentMode: 0
        weightedMode: 0
        inWeight: {x: 0.3333333, y: 0.3333333, z: 0.3333333}
        outWeight: {x: 0.3333333, y: 0.3333333, z: 0.3333333}
      - serializedVersion: 3
        time: 2.25
        value: {x: 0, y: -0.1126452, z: 0.5164514}
        inSlope: {x: 0, y: 0, z: 0}
        outSlope: {x: 0, y: 0, z: 0}
        tangentMode: 0
        weightedMode: 0
        inWeight: {x: 0.3333333, y: 0.3333333, z: 0.3333333}
        outWeight: {x: 0.3333333, y: 0.3333333, z: 0.3333333}
      m_PreInfinity: 2
      m_PostInfinity: 2
      m_RotationOrder: 4
    path: micro_dragon_clean:root_drag/micro_dragon_clean:body_drag/micro_dragon_clean:head_drag/micro_dragon_clean:snout_drag
  - curve:
      serializedVersion: 2
      m_Curve:
      - serializedVersion: 3
        time: 0
        value: {x: -0.3921256, y: 0.3654546, z: -0.1959705}
        inSlope: {x: 0, y: 0, z: 0}
        outSlope: {x: 0, y: 0, z: 0}
        tangentMode: 0
        weightedMode: 0
        inWeight: {x: 0.3333333, y: 0.3333333, z: 0.3333333}
        outWeight: {x: 0.3333333, y: 0.3333333, z: 0.3333333}
      - serializedVersion: 3
        time: 2.25
        value: {x: -0.3921256, y: 0.3654546, z: -0.1959705}
        inSlope: {x: 0, y: 0, z: 0}
        outSlope: {x: 0, y: 0, z: 0}
        tangentMode: 0
        weightedMode: 0
        inWeight: {x: 0.3333333, y: 0.3333333, z: 0.3333333}
        outWeight: {x: 0.3333333, y: 0.3333333, z: 0.3333333}
      m_PreInfinity: 2
      m_PostInfinity: 2
      m_RotationOrder: 4
    path: micro_dragon_clean:root_drag/micro_dragon_clean:body_drag/micro_dragon_clean:head_drag/micro_dragon_clean:left_wing_drag
  - curve:
      serializedVersion: 2
      m_Curve:
      - serializedVersion: 3
        time: 0
        value: {x: 0, y: 0.0990879, z: 0.08028246}
        inSlope: {x: 0, y: 0, z: 0}
        outSlope: {x: 0, y: 0, z: 0}
        tangentMode: 0
        weightedMode: 0
        inWeight: {x: 0.3333333, y: 0.3333333, z: 0.3333333}
        outWeight: {x: 0.3333333, y: 0.3333333, z: 0.3333333}
      - serializedVersion: 3
        time: 2.25
        value: {x: 0, y: 0.0990879, z: 0.08028246}
        inSlope: {x: 0, y: 0, z: 0}
        outSlope: {x: 0, y: 0, z: 0}
        tangentMode: 0
        weightedMode: 0
        inWeight: {x: 0.3333333, y: 0.3333333, z: 0.3333333}
        outWeight: {x: 0.3333333, y: 0.3333333, z: 0.3333333}
      m_PreInfinity: 2
      m_PostInfinity: 2
      m_RotationOrder: 4
    path: micro_dragon_clean:root_drag/micro_dragon_clean:body_drag/micro_dragon_clean:head_drag/micro_dragon_clean:eyes_drag
  - curve:
      serializedVersion: 2
      m_Curve:
      - serializedVersion: 3
        time: 0
        value: {x: 0, y: 0.4305527, z: 0.4054444}
        inSlope: {x: 0, y: 0, z: 0}
        outSlope: {x: 0, y: 0, z: 0}
        tangentMode: 0
        weightedMode: 0
        inWeight: {x: 0.3333333, y: 0.3333333, z: 0.3333333}
        outWeight: {x: 0.3333333, y: 0.3333333, z: 0.3333333}
      - serializedVersion: 3
        time: 2.25
        value: {x: 0, y: 0.4305527, z: 0.4054444}
        inSlope: {x: 0, y: 0, z: 0}
        outSlope: {x: 0, y: 0, z: 0}
        tangentMode: 0
        weightedMode: 0
        inWeight: {x: 0.3333333, y: 0.3333333, z: 0.3333333}
        outWeight: {x: 0.3333333, y: 0.3333333, z: 0.3333333}
      m_PreInfinity: 2
      m_PostInfinity: 2
      m_RotationOrder: 4
    path: micro_dragon_clean:root_drag/micro_dragon_clean:body_drag/micro_dragon_clean:head_drag/micro_dragon_clean:brows_drag
  - curve:
      serializedVersion: 2
      m_Curve:
      - serializedVersion: 3
        time: 0
        value: {x: -0.5614752, y: 0.3275475, z: -0.04786773}
        inSlope: {x: 0, y: 0, z: 0}
        outSlope: {x: 0, y: 0, z: 0}
        tangentMode: 0
        weightedMode: 0
        inWeight: {x: 0.3333333, y: 0.3333333, z: 0.3333333}
        outWeight: {x: 0.3333333, y: 0.3333333, z: 0.3333333}
      - serializedVersion: 3
        time: 2.25
        value: {x: -0.5614752, y: 0.3275475, z: -0.04786773}
        inSlope: {x: 0, y: 0, z: 0}
        outSlope: {x: 0, y: 0, z: 0}
        tangentMode: 0
        weightedMode: 0
        inWeight: {x: 0.3333333, y: 0.3333333, z: 0.3333333}
        outWeight: {x: 0.3333333, y: 0.3333333, z: 0.3333333}
      m_PreInfinity: 2
      m_PostInfinity: 2
      m_RotationOrder: 4
    path: micro_dragon_clean:root_drag/micro_dragon_clean:body_drag/micro_dragon_clean:left_shoulder_drag
  - curve:
      serializedVersion: 2
      m_Curve:
      - serializedVersion: 3
        time: 0
        value: {x: -0.01579384, y: -0.2665876, z: 0.03217145}
        inSlope: {x: 0, y: 0, z: 0}
        outSlope: {x: 0, y: 0, z: 0}
        tangentMode: 0
        weightedMode: 0
        inWeight: {x: 0.3333333, y: 0.3333333, z: 0.3333333}
        outWeight: {x: 0.3333333, y: 0.3333333, z: 0.3333333}
      - serializedVersion: 3
        time: 2.25
        value: {x: -0.01579384, y: -0.2665876, z: 0.03217145}
        inSlope: {x: 0, y: 0, z: 0}
        outSlope: {x: 0, y: 0, z: 0}
        tangentMode: 0
        weightedMode: 0
        inWeight: {x: 0.3333333, y: 0.3333333, z: 0.3333333}
        outWeight: {x: 0.3333333, y: 0.3333333, z: 0.3333333}
      m_PreInfinity: 2
      m_PostInfinity: 2
      m_RotationOrder: 4
    path: micro_dragon_clean:root_drag/micro_dragon_clean:body_drag/micro_dragon_clean:left_shoulder_drag/micro_dragon_clean:left_arm_drag
  - curve:
      serializedVersion: 2
      m_Curve:
      - serializedVersion: 3
        time: 0
        value: {x: 0.5614752, y: 0.3275475, z: -0.04786773}
        inSlope: {x: 0, y: 0, z: 0}
        outSlope: {x: 0, y: 0, z: 0}
        tangentMode: 0
        weightedMode: 0
        inWeight: {x: 0.3333333, y: 0.3333333, z: 0.3333333}
        outWeight: {x: 0.3333333, y: 0.3333333, z: 0.3333333}
      - serializedVersion: 3
        time: 2.25
        value: {x: 0.5614752, y: 0.3275475, z: -0.04786773}
        inSlope: {x: 0, y: 0, z: 0}
        outSlope: {x: 0, y: 0, z: 0}
        tangentMode: 0
        weightedMode: 0
        inWeight: {x: 0.3333333, y: 0.3333333, z: 0.3333333}
        outWeight: {x: 0.3333333, y: 0.3333333, z: 0.3333333}
      m_PreInfinity: 2
      m_PostInfinity: 2
      m_RotationOrder: 4
    path: micro_dragon_clean:root_drag/micro_dragon_clean:body_drag/micro_dragon_clean:right_shoulder_drag
  - curve:
      serializedVersion: 2
      m_Curve:
      - serializedVersion: 3
        time: 0
        value: {x: 0.01579384, y: -0.2665876, z: 0.03217145}
        inSlope: {x: 0, y: 0, z: 0}
        outSlope: {x: 0, y: 0, z: 0}
        tangentMode: 0
        weightedMode: 0
        inWeight: {x: 0.3333333, y: 0.3333333, z: 0.3333333}
        outWeight: {x: 0.3333333, y: 0.3333333, z: 0.3333333}
      - serializedVersion: 3
        time: 2.25
        value: {x: 0.01579384, y: -0.2665876, z: 0.03217145}
        inSlope: {x: 0, y: 0, z: 0}
        outSlope: {x: 0, y: 0, z: 0}
        tangentMode: 0
        weightedMode: 0
        inWeight: {x: 0.3333333, y: 0.3333333, z: 0.3333333}
        outWeight: {x: 0.3333333, y: 0.3333333, z: 0.3333333}
      m_PreInfinity: 2
      m_PostInfinity: 2
      m_RotationOrder: 4
    path: micro_dragon_clean:root_drag/micro_dragon_clean:body_drag/micro_dragon_clean:right_shoulder_drag/micro_dragon_clean:right_arm_drag
  - curve:
      serializedVersion: 2
      m_Curve:
      - serializedVersion: 3
        time: 0
        value: {x: 0, y: 0.02348264, z: -0.5494693}
        inSlope: {x: -0.00000008824239, y: -0.03770933, z: -0.06358071}
        outSlope: {x: 0.00000002374073, y: -0.03771014, z: 0.1054812}
        tangentMode: 0
        weightedMode: 0
        inWeight: {x: 0.3333333, y: 0.3333333, z: 0.3333333}
        outWeight: {x: 0.3333333, y: 0.3333333, z: 0.3333333}
      - serializedVersion: 3
        time: 0.2083333
        value: {x: 0.005949801, y: 0.01256613, z: -0.468475}
        inSlope: {x: 0.04095332, y: 0.0000002110549, z: -0.000004338948}
        outSlope: {x: 0.04095333, y: -0.0000002830607, z: -0.000002223243}
        tangentMode: 0
        weightedMode: 0
        inWeight: {x: 0.3333333, y: 0.3333333, z: 0.3333333}
        outWeight: {x: 0.3333333, y: 0.3333333, z: 0.3333333}
      - serializedVersion: 3
        time: 0.4166667
        value: {x: 0.01129526, y: 0.05759577, z: -0.4780872}
        inSlope: {x: 0.01445016, y: 0.2357944, z: -0.1055302}
        outSlope: {x: 0.01445002, y: 0.2357947, z: -0.1055254}
        tangentMode: 0
        weightedMode: 0
        inWeight: {x: 0.3333333, y: 0.3333333, z: 0.3333333}
        outWeight: {x: 0.3333333, y: 0.3333333, z: 0.3333333}
      - serializedVersion: 3
        time: 0.8333334
        value: {x: 0.01349488, y: 0.09185155, z: -0.5214151}
        inSlope: {x: 0.00000001905349, y: -0.000001079208, z: -0.06377036}
        outSlope: {x: -0.00000002714281, y: -0.000002441482, z: -0.0637756}
        tangentMode: 0
        weightedMode: 0
        inWeight: {x: 0.3333333, y: 0.3333333, z: 0.3333333}
        outWeight: {x: 0.3333333, y: 0.3333333, z: 0.3333333}
      - serializedVersion: 3
        time: 1.041667
        value: {x: 0.007374902, y: 0.05681556, z: -0.5263728}
        inSlope: {x: -0.08812745, y: 0.0000002397078, z: 0.0000002182224}
        outSlope: {x: -0.0881278, y: 0.0000005321961, z: -0.000004447968}
        tangentMode: 0
        weightedMode: 0
        inWeight: {x: 0.3333333, y: 0.3333333, z: 0.3333333}
        outWeight: {x: 0.3333333, y: 0.3333333, z: 0.3333333}
      - serializedVersion: 3
        time: 1.25
        value: {x: -0.01182331, y: 0.09811004, z: -0.5227184}
        inSlope: {x: -0.0000004577052, y: 0.0000008918695, z: -0.000004447981}
        outSlope: {x: -0.00000002332178, y: -0.0000002505417, z: 0.000001048495}
        tangentMode: 0
        weightedMode: 0
        inWeight: {x: 0.3333333, y: 0.3333333, z: 0.3333333}
        outWeight: {x: 0.3333333, y: 0.3333333, z: 0.3333333}
      - serializedVersion: 3
        time: 1.541667
        value: {x: 0.0006784925, y: 0.07606973, z: -0.549897}
        inSlope: {x: 0.1231344, y: -0.2267017, z: -0.1473642}
        outSlope: {x: 0.1231349, y: -0.226701, z: -0.1473658}
        tangentMode: 0
        weightedMode: 0
        inWeight: {x: 0.3333333, y: 0.3333333, z: 0.3333333}
        outWeight: {x: 0.3333333, y: 0.3333333, z: 0.3333333}
      - serializedVersion: 3
        time: 1.708333
        value: {x: 0.01431061, y: 0.03101368, z: -0.5645888}
        inSlope: {x: 0.00000001565643, y: -0.01911911, z: 0.0000007444697}
        outSlope: {x: -0.00000005515928, y: -0.01912085, z: -0.000003400894}
        tangentMode: 0
        weightedMode: 0
        inWeight: {x: 0.3333333, y: 0.3333333, z: 0.3333333}
        outWeight: {x: 0.3333333, y: 0.3333333, z: 0.3333333}
      - serializedVersion: 3
        time: 2.25
        value: {x: 0, y: 0.02348264, z: -0.5494693}
        inSlope: {x: -0.0000001411661, y: -0.009937914, z: 0.04375722}
        outSlope: {x: 0, y: -0.009937744, z: 0.04375122}
        tangentMode: 0
        weightedMode: 0
        inWeight: {x: 0.3333333, y: 0.3333333, z: 0.3333333}
        outWeight: {x: 0.3333333, y: 0.3333333, z: 0.3333333}
      m_PreInfinity: 2
      m_PostInfinity: 2
      m_RotationOrder: 4
    path: micro_dragon_clean:root_drag/micro_dragon_clean:body_drag/micro_dragon_clean:tail_drag
  m_ScaleCurves:
  - curve:
      serializedVersion: 2
      m_Curve:
      - serializedVersion: 3
        time: 0
        value: {x: 1, y: 1, z: 1}
        inSlope: {x: 0, y: 0, z: 0}
        outSlope: {x: 0, y: 0, z: 0}
        tangentMode: 0
        weightedMode: 0
        inWeight: {x: 0.3333333, y: 0.3333333, z: 0.3333333}
        outWeight: {x: 0.3333333, y: 0.3333333, z: 0.3333333}
      - serializedVersion: 3
        time: 2.25
        value: {x: 1, y: 1, z: 1}
        inSlope: {x: 0, y: 0, z: 0}
        outSlope: {x: 0, y: 0, z: 0}
        tangentMode: 0
        weightedMode: 0
        inWeight: {x: 0.3333333, y: 0.3333333, z: 0.3333333}
        outWeight: {x: 0.3333333, y: 0.3333333, z: 0.3333333}
      m_PreInfinity: 2
      m_PostInfinity: 2
      m_RotationOrder: 4
    path: micro_dragon_clean:root_drag
  - curve:
      serializedVersion: 2
      m_Curve:
      - serializedVersion: 3
        time: 0
        value: {x: 1, y: 1, z: 1}
        inSlope: {x: 0, y: 0, z: 0}
        outSlope: {x: 0, y: 0, z: 0}
        tangentMode: 0
        weightedMode: 0
        inWeight: {x: 0.3333333, y: 0.3333333, z: 0.3333333}
        outWeight: {x: 0.3333333, y: 0.3333333, z: 0.3333333}
      - serializedVersion: 3
        time: 2.25
        value: {x: 1, y: 1, z: 1}
        inSlope: {x: 0, y: 0, z: 0}
        outSlope: {x: 0, y: 0, z: 0}
        tangentMode: 0
        weightedMode: 0
        inWeight: {x: 0.3333333, y: 0.3333333, z: 0.3333333}
        outWeight: {x: 0.3333333, y: 0.3333333, z: 0.3333333}
      m_PreInfinity: 2
      m_PostInfinity: 2
      m_RotationOrder: 4
    path: micro_dragon_clean:root_drag/micro_dragon_clean:body_drag
  - curve:
      serializedVersion: 2
      m_Curve:
      - serializedVersion: 3
        time: 0
        value: {x: 1, y: 1, z: 1}
        inSlope: {x: 0, y: 0, z: 0}
        outSlope: {x: 0, y: 0, z: 0}
        tangentMode: 0
        weightedMode: 0
        inWeight: {x: 0.3333333, y: 0.3333333, z: 0.3333333}
        outWeight: {x: 0.3333333, y: 0.3333333, z: 0.3333333}
      - serializedVersion: 3
        time: 2.25
        value: {x: 1, y: 1, z: 1}
        inSlope: {x: 0, y: 0, z: 0}
        outSlope: {x: 0, y: 0, z: 0}
        tangentMode: 0
        weightedMode: 0
        inWeight: {x: 0.3333333, y: 0.3333333, z: 0.3333333}
        outWeight: {x: 0.3333333, y: 0.3333333, z: 0.3333333}
      m_PreInfinity: 2
      m_PostInfinity: 2
      m_RotationOrder: 4
    path: micro_dragon_clean:root_drag/micro_dragon_clean:body_drag/micro_dragon_clean:head_drag
  - curve:
      serializedVersion: 2
      m_Curve:
      - serializedVersion: 3
        time: 0
        value: {x: 1, y: 1, z: 1}
        inSlope: {x: 0, y: 0, z: 0}
        outSlope: {x: 0, y: 0, z: 0}
        tangentMode: 0
        weightedMode: 0
        inWeight: {x: 0.3333333, y: 0.3333333, z: 0.3333333}
        outWeight: {x: 0.3333333, y: 0.3333333, z: 0.3333333}
      - serializedVersion: 3
        time: 2.25
        value: {x: 1, y: 1, z: 1}
        inSlope: {x: 0, y: 0, z: 0}
        outSlope: {x: 0, y: 0, z: 0}
        tangentMode: 0
        weightedMode: 0
        inWeight: {x: 0.3333333, y: 0.3333333, z: 0.3333333}
        outWeight: {x: 0.3333333, y: 0.3333333, z: 0.3333333}
      m_PreInfinity: 2
      m_PostInfinity: 2
      m_RotationOrder: 4
    path: micro_dragon_clean:root_drag/micro_dragon_clean:body_drag/micro_dragon_clean:head_drag/micro_dragon_clean:right_wing_drag
  - curve:
      serializedVersion: 2
      m_Curve:
      - serializedVersion: 3
        time: 0
        value: {x: 1, y: 1, z: 1}
        inSlope: {x: 0, y: 0, z: 0}
        outSlope: {x: 0, y: 0, z: 0}
        tangentMode: 0
        weightedMode: 0
        inWeight: {x: 0.3333333, y: 0.3333333, z: 0.3333333}
        outWeight: {x: 0.3333333, y: 0.3333333, z: 0.3333333}
      - serializedVersion: 3
        time: 2.25
        value: {x: 1, y: 1, z: 1}
        inSlope: {x: 0, y: 0, z: 0}
        outSlope: {x: 0, y: 0, z: 0}
        tangentMode: 0
        weightedMode: 0
        inWeight: {x: 0.3333333, y: 0.3333333, z: 0.3333333}
        outWeight: {x: 0.3333333, y: 0.3333333, z: 0.3333333}
      m_PreInfinity: 2
      m_PostInfinity: 2
      m_RotationOrder: 4
    path: micro_dragon_clean:root_drag/micro_dragon_clean:body_drag/micro_dragon_clean:head_drag/micro_dragon_clean:snout_drag
  - curve:
      serializedVersion: 2
      m_Curve:
      - serializedVersion: 3
        time: 0
        value: {x: 1, y: 1, z: 1}
        inSlope: {x: 0, y: 0, z: 0}
        outSlope: {x: 0, y: 0, z: 0}
        tangentMode: 0
        weightedMode: 0
        inWeight: {x: 0.3333333, y: 0.3333333, z: 0.3333333}
        outWeight: {x: 0.3333333, y: 0.3333333, z: 0.3333333}
      - serializedVersion: 3
        time: 2.25
        value: {x: 1, y: 1, z: 1}
        inSlope: {x: 0, y: 0, z: 0}
        outSlope: {x: 0, y: 0, z: 0}
        tangentMode: 0
        weightedMode: 0
        inWeight: {x: 0.3333333, y: 0.3333333, z: 0.3333333}
        outWeight: {x: 0.3333333, y: 0.3333333, z: 0.3333333}
      m_PreInfinity: 2
      m_PostInfinity: 2
      m_RotationOrder: 4
    path: micro_dragon_clean:root_drag/micro_dragon_clean:body_drag/micro_dragon_clean:head_drag/micro_dragon_clean:left_wing_drag
  - curve:
      serializedVersion: 2
      m_Curve:
      - serializedVersion: 3
        time: 0
        value: {x: 1, y: 1, z: 1}
        inSlope: {x: 0, y: 0, z: 0}
        outSlope: {x: 0, y: 0, z: 0}
        tangentMode: 0
        weightedMode: 0
        inWeight: {x: 0.3333333, y: 0.3333333, z: 0.3333333}
        outWeight: {x: 0.3333333, y: 0.3333333, z: 0.3333333}
      - serializedVersion: 3
        time: 2.25
        value: {x: 1, y: 1, z: 1}
        inSlope: {x: 0, y: 0, z: 0}
        outSlope: {x: 0, y: 0, z: 0}
        tangentMode: 0
        weightedMode: 0
        inWeight: {x: 0.3333333, y: 0.3333333, z: 0.3333333}
        outWeight: {x: 0.3333333, y: 0.3333333, z: 0.3333333}
      m_PreInfinity: 2
      m_PostInfinity: 2
      m_RotationOrder: 4
    path: micro_dragon_clean:root_drag/micro_dragon_clean:body_drag/micro_dragon_clean:head_drag/micro_dragon_clean:eyes_drag
  - curve:
      serializedVersion: 2
      m_Curve:
      - serializedVersion: 3
        time: 0
        value: {x: 1, y: 1, z: 1}
        inSlope: {x: 0, y: 0, z: 0}
        outSlope: {x: 0, y: 0, z: 0}
        tangentMode: 0
        weightedMode: 0
        inWeight: {x: 0.3333333, y: 0.3333333, z: 0.3333333}
        outWeight: {x: 0.3333333, y: 0.3333333, z: 0.3333333}
      - serializedVersion: 3
        time: 2.25
        value: {x: 1, y: 1, z: 1}
        inSlope: {x: 0, y: 0, z: 0}
        outSlope: {x: 0, y: 0, z: 0}
        tangentMode: 0
        weightedMode: 0
        inWeight: {x: 0.3333333, y: 0.3333333, z: 0.3333333}
        outWeight: {x: 0.3333333, y: 0.3333333, z: 0.3333333}
      m_PreInfinity: 2
      m_PostInfinity: 2
      m_RotationOrder: 4
    path: micro_dragon_clean:root_drag/micro_dragon_clean:body_drag/micro_dragon_clean:head_drag/micro_dragon_clean:brows_drag
  - curve:
      serializedVersion: 2
      m_Curve:
      - serializedVersion: 3
        time: 0
        value: {x: 1, y: 1, z: 1}
        inSlope: {x: 0, y: 0, z: 0}
        outSlope: {x: 0, y: 0, z: 0}
        tangentMode: 0
        weightedMode: 0
        inWeight: {x: 0.3333333, y: 0.3333333, z: 0.3333333}
        outWeight: {x: 0.3333333, y: 0.3333333, z: 0.3333333}
      - serializedVersion: 3
        time: 2.25
        value: {x: 1, y: 1, z: 1}
        inSlope: {x: 0, y: 0, z: 0}
        outSlope: {x: 0, y: 0, z: 0}
        tangentMode: 0
        weightedMode: 0
        inWeight: {x: 0.3333333, y: 0.3333333, z: 0.3333333}
        outWeight: {x: 0.3333333, y: 0.3333333, z: 0.3333333}
      m_PreInfinity: 2
      m_PostInfinity: 2
      m_RotationOrder: 4
    path: micro_dragon_clean:root_drag/micro_dragon_clean:body_drag/micro_dragon_clean:left_shoulder_drag
  - curve:
      serializedVersion: 2
      m_Curve:
      - serializedVersion: 3
        time: 0
        value: {x: 1, y: 1, z: 1}
        inSlope: {x: 0, y: 0, z: 0}
        outSlope: {x: 0, y: 0, z: 0}
        tangentMode: 0
        weightedMode: 0
        inWeight: {x: 0.3333333, y: 0.3333333, z: 0.3333333}
        outWeight: {x: 0.3333333, y: 0.3333333, z: 0.3333333}
      - serializedVersion: 3
        time: 2.25
        value: {x: 1, y: 1, z: 1}
        inSlope: {x: 0, y: 0, z: 0}
        outSlope: {x: 0, y: 0, z: 0}
        tangentMode: 0
        weightedMode: 0
        inWeight: {x: 0.3333333, y: 0.3333333, z: 0.3333333}
        outWeight: {x: 0.3333333, y: 0.3333333, z: 0.3333333}
      m_PreInfinity: 2
      m_PostInfinity: 2
      m_RotationOrder: 4
    path: micro_dragon_clean:root_drag/micro_dragon_clean:body_drag/micro_dragon_clean:left_shoulder_drag/micro_dragon_clean:left_arm_drag
  - curve:
      serializedVersion: 2
      m_Curve:
      - serializedVersion: 3
        time: 0
        value: {x: 1, y: 1, z: 1}
        inSlope: {x: 0, y: 0, z: 0}
        outSlope: {x: 0, y: 0, z: 0}
        tangentMode: 0
        weightedMode: 0
        inWeight: {x: 0.3333333, y: 0.3333333, z: 0.3333333}
        outWeight: {x: 0.3333333, y: 0.3333333, z: 0.3333333}
      - serializedVersion: 3
        time: 2.25
        value: {x: 1, y: 1, z: 1}
        inSlope: {x: 0, y: 0, z: 0}
        outSlope: {x: 0, y: 0, z: 0}
        tangentMode: 0
        weightedMode: 0
        inWeight: {x: 0.3333333, y: 0.3333333, z: 0.3333333}
        outWeight: {x: 0.3333333, y: 0.3333333, z: 0.3333333}
      m_PreInfinity: 2
      m_PostInfinity: 2
      m_RotationOrder: 4
    path: micro_dragon_clean:root_drag/micro_dragon_clean:body_drag/micro_dragon_clean:right_shoulder_drag
  - curve:
      serializedVersion: 2
      m_Curve:
      - serializedVersion: 3
        time: 0
        value: {x: 1, y: 1, z: 1}
        inSlope: {x: 0, y: 0, z: 0}
        outSlope: {x: 0, y: 0, z: 0}
        tangentMode: 0
        weightedMode: 0
        inWeight: {x: 0.3333333, y: 0.3333333, z: 0.3333333}
        outWeight: {x: 0.3333333, y: 0.3333333, z: 0.3333333}
      - serializedVersion: 3
        time: 2.25
        value: {x: 1, y: 1, z: 1}
        inSlope: {x: 0, y: 0, z: 0}
        outSlope: {x: 0, y: 0, z: 0}
        tangentMode: 0
        weightedMode: 0
        inWeight: {x: 0.3333333, y: 0.3333333, z: 0.3333333}
        outWeight: {x: 0.3333333, y: 0.3333333, z: 0.3333333}
      m_PreInfinity: 2
      m_PostInfinity: 2
      m_RotationOrder: 4
    path: micro_dragon_clean:root_drag/micro_dragon_clean:body_drag/micro_dragon_clean:right_shoulder_drag/micro_dragon_clean:right_arm_drag
  - curve:
      serializedVersion: 2
      m_Curve:
      - serializedVersion: 3
        time: 0
        value: {x: 1, y: 1, z: 1}
        inSlope: {x: 0, y: 0, z: 0}
        outSlope: {x: 0, y: 0, z: 0}
        tangentMode: 0
        weightedMode: 0
        inWeight: {x: 0.3333333, y: 0.3333333, z: 0.3333333}
        outWeight: {x: 0.3333333, y: 0.3333333, z: 0.3333333}
      - serializedVersion: 3
        time: 2.25
        value: {x: 1, y: 1, z: 1}
        inSlope: {x: 0, y: 0, z: 0}
        outSlope: {x: 0, y: 0, z: 0}
        tangentMode: 0
        weightedMode: 0
        inWeight: {x: 0.3333333, y: 0.3333333, z: 0.3333333}
        outWeight: {x: 0.3333333, y: 0.3333333, z: 0.3333333}
      m_PreInfinity: 2
      m_PostInfinity: 2
      m_RotationOrder: 4
    path: micro_dragon_clean:root_drag/micro_dragon_clean:body_drag/micro_dragon_clean:tail_drag
  m_FloatCurves: []
  m_PPtrCurves: []
  m_SampleRate: 24
  m_WrapMode: 2
  m_Bounds:
    m_Center: {x: 0.007166743, y: 0.8279787, z: -0.1675496}
    m_Extent: {x: 0.93724, y: 0.7991186, z: 0.8793087}
  m_ClipBindingConstant:
    genericBindings: []
    pptrCurveMapping: []
  m_AnimationClipSettings:
    serializedVersion: 2
    m_AdditiveReferencePoseClip: {fileID: 0}
    m_AdditiveReferencePoseTime: 0
    m_StartTime: 0
    m_StopTime: 1
    m_OrientationOffsetY: 0
    m_Level: 0
    m_CycleOffset: 0
    m_HasAdditiveReferencePose: 0
    m_LoopTime: 0
    m_LoopBlend: 0
    m_LoopBlendOrientation: 0
    m_LoopBlendPositionY: 0
    m_LoopBlendPositionXZ: 0
    m_KeepOriginalOrientation: 0
    m_KeepOriginalPositionY: 1
    m_KeepOriginalPositionXZ: 0
    m_HeightFromFeet: 0
    m_Mirror: 0
  m_EditorCurves: []
  m_EulerEditorCurves: []
  m_HasGenericRootTransform: 0
  m_HasMotionFloatCurves: 0
  m_Events: []
