%YAML 1.1
%TAG !u! tag:unity3d.com,2011:
--- !u!74 &7400000
AnimationClip:
  m_ObjectHideFlags: 0
  m_CorrespondingSourceObject: {fileID: 0}
  m_PrefabInstance: {fileID: 0}
  m_PrefabAsset: {fileID: 0}
  m_Name: Idle_7
  serializedVersion: 6
  m_Legacy: 1
  m_Compressed: 1
  m_UseHighQualityCurve: 1
  m_RotationCurves: []
  m_CompressedRotationCurves:
  - m_Path: Rig
    m_Times:
      m_NumItems: 2
      m_Data: 0085
      m_BitSize: 8
    m_Values:
      m_NumItems: 2
      m_Data: eed79fbfeed79fbf
    m_Slopes:
      m_NumItems: 8
      m_Range: 0
      m_Start: 0
      m_Data: 
      m_BitSize: 0
    m_PreInfinity: 2
    m_PostInfinity: 2
  - m_Path: RigBottom
    m_Times:
      m_NumItems: 2
      m_Data: 0085
      m_BitSize: 8
    m_Values:
      m_NumItems: 2
      m_Data: eed79fbfeed79fbf
    m_Slopes:
      m_NumItems: 8
      m_Range: 0
      m_Start: 0
      m_Data: 
      m_BitSize: 0
    m_PreInfinity: 2
    m_PostInfinity: 2
  - m_Path: RigBottom/RigSpine
    m_Times:
      m_NumItems: 3
      m_Data: 80a90c
      m_BitSize: 7
    m_Values:
      m_NumItems: 3
      m_Data: fbf7df7f03681f7cfbf7df7f
    m_Slopes:
      m_NumItems: 12
      m_Range: 0.06772193
      m_Start: -0.007847375
      m_Data: c8001c43fa2b06f31c
      m_BitSize: 6
    m_PreInfinity: 2
    m_PostInfinity: 2
  - m_Path: RigBottom/RigSpine/RigTop
    m_Times:
      m_NumItems: 3
      m_Data: 80a90c
      m_BitSize: 7
    m_Values:
      m_NumItems: 3
      m_Data: fbf7df7f03681f7cfbf7df7f
    m_Slopes:
      m_NumItems: 12
      m_Range: 0.06772202
      m_Start: -0.007847375
      m_Data: c8001c43fa2b06f31c
      m_BitSize: 6
    m_PreInfinity: 2
    m_PostInfinity: 2
  - m_Path: RigBottom/RigSpine/RigTop/RigCover
    m_Times:
      m_NumItems: 4
      m_Data: 808cae
      m_BitSize: 6
    m_Values:
      m_NumItems: 4
      m_Data: fbf71f4afbf71f3afbf7df3cfbf71f4a
    m_Slopes:
      m_NumItems: 16
      m_Range: 0.515568
      m_Start: -0.2312118
      m_Data: 1c87691c07281cf7cb1c077a
      m_BitSize: 6
    m_PreInfinity: 2
    m_PostInfinity: 2
  - m_Path: RigBottom/RigSpine/RigTop/RigLHandle
    m_Times:
      m_NumItems: 5
      m_Data: 004a8a17
      m_BitSize: 6
    m_Values:
      m_NumItems: 5
      m_Data: f9efdf91e9cf1fa8e1cf5fb2f1cfdf9bf9efdf91
    m_Slopes:
      m_NumItems: 20
      m_Range: 1.138795
      m_Start: -0.5622337
      m_Data: dff7891ff5fd9ff93da009021ff871
      m_BitSize: 6
    m_PreInfinity: 2
    m_PostInfinity: 2
  - m_Path: RigBottom/RigSpine/RigTop/RigRHandle
    m_Times:
      m_NumItems: 5
      m_Data: 004a8a17
      m_BitSize: 6
    m_Values:
      m_NumItems: 5
      m_Data: f9efdf6d3110e0584910e04f11f01f64f9efdf6d
    m_Slopes:
      m_NumItems: 20
      m_Range: 1.051884
      m_Start: -0.5333526
      m_Data: e00776a21502dff9c1dd09fe20088e
      m_BitSize: 6
    m_PreInfinity: 2
    m_PostInfinity: 2
  - m_Path: RigBottom/RigSpine/RigTop/RigTongue1
    m_Times:
      m_NumItems: 2
      m_Data: 0085
      m_BitSize: 8
    m_Values:
      m_NumItems: 2
      m_Data: fbf75f59fbf75f59
    m_Slopes:
      m_NumItems: 8
      m_Range: 0
      m_Start: 0
      m_Data: 
      m_BitSize: 0
    m_PreInfinity: 2
    m_PostInfinity: 2
  - m_Path: RigBottom/RigSpine/RigTop/RigTongue1/RigTongue2
    m_Times:
      m_NumItems: 5
      m_Data: c05a9211
      m_BitSize: 6
    m_Values:
      m_NumItems: 5
      m_Data: fbf71f490368e05c03882062fb07604dfbf71f49
    m_Slopes:
      m_NumItems: 20
      m_Range: 0.8072898
      m_Start: -0.3555061
      m_Data: 1cf775dcf79b5c36585b0640dc8669
      m_BitSize: 6
    m_PreInfinity: 2
    m_PostInfinity: 2
  - m_Path: RigBottom/RigSpine/RigTop/RigTongue1/RigTongue2/RigTongue3
    m_Times:
      m_NumItems: 3
      m_Data: 00e110
      m_BitSize: 7
    m_Values:
      m_NumItems: 3
      m_Data: fbf79f706bc89e68fbf79f70
    m_Slopes:
      m_NumItems: 12
      m_Range: 0.02802775
      m_Start: -0.01401387
      m_Data: fc0370e0f77d03fc8f
      m_BitSize: 6
    m_PreInfinity: 2
    m_PostInfinity: 2
  - m_Path: RigBottom/RigSpine/RigTop/RigTongue1/RigTongue2/RigTongue3/RigTongue4
    m_Times:
      m_NumItems: 4
      m_Data: 804cbe
      m_BitSize: 6
    m_Values:
      m_NumItems: 4
      m_Data: fbf75f497b179e3d83375e3efbf75f49
    m_Slopes:
      m_NumItems: 16
      m_Range: 0.3722227
      m_Start: -0.1749721
      m_Data: dba67106032477fcd7202882
      m_BitSize: 6
    m_PreInfinity: 2
    m_PostInfinity: 2
  - m_Path: RigBottom/RigSpine/RigTop/RigTongue1/RigTongue2/RigTongue3/RigTongue4/RigTongue5
    m_Times:
      m_NumItems: 5
      m_Data: 00597e1d
      m_BitSize: 6
    m_Values:
      m_NumItems: 5
      m_Data: fbf7df6123981e4c2b885d3e1328df53fbf7df61
    m_Slopes:
      m_NumItems: 20
      m_Range: 1.255831
      m_Start: -0.6264145
      m_Data: e0c77da20544dfa89a1cfaaf1f3882
      m_BitSize: 6
    m_PreInfinity: 2
    m_PostInfinity: 2
  - m_Path: RigBottomGizmo
    m_Times:
      m_NumItems: 2
      m_Data: 0085
      m_BitSize: 8
    m_Values:
      m_NumItems: 2
      m_Data: eed79fbfeed79fbf
    m_Slopes:
      m_NumItems: 8
      m_Range: 0
      m_Start: 0
      m_Data: 
      m_BitSize: 0
    m_PreInfinity: 2
    m_PostInfinity: 2
  - m_Path: RigRHandleGizmo
    m_Times:
      m_NumItems: 5
      m_Data: c05a9211
      m_BitSize: 6
    m_Values:
      m_NumItems: 5
      m_Data: c2f663b692d5e4a722d564a48a36e4b2c2f663b6
    m_Slopes:
      m_NumItems: 20
      m_Range: 0.5773464
      m_Start: -0.3081438
      m_Data: a0587ac6f803b6e8e43377fc64e895
      m_BitSize: 6
    m_PreInfinity: 2
    m_PostInfinity: 2
  - m_Path: RigLHandleGizmo
    m_Times:
      m_NumItems: 5
      m_Data: 00597e1d
      m_BitSize: 6
    m_Values:
      m_NumItems: 5
      m_Data: 608bedc7603aeacda8c9a7cfc0aa2bcc608bedc7
    m_Slopes:
      m_NumItems: 20
      m_Range: 0.9659482
      m_Start: -0.4943488
      m_Data: 63e7893650a01abb7eca9f5bde287e
      m_BitSize: 6
    m_PreInfinity: 2
    m_PostInfinity: 2
  - m_Path: RigTopGizmo
    m_Times:
      m_NumItems: 3
      m_Data: 00e30f
      m_BitSize: 7
    m_Values:
      m_NumItems: 3
      m_Data: eed79fbf3eb8a0b7eed79fbf
    m_Slopes:
      m_NumItems: 12
      m_Range: 0.03269346
      m_Start: -0.006280843
      m_Data: 8ee2280260ff8aa338
      m_BitSize: 6
    m_PreInfinity: 2
    m_PostInfinity: 2
  - m_Path: RigCoverGizmo
    m_Times:
      m_NumItems: 5
      m_Data: c05a9211
      m_BitSize: 6
    m_Values:
      m_NumItems: 5
      m_Data: ec19b5602c293672d204c876c469f563ec19b560
    m_Slopes:
      m_NumItems: 20
      m_Range: 0.7153839
      m_Start: -0.3182842
      m_Data: 9bd6811711fe5f9b0de34b019db761
      m_BitSize: 6
    m_PreInfinity: 2
    m_PostInfinity: 2
  - m_Path: RigTongue1Gizmo
    m_Times:
      m_NumItems: 3
      m_Data: 80240f
      m_BitSize: 7
    m_Values:
      m_NumItems: 3
      m_Data: 94fa3356c2c5535f94fa3356
    m_Slopes:
      m_NumItems: 12
      m_Range: 0.07702857
      m_Start: -0.06063133
      m_Data: ef7bff76ef0134cd92
      m_BitSize: 6
    m_PreInfinity: 2
    m_PostInfinity: 2
  - m_Path: RigTongue2Gizmo
    m_Times:
      m_NumItems: 4
      m_Data: 808cae
      m_BitSize: 6
    m_Values:
      m_NumItems: 4
      m_Data: 3488367c24e9b57304f9f5743488367c
    m_Slopes:
      m_NumItems: 16
      m_Range: 0.5177265
      m_Start: -0.2849572
      m_Data: a22986e6ef452090dee33796
      m_BitSize: 6
    m_PreInfinity: 2
    m_PostInfinity: 2
  - m_Path: RigTongue3Gizmo
    m_Times:
      m_NumItems: 4
      m_Data: 000d87
      m_BitSize: 6
    m_Values:
      m_NumItems: 4
      m_Data: 84773687c2e4c3870c88368784773687
    m_Slopes:
      m_NumItems: 16
      m_Range: 0.5000412
      m_Start: -0.3053264
      m_Data: a67a9ee96f9e256096e7689a
      m_BitSize: 6
    m_PreInfinity: 2
    m_PostInfinity: 2
  - m_Path: RigTongue4Gizmo
    m_Times:
      m_NumItems: 3
      m_Data: 80a90c
      m_BitSize: 7
    m_Values:
      m_NumItems: 3
      m_Data: 3246a9ac8aa6a8af3246a9ac
    m_Slopes:
      m_NumItems: 12
      m_Range: 0.07304683
      m_Start: -0.04298642
      m_Data: 2b79aac4cf02e04982
      m_BitSize: 6
    m_PreInfinity: 2
    m_PostInfinity: 2
  - m_Path: RigTongue5Gizmo
    m_Times:
      m_NumItems: 5
      m_Data: 40887a1e
      m_BitSize: 6
    m_Values:
      m_NumItems: 5
      m_Data: cac7a0bde3f40dbad52baccfbb444ebbcac7a0bd
    m_Slopes:
      m_NumItems: 20
      m_Range: 1.164522
      m_Start: -0.5766745
      m_Data: 62e7857ff3c053697240fc365c0876
      m_BitSize: 6
    m_PreInfinity: 2
    m_PostInfinity: 2
  m_EulerCurves: []
  m_PositionCurves:
  - curve:
      serializedVersion: 2
      m_Curve:
      - serializedVersion: 3
        time: 0
        value: {x: 0, y: 0, z: 0}
        inSlope: {x: 0, y: 0, z: 0}
        outSlope: {x: 0, y: 0, z: 0}
        tangentMode: 0
        weightedMode: 0
        inWeight: {x: 0.3333333, y: 0.3333333, z: 0.3333333}
        outWeight: {x: 0.3333333, y: 0.3333333, z: 0.3333333}
      - serializedVersion: 3
        time: 1.333333
        value: {x: 0, y: 0, z: 0}
        inSlope: {x: 0, y: 0, z: 0}
        outSlope: {x: 0, y: 0, z: 0}
        tangentMode: 0
        weightedMode: 0
        inWeight: {x: 0.3333333, y: 0.3333333, z: 0.3333333}
        outWeight: {x: 0.3333333, y: 0.3333333, z: 0.3333333}
      m_PreInfinity: 2
      m_PostInfinity: 2
      m_RotationOrder: 4
    path: Rig
  - curve:
      serializedVersion: 2
      m_Curve:
      - serializedVersion: 3
        time: 0
        value: {x: 5.504555e-14, y: 0.05489523, z: -0.0000002199978}
        inSlope: {x: 0, y: 0, z: 0}
        outSlope: {x: 0, y: 0, z: 0}
        tangentMode: 0
        weightedMode: 0
        inWeight: {x: 0.3333333, y: 0.3333333, z: 0.3333333}
        outWeight: {x: 0.3333333, y: 0.3333333, z: 0.3333333}
      - serializedVersion: 3
        time: 1.333333
        value: {x: 5.504555e-14, y: 0.05489523, z: -0.0000002199978}
        inSlope: {x: 0, y: 0, z: 0}
        outSlope: {x: 0, y: 0, z: 0}
        tangentMode: 0
        weightedMode: 0
        inWeight: {x: 0.3333333, y: 0.3333333, z: 0.3333333}
        outWeight: {x: 0.3333333, y: 0.3333333, z: 0.3333333}
      m_PreInfinity: 2
      m_PostInfinity: 2
      m_RotationOrder: 4
    path: RigBottom
  - curve:
      serializedVersion: 2
      m_Curve:
      - serializedVersion: 3
        time: 0
        value: {x: 0, y: 0, z: 0}
        inSlope: {x: 0, y: 0, z: 0}
        outSlope: {x: 0, y: 0, z: 0}
        tangentMode: 0
        weightedMode: 0
        inWeight: {x: 0.3333333, y: 0.3333333, z: 0.3333333}
        outWeight: {x: 0.3333333, y: 0.3333333, z: 0.3333333}
      - serializedVersion: 3
        time: 1.333333
        value: {x: 0, y: 0, z: 0}
        inSlope: {x: 0, y: 0, z: 0}
        outSlope: {x: 0, y: 0, z: 0}
        tangentMode: 0
        weightedMode: 0
        inWeight: {x: 0.3333333, y: 0.3333333, z: 0.3333333}
        outWeight: {x: 0.3333333, y: 0.3333333, z: 0.3333333}
      m_PreInfinity: 2
      m_PostInfinity: 2
      m_RotationOrder: 4
    path: RigBottom/RigSpine
  - curve:
      serializedVersion: 2
      m_Curve:
      - serializedVersion: 3
        time: 0
        value: {x: -0.1811934, y: 1.818989e-14, z: 4.972576e-15}
        inSlope: {x: 0, y: 0, z: 0}
        outSlope: {x: 0, y: 0, z: 0}
        tangentMode: 0
        weightedMode: 0
        inWeight: {x: 0.3333333, y: 0.3333333, z: 0.3333333}
        outWeight: {x: 0.3333333, y: 0.3333333, z: 0.3333333}
      - serializedVersion: 3
        time: 1.333333
        value: {x: -0.1811934, y: 1.818989e-14, z: 4.972576e-15}
        inSlope: {x: 0, y: 0, z: 0}
        outSlope: {x: 0, y: 0, z: 0}
        tangentMode: 0
        weightedMode: 0
        inWeight: {x: 0.3333333, y: 0.3333333, z: 0.3333333}
        outWeight: {x: 0.3333333, y: 0.3333333, z: 0.3333333}
      m_PreInfinity: 2
      m_PostInfinity: 2
      m_RotationOrder: 4
    path: RigBottom/RigSpine/RigTop
  - curve:
      serializedVersion: 2
      m_Curve:
      - serializedVersion: 3
        time: 0
        value: {x: -0.02002983, y: -0.2279, z: 0.00000004437378}
        inSlope: {x: 0, y: 0, z: 0}
        outSlope: {x: 0, y: 0, z: 0}
        tangentMode: 0
        weightedMode: 0
        inWeight: {x: 0.3333333, y: 0.3333333, z: 0.3333333}
        outWeight: {x: 0.3333333, y: 0.3333333, z: 0.3333333}
      - serializedVersion: 3
        time: 1.333333
        value: {x: -0.02002983, y: -0.2279, z: 0.00000004437378}
        inSlope: {x: 0, y: 0, z: 0}
        outSlope: {x: 0, y: 0, z: 0}
        tangentMode: 0
        weightedMode: 0
        inWeight: {x: 0.3333333, y: 0.3333333, z: 0.3333333}
        outWeight: {x: 0.3333333, y: 0.3333333, z: 0.3333333}
      m_PreInfinity: 2
      m_PostInfinity: 2
      m_RotationOrder: 4
    path: RigBottom/RigSpine/RigTop/RigCover
  - curve:
      serializedVersion: 2
      m_Curve:
      - serializedVersion: 3
        time: 0
        value: {x: -0.01307173, y: 0.00000004688496, z: 0.292617}
        inSlope: {x: 0.0000001277242, y: -6.548361e-11, z: 0.000001471383}
        outSlope: {x: 0.0000001277242, y: -6.548361e-11, z: 0.000001471383}
        tangentMode: 0
        weightedMode: 0
        inWeight: {x: 0.3333333, y: 0.3333333, z: 0.3333333}
        outWeight: {x: 0.3333333, y: 0.3333333, z: 0.3333333}
      - serializedVersion: 3
        time: 0.5333334
        value: {x: -0.01307173, y: 0.00000004887581, z: 0.292617}
        inSlope: {x: 0.00000006130749, y: 0.00000005364274, z: 0.0000003269739}
        outSlope: {x: -0.0000000613076, y: 0.00000005364496, z: 0.000002752034}
        tangentMode: 0
        weightedMode: 0
        inWeight: {x: 0.3333333, y: 0.3333333, z: 0.3333333}
        outWeight: {x: 0.3333333, y: 0.3333333, z: 0.3333333}
      - serializedVersion: 3
        time: 0.5666667
        value: {x: -0.01307175, y: 0.0000000500679, z: 0.2926171}
        inSlope: {x: -0.0000004019059, y: -0.00000005364369, z: 0.00000002724734}
        outSlope: {x: -0.000000298023, y: -0.00000005364353, z: -0.000001498629}
        tangentMode: 0
        weightedMode: 0
        inWeight: {x: 0.3333333, y: 0.3333333, z: 0.3333333}
        outWeight: {x: 0.3333333, y: 0.3333333, z: 0.3333333}
      - serializedVersion: 3
        time: 0.6666667
        value: {x: -0.01307171, y: 0.0000000500679, z: 0.292617}
        inSlope: {x: -0.000000005109154, y: -3.484702e-13, z: 1.903238e-15}
        outSlope: {x: 0.000000005109164, y: -1.38759e-13, z: 4.440896e-15}
        tangentMode: 0
        weightedMode: 0
        inWeight: {x: 0.3333333, y: 0.3333333, z: 0.3333333}
        outWeight: {x: 0.3333333, y: 0.3333333, z: 0.3333333}
      - serializedVersion: 3
        time: 0.8666667
        value: {x: -0.01307175, y: 0.00000004649162, z: 0.292617}
        inSlope: {x: 0.000000298023, y: 0.00000007152518, z: 0.000001471382}
        outSlope: {x: 0.0000000613076, y: 0.0000000715266, z: -0.000002942769}
        tangentMode: 0
        weightedMode: 0
        inWeight: {x: 0.3333333, y: 0.3333333, z: 0.3333333}
        outWeight: {x: 0.3333333, y: 0.3333333, z: 0.3333333}
      - serializedVersion: 3
        time: 1.2
        value: {x: -0.01307175, y: 0.00000004664063, z: 0.292617}
        inSlope: {x: -0.0000004819445, y: 0.000000002234409, z: 0.00000147138}
        outSlope: {x: -0.0000002792907, y: 0.00000000223561, z: 2.220448e-15}
        tangentMode: 0
        weightedMode: 0
        inWeight: {x: 0.3333333, y: 0.3333333, z: 0.3333333}
        outWeight: {x: 0.3333333, y: 0.3333333, z: 0.3333333}
      - serializedVersion: 3
        time: 1.333333
        value: {x: -0.01307173, y: 0.00000004688496, z: 0.292617}
        inSlope: {x: -0.0000001277239, y: 3.453666e-10, z: -0.00000147138}
        outSlope: {x: -0.0000001277239, y: 3.453666e-10, z: -0.00000147138}
        tangentMode: 0
        weightedMode: 0
        inWeight: {x: 0.3333333, y: 0.3333333, z: 0.3333333}
        outWeight: {x: 0.3333333, y: 0.3333333, z: 0.3333333}
      m_PreInfinity: 2
      m_PostInfinity: 2
      m_RotationOrder: 4
    path: RigBottom/RigSpine/RigTop/RigLHandle
  - curve:
      serializedVersion: 2
      m_Curve:
      - serializedVersion: 3
        time: 0
        value: {x: -0.01307173, y: 0.00000004688496, z: -0.292617}
        inSlope: {x: -0.0000005722044, y: -3.453675e-10, z: 0.000001471383}
        outSlope: {x: -0.0000005722044, y: -3.453675e-10, z: 0.000001471383}
        tangentMode: 0
        weightedMode: 0
        inWeight: {x: 0.3333333, y: 0.3333333, z: 0.3333333}
        outWeight: {x: 0.3333333, y: 0.3333333, z: 0.3333333}
      - serializedVersion: 3
        time: 0.4333333
        value: {x: -0.01307173, y: 0.0000000500679, z: -0.292617}
        inSlope: {x: -0.0000004019055, y: 0.00000001788224, z: 0.000001825605}
        outSlope: {x: -0.0000005722045, y: 0.00000001788233, z: -0.000002942767}
        tangentMode: 0
        weightedMode: 0
        inWeight: {x: 0.3333333, y: 0.3333333, z: 0.3333333}
        outWeight: {x: 0.3333333, y: 0.3333333, z: 0.3333333}
      - serializedVersion: 3
        time: 0.4666667
        value: {x: -0.01307175, y: 0.00000004649162, z: -0.292617}
        inSlope: {x: 0.0000001089914, y: 0.00000001788298, z: -0.000002942767}
        outSlope: {x: 0.00000006130755, y: 0.00000001788094, z: -0.0000009264261}
        tangentMode: 0
        weightedMode: 0
        inWeight: {x: 0.3333333, y: 0.3333333, z: 0.3333333}
        outWeight: {x: 0.3333333, y: 0.3333333, z: 0.3333333}
      - serializedVersion: 3
        time: 0.5
        value: {x: -0.01307173, y: 0.00000005125999, z: -0.2926171}
        inSlope: {x: 0.0000004019055, y: -1.025491e-12, z: -0.0000009264261}
        outSlope: {x: 0.0000005108965, y: 1.998882e-12, z: 0.0000003542212}
        tangentMode: 0
        weightedMode: 0
        inWeight: {x: 0.3333333, y: 0.3333333, z: 0.3333333}
        outWeight: {x: 0.3333333, y: 0.3333333, z: 0.3333333}
      - serializedVersion: 3
        time: 0.5333334
        value: {x: -0.01307173, y: 0.00000004649162, z: -0.292617}
        inSlope: {x: -0.0000005108965, y: -0.00000005364125, z: -0.00000237056}
        outSlope: {x: -0.0000006335126, y: -0.00000005364418, z: -0.000002752034}
        tangentMode: 0
        weightedMode: 0
        inWeight: {x: 0.3333333, y: 0.3333333, z: 0.3333333}
        outWeight: {x: 0.3333333, y: 0.3333333, z: 0.3333333}
      - serializedVersion: 3
        time: 0.6666667
        value: {x: -0.01307171, y: 0.0000000500679, z: -0.292617}
        inSlope: {x: -0.000000005109154, y: -3.323409e-12, z: -0.000002942764}
        outSlope: {x: 0.000000005109164, y: -5.744236e-13, z: 0.000002942769}
        tangentMode: 0
        weightedMode: 0
        inWeight: {x: 0.3333333, y: 0.3333333, z: 0.3333333}
        outWeight: {x: 0.3333333, y: 0.3333333, z: 0.3333333}
      - serializedVersion: 3
        time: 0.8666667
        value: {x: -0.01307175, y: 0.00000004649162, z: -0.292617}
        inSlope: {x: -0.0000000613075, y: 0.0000000357626, z: -0.000002942764}
        outSlope: {x: -0.0000002367159, y: 0.00000003576264, z: -0.0000005722051}
        tangentMode: 0
        weightedMode: 0
        inWeight: {x: 0.3333333, y: 0.3333333, z: 0.3333333}
        outWeight: {x: 0.3333333, y: 0.3333333, z: 0.3333333}
      - serializedVersion: 3
        time: 1.333333
        value: {x: -0.01307173, y: 0.00000004688496, z: -0.292617}
        inSlope: {x: 0.0000002741805, y: 6.241129e-10, z: -0.00000147138}
        outSlope: {x: 0.0000002741805, y: 6.241129e-10, z: -0.00000147138}
        tangentMode: 0
        weightedMode: 0
        inWeight: {x: 0.3333333, y: 0.3333333, z: 0.3333333}
        outWeight: {x: 0.3333333, y: 0.3333333, z: 0.3333333}
      m_PreInfinity: 2
      m_PostInfinity: 2
      m_RotationOrder: 4
    path: RigBottom/RigSpine/RigTop/RigRHandle
  - curve:
      serializedVersion: 2
      m_Curve:
      - serializedVersion: 3
        time: 0
        value: {x: 0.04039106, y: 0.03615228, z: -0.000000007039108}
        inSlope: {x: 0, y: 0, z: 0}
        outSlope: {x: 0, y: 0, z: 0}
        tangentMode: 0
        weightedMode: 0
        inWeight: {x: 0.3333333, y: 0.3333333, z: 0.3333333}
        outWeight: {x: 0.3333333, y: 0.3333333, z: 0.3333333}
      - serializedVersion: 3
        time: 1.333333
        value: {x: 0.04039106, y: 0.03615228, z: -0.000000007039108}
        inSlope: {x: 0, y: 0, z: 0}
        outSlope: {x: 0, y: 0, z: 0}
        tangentMode: 0
        weightedMode: 0
        inWeight: {x: 0.3333333, y: 0.3333333, z: 0.3333333}
        outWeight: {x: 0.3333333, y: 0.3333333, z: 0.3333333}
      m_PreInfinity: 2
      m_PostInfinity: 2
      m_RotationOrder: 4
    path: RigBottom/RigSpine/RigTop/RigTongue1
  - curve:
      serializedVersion: 2
      m_Curve:
      - serializedVersion: 3
        time: 0
        value: {x: -0.08836239, y: 0, z: -1.136868e-15}
        inSlope: {x: 0, y: 0, z: 0}
        outSlope: {x: 0, y: 0, z: 0}
        tangentMode: 0
        weightedMode: 0
        inWeight: {x: 0.3333333, y: 0.3333333, z: 0.3333333}
        outWeight: {x: 0.3333333, y: 0.3333333, z: 0.3333333}
      - serializedVersion: 3
        time: 1.333333
        value: {x: -0.08836239, y: 0, z: -1.136868e-15}
        inSlope: {x: 0, y: 0, z: 0}
        outSlope: {x: 0, y: 0, z: 0}
        tangentMode: 0
        weightedMode: 0
        inWeight: {x: 0.3333333, y: 0.3333333, z: 0.3333333}
        outWeight: {x: 0.3333333, y: 0.3333333, z: 0.3333333}
      m_PreInfinity: 2
      m_PostInfinity: 2
      m_RotationOrder: 4
    path: RigBottom/RigSpine/RigTop/RigTongue1/RigTongue2
  - curve:
      serializedVersion: 2
      m_Curve:
      - serializedVersion: 3
        time: 0
        value: {x: -0.1001243, y: 0, z: 0}
        inSlope: {x: 0, y: 0, z: 0}
        outSlope: {x: 0, y: 0, z: 0}
        tangentMode: 0
        weightedMode: 0
        inWeight: {x: 0.3333333, y: 0.3333333, z: 0.3333333}
        outWeight: {x: 0.3333333, y: 0.3333333, z: 0.3333333}
      - serializedVersion: 3
        time: 1.333333
        value: {x: -0.1001243, y: 0, z: 0}
        inSlope: {x: 0, y: 0, z: 0}
        outSlope: {x: 0, y: 0, z: 0}
        tangentMode: 0
        weightedMode: 0
        inWeight: {x: 0.3333333, y: 0.3333333, z: 0.3333333}
        outWeight: {x: 0.3333333, y: 0.3333333, z: 0.3333333}
      m_PreInfinity: 2
      m_PostInfinity: 2
      m_RotationOrder: 4
    path: RigBottom/RigSpine/RigTop/RigTongue1/RigTongue2/RigTongue3
  - curve:
      serializedVersion: 2
      m_Curve:
      - serializedVersion: 3
        time: 0
        value: {x: -0.1021944, y: -0.00000001907349, z: 9.094947e-15}
        inSlope: {x: 0, y: 0, z: 0}
        outSlope: {x: 0, y: 0, z: 0}
        tangentMode: 0
        weightedMode: 0
        inWeight: {x: 0.3333333, y: 0.3333333, z: 0.3333333}
        outWeight: {x: 0.3333333, y: 0.3333333, z: 0.3333333}
      - serializedVersion: 3
        time: 1.333333
        value: {x: -0.1021944, y: -0.00000001907349, z: 9.094947e-15}
        inSlope: {x: 0, y: 0, z: 0}
        outSlope: {x: 0, y: 0, z: 0}
        tangentMode: 0
        weightedMode: 0
        inWeight: {x: 0.3333333, y: 0.3333333, z: 0.3333333}
        outWeight: {x: 0.3333333, y: 0.3333333, z: 0.3333333}
      m_PreInfinity: 2
      m_PostInfinity: 2
      m_RotationOrder: 4
    path: RigBottom/RigSpine/RigTop/RigTongue1/RigTongue2/RigTongue3/RigTongue4
  - curve:
      serializedVersion: 2
      m_Curve:
      - serializedVersion: 3
        time: 0
        value: {x: -0.1070491, y: 0, z: 0}
        inSlope: {x: 0, y: 0, z: 0}
        outSlope: {x: 0, y: 0, z: 0}
        tangentMode: 0
        weightedMode: 0
        inWeight: {x: 0.3333333, y: 0.3333333, z: 0.3333333}
        outWeight: {x: 0.3333333, y: 0.3333333, z: 0.3333333}
      - serializedVersion: 3
        time: 1.333333
        value: {x: -0.1070491, y: 0, z: 0}
        inSlope: {x: 0, y: 0, z: 0}
        outSlope: {x: 0, y: 0, z: 0}
        tangentMode: 0
        weightedMode: 0
        inWeight: {x: 0.3333333, y: 0.3333333, z: 0.3333333}
        outWeight: {x: 0.3333333, y: 0.3333333, z: 0.3333333}
      m_PreInfinity: 2
      m_PostInfinity: 2
      m_RotationOrder: 4
    path: RigBottom/RigSpine/RigTop/RigTongue1/RigTongue2/RigTongue3/RigTongue4/RigTongue5
  - curve:
      serializedVersion: 2
      m_Curve:
      - serializedVersion: 3
        time: 0
        value: {x: 5.504555e-14, y: 0.05489523, z: -0.0000002199978}
        inSlope: {x: 0, y: 0, z: 0}
        outSlope: {x: 0, y: 0, z: 0}
        tangentMode: 0
        weightedMode: 0
        inWeight: {x: 0.3333333, y: 0.3333333, z: 0.3333333}
        outWeight: {x: 0.3333333, y: 0.3333333, z: 0.3333333}
      - serializedVersion: 3
        time: 1.333333
        value: {x: 5.504555e-14, y: 0.05489523, z: -0.0000002199978}
        inSlope: {x: 0, y: 0, z: 0}
        outSlope: {x: 0, y: 0, z: 0}
        tangentMode: 0
        weightedMode: 0
        inWeight: {x: 0.3333333, y: 0.3333333, z: 0.3333333}
        outWeight: {x: 0.3333333, y: 0.3333333, z: 0.3333333}
      m_PreInfinity: 2
      m_PostInfinity: 2
      m_RotationOrder: 4
    path: RigBottomGizmo
  - curve:
      serializedVersion: 2
      m_Curve:
      - serializedVersion: 3
        time: 0
        value: {x: 0.292617, y: 0.2491603, z: -0.0000001377112}
        inSlope: {x: 0.001920454, y: -0.005436161, z: 0.00456345}
        outSlope: {x: 0.001920454, y: -0.005436161, z: 0.00456345}
        tangentMode: 0
        weightedMode: 0
        inWeight: {x: 0.3333333, y: 0.3333333, z: 0.3333333}
        outWeight: {x: 0.3333333, y: 0.3333333, z: 0.3333333}
      - serializedVersion: 3
        time: 0.03333334
        value: {x: 0.2926811, y: 0.2489792, z: 0.0001519773}
        inSlope: {x: 0.003699738, y: -0.01050971, z: 0.008780384}
        outSlope: {x: 0.00370279, y: -0.01050976, z: 0.008780392}
        tangentMode: 0
        weightedMode: 0
        inWeight: {x: 0.3333333, y: 0.3333333, z: 0.3333333}
        outWeight: {x: 0.3333333, y: 0.3333333, z: 0.3333333}
      - serializedVersion: 3
        time: 0.1333333
        value: {x: 0.2935257, y: 0.246545, z: 0.002145132}
        inSlope: {x: 0.01234597, y: -0.03628661, z: 0.0289549}
        outSlope: {x: 0.01234738, y: -0.03629074, z: 0.028955}
        tangentMode: 0
        weightedMode: 0
        inWeight: {x: 0.3333333, y: 0.3333333, z: 0.3333333}
        outWeight: {x: 0.3333333, y: 0.3333333, z: 0.3333333}
      - serializedVersion: 3
        time: 0.3666667
        value: {x: 0.2973514, y: 0.2343034, z: 0.01085086}
        inSlope: {x: 0.01693156, y: -0.05909802, z: 0.03713193}
        outSlope: {x: 0.01693358, y: -0.05909736, z: 0.03713209}
        tangentMode: 0
        weightedMode: 0
        inWeight: {x: 0.3333333, y: 0.3333333, z: 0.3333333}
        outWeight: {x: 0.3333333, y: 0.3333333, z: 0.3333333}
      - serializedVersion: 3
        time: 0.7333333
        value: {x: 0.3002125, y: 0.2235609, z: 0.01688916}
        inSlope: {x: -0.005451715, y: 0.02198871, z: -0.01100776}
        outSlope: {x: -0.005451152, y: 0.02199423, z: -0.01100799}
        tangentMode: 0
        weightedMode: 0
        inWeight: {x: 0.3333333, y: 0.3333333, z: 0.3333333}
        outWeight: {x: 0.3333333, y: 0.3333333, z: 0.3333333}
      - serializedVersion: 3
        time: 1.033333
        value: {x: 0.2961876, y: 0.2382565, z: 0.008266345}
        inSlope: {x: -0.01762923, y: 0.05828358, z: -0.03962003}
        outSlope: {x: -0.01762786, y: 0.05828078, z: -0.03961895}
        tangentMode: 0
        weightedMode: 0
        inWeight: {x: 0.3333333, y: 0.3333333, z: 0.3333333}
        outWeight: {x: 0.3333333, y: 0.3333333, z: 0.3333333}
      - serializedVersion: 3
        time: 1.266667
        value: {x: 0.2928639, y: 0.2484597, z: 0.0005852213}
        inSlope: {x: -0.007043599, y: 0.02013418, z: -0.01665957}
        outSlope: {x: -0.007040656, y: 0.02013167, z: -0.01665949}
        tangentMode: 0
        weightedMode: 0
        inWeight: {x: 0.3333333, y: 0.3333333, z: 0.3333333}
        outWeight: {x: 0.3333333, y: 0.3333333, z: 0.3333333}
      - serializedVersion: 3
        time: 1.3
        value: {x: 0.2926811, y: 0.2489792, z: 0.0001519773}
        inSlope: {x: -0.003702793, y: 0.010505, z: -0.008780465}
        outSlope: {x: -0.003699729, y: 0.01050968, z: -0.008780275}
        tangentMode: 0
        weightedMode: 0
        inWeight: {x: 0.3333333, y: 0.3333333, z: 0.3333333}
        outWeight: {x: 0.3333333, y: 0.3333333, z: 0.3333333}
      - serializedVersion: 3
        time: 1.333333
        value: {x: 0.292617, y: 0.2491603, z: -0.0000001377112}
        inSlope: {x: -0.00192045, y: 0.005436147, z: -0.004563369}
        outSlope: {x: -0.00192045, y: 0.005436147, z: -0.004563369}
        tangentMode: 0
        weightedMode: 0
        inWeight: {x: 0.3333333, y: 0.3333333, z: 0.3333333}
        outWeight: {x: 0.3333333, y: 0.3333333, z: 0.3333333}
      m_PreInfinity: 2
      m_PostInfinity: 2
      m_RotationOrder: 4
    path: RigRHandleGizmo
  - curve:
      serializedVersion: 2
      m_Curve:
      - serializedVersion: 3
        time: 0
        value: {x: -0.292617, y: 0.2491603, z: -0.00000008654845}
        inSlope: {x: 0.001930018, y: 0.0054333, z: 0.00194491}
        outSlope: {x: 0.001930018, y: 0.0054333, z: 0.00194491}
        tangentMode: 0
        weightedMode: 0
        inWeight: {x: 0.3333333, y: 0.3333333, z: 0.3333333}
        outWeight: {x: 0.3333333, y: 0.3333333, z: 0.3333333}
      - serializedVersion: 3
        time: 0.03333334
        value: {x: -0.2925528, y: 0.2493414, z: 0.00006474378}
        inSlope: {x: 0.003733825, y: 0.01049322, z: 0.003786758}
        outSlope: {x: 0.003730664, y: 0.01049153, z: 0.00378676}
        tangentMode: 0
        weightedMode: 0
        inWeight: {x: 0.3333333, y: 0.3333333, z: 0.3333333}
        outWeight: {x: 0.3333333, y: 0.3333333, z: 0.3333333}
      - serializedVersion: 3
        time: 0.2666667
        value: {x: -0.2893545, y: 0.257945, z: 0.003580478}
        inSlope: {x: 0.02086126, y: 0.0535933, z: 0.02462192}
        outSlope: {x: 0.0208583, y: 0.05359458, z: 0.02462199}
        tangentMode: 0
        weightedMode: 0
        inWeight: {x: 0.3333333, y: 0.3333333, z: 0.3333333}
        outWeight: {x: 0.3333333, y: 0.3333333, z: 0.3333333}
      - serializedVersion: 3
        time: 0.5333334
        value: {x: -0.2837324, y: 0.2713667, z: 0.01084976}
        inSlope: {x: 0.01571158, y: 0.03489513, z: 0.02185481}
        outSlope: {x: 0.01570831, y: 0.03489625, z: 0.02185533}
        tangentMode: 0
        weightedMode: 0
        inWeight: {x: 0.3333333, y: 0.3333333, z: 0.3333333}
        outWeight: {x: 0.3333333, y: 0.3333333, z: 0.3333333}
      - serializedVersion: 3
        time: 0.7333333
        value: {x: -0.2828912, y: 0.2732134, z: 0.01203198}
        inSlope: {x: -0.008946219, y: -0.01945436, z: -0.01266367}
        outSlope: {x: -0.00894569, y: -0.01945696, z: -0.0126637}
        tangentMode: 0
        weightedMode: 0
        inWeight: {x: 0.3333333, y: 0.3333333, z: 0.3333333}
        outWeight: {x: 0.3333333, y: 0.3333333, z: 0.3333333}
      - serializedVersion: 3
        time: 1.033333
        value: {x: -0.2886385, y: 0.2597675, z: 0.004436725}
        inSlope: {x: -0.02190333, y: -0.05518108, z: -0.02654191}
        outSlope: {x: -0.02189785, y: -0.05518173, z: -0.02654126}
        tangentMode: 0
        weightedMode: 0
        inWeight: {x: 0.3333333, y: 0.3333333, z: 0.3333333}
        outWeight: {x: 0.3333333, y: 0.3333333, z: 0.3333333}
      - serializedVersion: 3
        time: 1.233333
        value: {x: -0.292075, y: 0.2506777, z: 0.0005547355}
        inSlope: {x: -0.01026182, y: -0.02847475, z: -0.01070115}
        outSlope: {x: -0.01026825, y: -0.02847249, z: -0.01070119}
        tangentMode: 0
        weightedMode: 0
        inWeight: {x: 0.3333333, y: 0.3333333, z: 0.3333333}
        outWeight: {x: 0.3333333, y: 0.3333333, z: 0.3333333}
      - serializedVersion: 3
        time: 1.3
        value: {x: -0.2925528, y: 0.2493414, z: 0.00006474378}
        inSlope: {x: -0.003728624, y: -0.01049631, z: -0.003786792}
        outSlope: {x: -0.003731772, y: -0.01048843, z: -0.003786712}
        tangentMode: 0
        weightedMode: 0
        inWeight: {x: 0.3333333, y: 0.3333333, z: 0.3333333}
        outWeight: {x: 0.3333333, y: 0.3333333, z: 0.3333333}
      - serializedVersion: 3
        time: 1.333333
        value: {x: -0.292617, y: 0.2491603, z: -0.00000008654845}
        inSlope: {x: -0.001925245, y: -0.005431242, z: -0.001944876}
        outSlope: {x: -0.001925245, y: -0.005431242, z: -0.001944876}
        tangentMode: 0
        weightedMode: 0
        inWeight: {x: 0.3333333, y: 0.3333333, z: 0.3333333}
        outWeight: {x: 0.3333333, y: 0.3333333, z: 0.3333333}
      m_PreInfinity: 2
      m_PostInfinity: 2
      m_RotationOrder: 4
    path: RigLHandleGizmo
  - curve:
      serializedVersion: 2
      m_Curve:
      - serializedVersion: 3
        time: 0
        value: {x: 5.504555e-14, y: 0.2360886, z: -0.0000001631182}
        inSlope: {x: 0.001682203, y: -0.000003187997, z: 0.002843847}
        outSlope: {x: 0.001682203, y: -0.000003187997, z: 0.002843847}
        tangentMode: 0
        weightedMode: 0
        inWeight: {x: 0.3333333, y: 0.3333333, z: 0.3333333}
        outWeight: {x: 0.3333333, y: 0.3333333, z: 0.3333333}
      - serializedVersion: 3
        time: 0.03333334
        value: {x: 0.00005607343, y: 0.2360886, z: 0.00009463178}
        inSlope: {x: 0.00324809, y: -0.00001136235, z: 0.005491209}
        outSlope: {x: 0.003248093, y: -0.000008855545, z: 0.005491215}
        tangentMode: 0
        weightedMode: 0
        inWeight: {x: 0.3333333, y: 0.3333333, z: 0.3333333}
        outWeight: {x: 0.3333333, y: 0.3333333, z: 0.3333333}
      - serializedVersion: 3
        time: 0.1333333
        value: {x: 0.0008049215, y: 0.2360817, z: 0.001359212}
        inSlope: {x: 0.01109728, y: -0.0001961299, z: 0.01871626}
        outSlope: {x: 0.01109732, y: -0.0001999446, z: 0.01871631}
        tangentMode: 0
        weightedMode: 0
        inWeight: {x: 0.3333333, y: 0.3333333, z: 0.3333333}
        outWeight: {x: 0.3333333, y: 0.3333333, z: 0.3333333}
      - serializedVersion: 3
        time: 0.6666667
        value: {x: 0.007797468, y: 0.2354533, z: 0.01300007}
        inSlope: {x: 0.00000006876382, y: -0.000001498596, z: 0.00000006948258}
        outSlope: {x: -0.00000006876395, y: 0.000001498599, z: -0.00000006948271}
        tangentMode: 0
        weightedMode: 0
        inWeight: {x: 0.3333333, y: 0.3333333, z: 0.3333333}
        outWeight: {x: 0.3333333, y: 0.3333333, z: 0.3333333}
      - serializedVersion: 3
        time: 1.233333
        value: {x: 0.0004700146, y: 0.2360862, z: 0.0007940154}
        inSlope: {x: -0.008825723, y: 0.000095313, z: -0.0148994}
        outSlope: {x: -0.008825756, y: 0.00009784706, z: -0.01489949}
        tangentMode: 0
        weightedMode: 0
        inWeight: {x: 0.3333333, y: 0.3333333, z: 0.3333333}
        outWeight: {x: 0.3333333, y: 0.3333333, z: 0.3333333}
      - serializedVersion: 3
        time: 1.3
        value: {x: 0.00005607343, y: 0.2360886, z: 0.0000946318}
        inSlope: {x: -0.003248118, y: 0.000008855553, z: -0.005491254}
        outSlope: {x: -0.00324805, y: 0.000006593959, z: -0.00549114}
        tangentMode: 0
        weightedMode: 0
        inWeight: {x: 0.3333333, y: 0.3333333, z: 0.3333333}
        outWeight: {x: 0.3333333, y: 0.3333333, z: 0.3333333}
      - serializedVersion: 3
        time: 1.333333
        value: {x: 5.504555e-14, y: 0.2360886, z: -0.0000001631182}
        inSlope: {x: -0.001682173, y: 0.000001144406, z: -0.002843797}
        outSlope: {x: -0.001682173, y: 0.000001144406, z: -0.002843797}
        tangentMode: 0
        weightedMode: 0
        inWeight: {x: 0.3333333, y: 0.3333333, z: 0.3333333}
        outWeight: {x: 0.3333333, y: 0.3333333, z: 0.3333333}
      m_PreInfinity: 2
      m_PostInfinity: 2
      m_RotationOrder: 4
    path: RigTopGizmo
  - curve:
      serializedVersion: 2
      m_Curve:
      - serializedVersion: 3
        time: 0
        value: {x: -0.00000006429737, y: 0.2561185, z: -0.2279002}
        inSlope: {x: 0.003078161, y: 0.007146643, z: 0.003476142}
        outSlope: {x: 0.003078161, y: 0.007146643, z: 0.003476142}
        tangentMode: 0
        weightedMode: 0
        inWeight: {x: 0.3333333, y: 0.3333333, z: 0.3333333}
        outWeight: {x: 0.3333333, y: 0.3333333, z: 0.3333333}
      - serializedVersion: 3
        time: 0.03333334
        value: {x: 0.0001025411, y: 0.2563569, z: -0.2277843}
        inSlope: {x: 0.005943727, y: 0.01379239, z: 0.006732258}
        outSlope: {x: 0.00594373, y: 0.01380094, z: 0.006732884}
        tangentMode: 0
        weightedMode: 0
        inWeight: {x: 0.3333333, y: 0.3333333, z: 0.3333333}
        outWeight: {x: 0.3333333, y: 0.3333333, z: 0.3333333}
      - serializedVersion: 3
        time: 0.1333333
        value: {x: 0.001472328, y: 0.2595248, z: -0.226214}
        inSlope: {x: 0.0202903, y: 0.04669828, z: 0.0236094}
        outSlope: {x: 0.02029039, y: 0.04670254, z: 0.02360728}
        tangentMode: 0
        weightedMode: 0
        inWeight: {x: 0.3333333, y: 0.3333333, z: 0.3333333}
        outWeight: {x: 0.3333333, y: 0.3333333, z: 0.3333333}
      - serializedVersion: 3
        time: 0.6666667
        value: {x: 0.01419606, y: 0.2875765, z: -0.2096697}
        inSlope: {x: -0.0000001110692, y: -0.000004087961, z: -0.000001635407}
        outSlope: {x: -0.0000001869541, y: 0.000002044379, z: 0.000001635409}
        tangentMode: 0
        weightedMode: 0
        inWeight: {x: 0.3333333, y: 0.3333333, z: 0.3333333}
        outWeight: {x: 0.3333333, y: 0.3333333, z: 0.3333333}
      - serializedVersion: 3
        time: 1.266667
        value: {x: 0.0003961842, y: 0.2570384, z: -0.2274512}
        inSlope: {x: -0.0113597, y: -0.0263262, z: -0.01294739}
        outSlope: {x: -0.01135963, y: -0.02632476, z: -0.01293996}
        tangentMode: 0
        weightedMode: 0
        inWeight: {x: 0.3333333, y: 0.3333333, z: 0.3333333}
        outWeight: {x: 0.3333333, y: 0.3333333, z: 0.3333333}
      - serializedVersion: 3
        time: 1.3
        value: {x: 0.0001025411, y: 0.2563569, z: -0.2277843}
        inSlope: {x: -0.005943774, y: -0.01379619, z: -0.006732891}
        outSlope: {x: -0.005943654, y: -0.01379235, z: -0.006732241}
        tangentMode: 0
        weightedMode: 0
        inWeight: {x: 0.3333333, y: 0.3333333, z: 0.3333333}
        outWeight: {x: 0.3333333, y: 0.3333333, z: 0.3333333}
      - serializedVersion: 3
        time: 1.333333
        value: {x: -0.00000006429737, y: 0.2561185, z: -0.2279002}
        inSlope: {x: -0.003078106, y: -0.007146625, z: -0.003476133}
        outSlope: {x: -0.003078106, y: -0.007146625, z: -0.003476133}
        tangentMode: 0
        weightedMode: 0
        inWeight: {x: 0.3333333, y: 0.3333333, z: 0.3333333}
        outWeight: {x: 0.3333333, y: 0.3333333, z: 0.3333333}
      m_PreInfinity: 2
      m_PostInfinity: 2
      m_RotationOrder: 4
    path: RigCoverGizmo
  - curve:
      serializedVersion: 2
      m_Curve:
      - serializedVersion: 3
        time: 0
        value: {x: 0.00000001019969, y: 0.1956975, z: 0.03615211}
        inSlope: {x: 0.0007699394, y: -0.001131276, z: 0.001575534}
        outSlope: {x: 0.0007699394, y: -0.001131276, z: 0.001575534}
        tangentMode: 0
        weightedMode: 0
        inWeight: {x: 0.3333333, y: 0.3333333, z: 0.3333333}
        outWeight: {x: 0.3333333, y: 0.3333333, z: 0.3333333}
      - serializedVersion: 3
        time: 0.03333334
        value: {x: 0.00002567485, y: 0.1956597, z: 0.03620462}
        inSlope: {x: 0.00148648, y: -0.002188491, z: 0.003038402}
        outSlope: {x: 0.001486481, y: -0.002191189, z: 0.003038889}
        tangentMode: 0
        weightedMode: 0
        inWeight: {x: 0.3333333, y: 0.3333333, z: 0.3333333}
        outWeight: {x: 0.3333333, y: 0.3333333, z: 0.3333333}
      - serializedVersion: 3
        time: 0.1666667
        value: {x: 0.0005545085, y: 0.1948822, z: 0.03727399}
        inSlope: {x: 0.005980874, y: -0.008766964, z: 0.01194782}
        outSlope: {x: 0.005980877, y: -0.00876947, z: 0.0119474}
        tangentMode: 0
        weightedMode: 0
        inWeight: {x: 0.3333333, y: 0.3333333, z: 0.3333333}
        outWeight: {x: 0.3333333, y: 0.3333333, z: 0.3333333}
      - serializedVersion: 3
        time: 0.7
        value: {x: 0.003583418, y: 0.1905297, z: 0.04294312}
        inSlope: {x: -0.001546878, y: 0.002174461, z: -0.002712927}
        outSlope: {x: -0.001546872, y: 0.002169307, z: -0.00271162}
        tangentMode: 0
        weightedMode: 0
        inWeight: {x: 0.3333333, y: 0.3333333, z: 0.3333333}
        outWeight: {x: 0.3333333, y: 0.3333333, z: 0.3333333}
      - serializedVersion: 3
        time: 1.233333
        value: {x: 0.0002152216, y: 0.1953805, z: 0.03659074}
        inSlope: {x: -0.00404432, y: 0.005944038, z: -0.008197069}
        outSlope: {x: -0.00404434, y: 0.005947799, z: -0.008197188}
        tangentMode: 0
        weightedMode: 0
        inWeight: {x: 0.3333333, y: 0.3333333, z: 0.3333333}
        outWeight: {x: 0.3333333, y: 0.3333333, z: 0.3333333}
      - serializedVersion: 3
        time: 1.3
        value: {x: 0.00002567485, y: 0.1956597, z: 0.03620462}
        inSlope: {x: -0.001486494, y: 0.002191191, z: -0.003038041}
        outSlope: {x: -0.001486462, y: 0.002188486, z: -0.003038139}
        tangentMode: 0
        weightedMode: 0
        inWeight: {x: 0.3333333, y: 0.3333333, z: 0.3333333}
        outWeight: {x: 0.3333333, y: 0.3333333, z: 0.3333333}
      - serializedVersion: 3
        time: 1.333333
        value: {x: 0.00000001019969, y: 0.1956975, z: 0.03615211}
        inSlope: {x: -0.0007699258, y: 0.001131273, z: -0.001574934}
        outSlope: {x: -0.0007699258, y: 0.001131273, z: -0.001574934}
        tangentMode: 0
        weightedMode: 0
        inWeight: {x: 0.3333333, y: 0.3333333, z: 0.3333333}
        outWeight: {x: 0.3333333, y: 0.3333333, z: 0.3333333}
      m_PreInfinity: 2
      m_PostInfinity: 2
      m_RotationOrder: 4
    path: RigTongue1Gizmo
  - curve:
      serializedVersion: 2
      m_Curve:
      - serializedVersion: 3
        time: 0
        value: {x: 0.00000002448868, y: 0.2681048, z: 0.08679891}
        inSlope: {x: 0.001886806, y: -0.002728026, z: 0.003847735}
        outSlope: {x: 0.001886806, y: -0.002728026, z: 0.003847735}
        tangentMode: 0
        weightedMode: 0
        inWeight: {x: 0.3333333, y: 0.3333333, z: 0.3333333}
        outWeight: {x: 0.3333333, y: 0.3333333, z: 0.3333333}
      - serializedVersion: 3
        time: 0.03333334
        value: {x: 0.00006291801, y: 0.2680139, z: 0.08692718}
        inSlope: {x: 0.003642558, y: -0.005275698, z: 0.007421288}
        outSlope: {x: 0.003642559, y: -0.005270929, z: 0.007422091}
        tangentMode: 0
        weightedMode: 0
        inWeight: {x: 0.3333333, y: 0.3333333, z: 0.3333333}
        outWeight: {x: 0.3333333, y: 0.3333333, z: 0.3333333}
      - serializedVersion: 3
        time: 0.1666667
        value: {x: 0.00135662, y: 0.2661248, z: 0.08954027}
        inSlope: {x: 0.01460467, y: -0.0215426, z: 0.02920796}
        outSlope: {x: 0.01460472, y: -0.02154222, z: 0.02920683}
        tangentMode: 0
        weightedMode: 0
        inWeight: {x: 0.3333333, y: 0.3333333, z: 0.3333333}
        outWeight: {x: 0.3333333, y: 0.3333333, z: 0.3333333}
      - serializedVersion: 3
        time: 0.7
        value: {x: 0.008676215, y: 0.2547947, z: 0.1033749}
        inSlope: {x: -0.003698822, y: 0.00597393, z: -0.006581652}
        outSlope: {x: -0.003698924, y: 0.005975662, z: -0.006579923}
        tangentMode: 0
        weightedMode: 0
        inWeight: {x: 0.3333333, y: 0.3333333, z: 0.3333333}
        outWeight: {x: 0.3333333, y: 0.3333333, z: 0.3333333}
      - serializedVersion: 3
        time: 1.266667
        value: {x: 0.0002428617, y: 0.2677533, z: 0.08729366}
        inSlope: {x: -0.00696261, y: 0.01010318, z: -0.01414885}
        outSlope: {x: -0.006962577, y: 0.0101047, z: -0.01414687}
        tangentMode: 0
        weightedMode: 0
        inWeight: {x: 0.3333333, y: 0.3333333, z: 0.3333333}
        outWeight: {x: 0.3333333, y: 0.3333333, z: 0.3333333}
      - serializedVersion: 3
        time: 1.3
        value: {x: 0.000062918, y: 0.2680139, z: 0.08692718}
        inSlope: {x: -0.00364259, y: 0.005270935, z: -0.007422098}
        outSlope: {x: -0.003642513, y: 0.005270916, z: -0.007421269}
        tangentMode: 0
        weightedMode: 0
        inWeight: {x: 0.3333333, y: 0.3333333, z: 0.3333333}
        outWeight: {x: 0.3333333, y: 0.3333333, z: 0.3333333}
      - serializedVersion: 3
        time: 1.333333
        value: {x: 0.00000002448868, y: 0.2681048, z: 0.08679891}
        inSlope: {x: -0.001886772, y: 0.002725975, z: -0.003847725}
        outSlope: {x: -0.001886772, y: 0.002725975, z: -0.003847725}
        tangentMode: 0
        weightedMode: 0
        inWeight: {x: 0.3333333, y: 0.3333333, z: 0.3333333}
        outWeight: {x: 0.3333333, y: 0.3333333, z: 0.3333333}
      m_PreInfinity: 2
      m_PostInfinity: 2
      m_RotationOrder: 4
    path: RigTongue2Gizmo
  - curve:
      serializedVersion: 2
      m_Curve:
      - serializedVersion: 3
        time: 0
        value: {x: 0.00000005871268, y: 0.2757425, z: 0.1866315}
        inSlope: {x: 0.0007135542, y: 0.00414148, z: 0.003312737}
        outSlope: {x: 0.0007135542, y: 0.00414148, z: 0.003312737}
        tangentMode: 0
        weightedMode: 0
        inWeight: {x: 0.3333333, y: 0.3333333, z: 0.3333333}
        outWeight: {x: 0.3333333, y: 0.3333333, z: 0.3333333}
      - serializedVersion: 3
        time: 0.03333334
        value: {x: 0.00002384385, y: 0.2758805, z: 0.186742}
        inSlope: {x: 0.001411789, y: 0.00798615, z: 0.006342696}
        outSlope: {x: 0.00141179, y: 0.007989527, z: 0.006346537}
        tangentMode: 0
        weightedMode: 0
        inWeight: {x: 0.3333333, y: 0.3333333, z: 0.3333333}
        outWeight: {x: 0.3333333, y: 0.3333333, z: 0.3333333}
      - serializedVersion: 3
        time: 0.1333333
        value: {x: 0.0003820664, y: 0.2777126, z: 0.1881544}
        inSlope: {x: 0.00592458, y: 0.02697206, z: 0.01998827}
        outSlope: {x: 0.005924598, y: 0.0269762, z: 0.01999195}
        tangentMode: 0
        weightedMode: 0
        inWeight: {x: 0.3333333, y: 0.3333333, z: 0.3333333}
        outWeight: {x: 0.3333333, y: 0.3333333, z: 0.3333333}
      - serializedVersion: 3
        time: 0.2666667
        value: {x: 0.001652392, y: 0.2823111, z: 0.1912536}
        inSlope: {x: 0.01326088, y: 0.03916207, z: 0.02361909}
        outSlope: {x: 0.01326095, y: 0.03916391, z: 0.02361869}
        tangentMode: 0
        weightedMode: 0
        inWeight: {x: 0.3333333, y: 0.3333333, z: 0.3333333}
        outWeight: {x: 0.3333333, y: 0.3333333, z: 0.3333333}
      - serializedVersion: 3
        time: 0.4666667
        value: {x: 0.005071958, y: 0.2898331, z: 0.194882}
        inSlope: {x: 0.01812261, y: 0.03107844, z: 0.01103995}
        outSlope: {x: 0.01812264, y: 0.03107934, z: 0.01104382}
        tangentMode: 0
        weightedMode: 0
        inWeight: {x: 0.3333333, y: 0.3333333, z: 0.3333333}
        outWeight: {x: 0.3333333, y: 0.3333333, z: 0.3333333}
      - serializedVersion: 3
        time: 0.7
        value: {x: 0.007254513, y: 0.2931667, z: 0.1958435}
        inSlope: {x: -0.004701081, y: -0.006488969, z: -0.001454218}
        outSlope: {x: -0.004700969, y: -0.006488412, z: -0.001455006}
        tangentMode: 0
        weightedMode: 0
        inWeight: {x: 0.3333333, y: 0.3333333, z: 0.3333333}
        outWeight: {x: 0.3333333, y: 0.3333333, z: 0.3333333}
      - serializedVersion: 3
        time: 1
        value: {x: 0.002652714, y: 0.2849691, z: 0.1927481}
        inSlope: {x: -0.01652105, y: -0.03969085, z: -0.02064978}
        outSlope: {x: -0.01652119, y: -0.03968593, z: -0.02064829}
        tangentMode: 0
        weightedMode: 0
        inWeight: {x: 0.3333333, y: 0.3333333, z: 0.3333333}
        outWeight: {x: 0.3333333, y: 0.3333333, z: 0.3333333}
      - serializedVersion: 3
        time: 1.166667
        value: {x: 0.0006074176, y: 0.2786941, z: 0.1888697}
        inSlope: {x: -0.007660729, y: -0.03144139, z: -0.02237793}
        outSlope: {x: -0.007660522, y: -0.03144203, z: -0.02238221}
        tangentMode: 0
        weightedMode: 0
        inWeight: {x: 0.3333333, y: 0.3333333, z: 0.3333333}
        outWeight: {x: 0.3333333, y: 0.3333333, z: 0.3333333}
      - serializedVersion: 3
        time: 1.266667
        value: {x: 0.00009417801, y: 0.2762749, z: 0.1870546}
        inSlope: {x: -0.002829044, y: -0.01523008, z: -0.01193015}
        outSlope: {x: -0.002829028, y: -0.01522929, z: -0.01192963}
        tangentMode: 0
        weightedMode: 0
        inWeight: {x: 0.3333333, y: 0.3333333, z: 0.3333333}
        outWeight: {x: 0.3333333, y: 0.3333333, z: 0.3333333}
      - serializedVersion: 3
        time: 1.3
        value: {x: 0.00002384384, y: 0.2758805, z: 0.186742}
        inSlope: {x: -0.001411802, y: -0.007989535, z: -0.006346544}
        outSlope: {x: -0.001411772, y: -0.007984086, z: -0.006340636}
        tangentMode: 0
        weightedMode: 0
        inWeight: {x: 0.3333333, y: 0.3333333, z: 0.3333333}
        outWeight: {x: 0.3333333, y: 0.3333333, z: 0.3333333}
      - serializedVersion: 3
        time: 1.333333
        value: {x: 0.00000005871268, y: 0.2757425, z: 0.1866315}
        inSlope: {x: -0.0007135412, y: -0.004136701, z: -0.00330796}
        outSlope: {x: -0.0007135412, y: -0.004136701, z: -0.00330796}
        tangentMode: 0
        weightedMode: 0
        inWeight: {x: 0.3333333, y: 0.3333333, z: 0.3333333}
        outWeight: {x: 0.3333333, y: 0.3333333, z: 0.3333333}
      m_PreInfinity: 2
      m_PostInfinity: 2
      m_RotationOrder: 4
    path: RigTongue3Gizmo
  - curve:
      serializedVersion: 2
      m_Curve:
      - serializedVersion: 3
        time: 0
        value: {x: 0.00000009058117, y: 0.2590431, z: 0.2874522}
        inSlope: {x: 0.0002690928, y: 0.008223505, z: 0.003987475}
        outSlope: {x: 0.0002690928, y: 0.008223505, z: 0.003987475}
        tangentMode: 0
        weightedMode: 0
        inWeight: {x: 0.3333333, y: 0.3333333, z: 0.3333333}
        outWeight: {x: 0.3333333, y: 0.3333333, z: 0.3333333}
      - serializedVersion: 3
        time: 0.03333334
        value: {x: 0.000009060339, y: 0.2593173, z: 0.2875852}
        inSlope: {x: 0.0005786901, y: 0.01588015, z: 0.007630511}
        outSlope: {x: 0.0005786903, y: 0.01588164, z: 0.007633507}
        tangentMode: 0
        weightedMode: 0
        inWeight: {x: 0.3333333, y: 0.3333333, z: 0.3333333}
        outWeight: {x: 0.3333333, y: 0.3333333, z: 0.3333333}
      - serializedVersion: 3
        time: 0.06666667
        value: {x: 0.00003866992, y: 0.2601018, z: 0.287961}
        inSlope: {x: 0.001328724, y: 0.03032572, z: 0.0143283}
        outSlope: {x: 0.001328724, y: 0.03032567, z: 0.01432999}
        tangentMode: 0
        weightedMode: 0
        inWeight: {x: 0.3333333, y: 0.3333333, z: 0.3333333}
        outWeight: {x: 0.3333333, y: 0.3333333, z: 0.3333333}
      - serializedVersion: 3
        time: 0.1333333
        value: {x: 0.0001983685, y: 0.2629711, z: 0.2892798}
        inSlope: {x: 0.003858926, y: 0.05400801, z: 0.02389948}
        outSlope: {x: 0.003858942, y: 0.0540054, z: 0.02389907}
        tangentMode: 0
        weightedMode: 0
        inWeight: {x: 0.3333333, y: 0.3333333, z: 0.3333333}
        outWeight: {x: 0.3333333, y: 0.3333333, z: 0.3333333}
      - serializedVersion: 3
        time: 0.2333333
        value: {x: 0.0008885955, y: 0.269647, z: 0.2920099}
        inSlope: {x: 0.01056217, y: 0.07623879, z: 0.02842502}
        outSlope: {x: 0.01056214, y: 0.07623265, z: 0.02842207}
        tangentMode: 0
        weightedMode: 0
        inWeight: {x: 0.3333333, y: 0.3333333, z: 0.3333333}
        outWeight: {x: 0.3333333, y: 0.3333333, z: 0.3333333}
      - serializedVersion: 3
        time: 0.3666667
        value: {x: 0.003011131, y: 0.2804769, z: 0.295432}
        inSlope: {x: 0.02072798, y: 0.08094805, z: 0.02089857}
        outSlope: {x: 0.02072803, y: 0.08095184, z: 0.02089361}
        tangentMode: 0
        weightedMode: 0
        inWeight: {x: 0.3333333, y: 0.3333333, z: 0.3333333}
        outWeight: {x: 0.3333333, y: 0.3333333, z: 0.3333333}
      - serializedVersion: 3
        time: 0.6666667
        value: {x: 0.008272581, y: 0.2955605, z: 0.2980323}
        inSlope: {x: -0.00000004383147, y: -0.000002834678, z: -0.000002043661}
        outSlope: {x: 0.00000004383155, y: -0.000003977284, z: -0.000004768302}
        tangentMode: 0
        weightedMode: 0
        inWeight: {x: 0.3333333, y: 0.3333333, z: 0.3333333}
        outWeight: {x: 0.3333333, y: 0.3333333, z: 0.3333333}
      - serializedVersion: 3
        time: 0.9666666
        value: {x: 0.003011128, y: 0.2804769, z: 0.295432}
        inSlope: {x: -0.02072799, y: -0.08095045, z: -0.0208951}
        outSlope: {x: -0.02072772, y: -0.08094946, z: -0.02089231}
        tangentMode: 0
        weightedMode: 0
        inWeight: {x: 0.3333333, y: 0.3333333, z: 0.3333333}
        outWeight: {x: 0.3333333, y: 0.3333333, z: 0.3333333}
      - serializedVersion: 3
        time: 1.1
        value: {x: 0.0008885803, y: 0.269647, z: 0.2920099}
        inSlope: {x: -0.01056212, y: -0.07623275, z: -0.02842063}
        outSlope: {x: -0.01056219, y: -0.07623886, z: -0.02842175}
        tangentMode: 0
        weightedMode: 0
        inWeight: {x: 0.3333333, y: 0.3333333, z: 0.3333333}
        outWeight: {x: 0.3333333, y: 0.3333333, z: 0.3333333}
      - serializedVersion: 3
        time: 1.2
        value: {x: 0.0001983687, y: 0.2629711, z: 0.2892798}
        inSlope: {x: -0.003858817, y: -0.05400525, z: -0.02389901}
        outSlope: {x: -0.003858946, y: -0.05400602, z: -0.02389951}
        tangentMode: 0
        weightedMode: 0
        inWeight: {x: 0.3333333, y: 0.3333333, z: 0.3333333}
        outWeight: {x: 0.3333333, y: 0.3333333, z: 0.3333333}
      - serializedVersion: 3
        time: 1.266667
        value: {x: 0.00003866994, y: 0.2601018, z: 0.287961}
        inSlope: {x: -0.001328729, y: -0.0303257, z: -0.01433}
        outSlope: {x: -0.001328723, y: -0.03032575, z: -0.01432831}
        tangentMode: 0
        weightedMode: 0
        inWeight: {x: 0.3333333, y: 0.3333333, z: 0.3333333}
        outWeight: {x: 0.3333333, y: 0.3333333, z: 0.3333333}
      - serializedVersion: 3
        time: 1.3
        value: {x: 0.000009060332, y: 0.2593173, z: 0.2875852}
        inSlope: {x: -0.000578695, y: -0.01588166, z: -0.007633514}
        outSlope: {x: -0.0005786838, y: -0.01588011, z: -0.007630491}
        tangentMode: 0
        weightedMode: 0
        inWeight: {x: 0.3333333, y: 0.3333333, z: 0.3333333}
        outWeight: {x: 0.3333333, y: 0.3333333, z: 0.3333333}
      - serializedVersion: 3
        time: 1.333333
        value: {x: 0.00000009058117, y: 0.2590431, z: 0.2874522}
        inSlope: {x: -0.0002690879, y: -0.008223484, z: -0.003987465}
        outSlope: {x: -0.0002690879, y: -0.008223484, z: -0.003987465}
        tangentMode: 0
        weightedMode: 0
        inWeight: {x: 0.3333333, y: 0.3333333, z: 0.3333333}
        outWeight: {x: 0.3333333, y: 0.3333333, z: 0.3333333}
      m_PreInfinity: 2
      m_PostInfinity: 2
      m_RotationOrder: 4
    path: RigTongue4Gizmo
  - curve:
      serializedVersion: 2
      m_Curve:
      - serializedVersion: 3
        time: 0
        value: {x: 0.0000001108875, y: 0.1663614, z: 0.3410209}
        inSlope: {x: 0.001018754, y: 0.007530211, z: 0.002789797}
        outSlope: {x: 0.001018754, y: 0.007530211, z: 0.002789797}
        tangentMode: 0
        weightedMode: 0
        inWeight: {x: 0.3333333, y: 0.3333333, z: 0.3333333}
        outWeight: {x: 0.3333333, y: 0.3333333, z: 0.3333333}
      - serializedVersion: 3
        time: 0.03333334
        value: {x: 0.00003406937, y: 0.1666124, z: 0.3411137}
        inSlope: {x: 0.002014738, y: 0.0145329, z: 0.005302047}
        outSlope: {x: 0.00201474, y: 0.01453132, z: 0.005298777}
        tangentMode: 0
        weightedMode: 0
        inWeight: {x: 0.3333333, y: 0.3333333, z: 0.3333333}
        outWeight: {x: 0.3333333, y: 0.3333333, z: 0.3333333}
      - serializedVersion: 3
        time: 0.1
        value: {x: 0.0003024788, y: 0.1684615, z: 0.3417686}
        inSlope: {x: 0.006120222, y: 0.03933299, z: 0.01329509}
        outSlope: {x: 0.006120214, y: 0.03932524, z: 0.01328561}
        tangentMode: 0
        weightedMode: 0
        inWeight: {x: 0.3333333, y: 0.3333333, z: 0.3333333}
        outWeight: {x: 0.3333333, y: 0.3333333, z: 0.3333333}
      - serializedVersion: 3
        time: 0.2666667
        value: {x: 0.002330474, y: 0.1784117, z: 0.3444268}
        inSlope: {x: 0.01869242, y: 0.07264902, z: 0.01402587}
        outSlope: {x: 0.01869253, y: 0.07265409, z: 0.01401836}
        tangentMode: 0
        weightedMode: 0
        inWeight: {x: 0.3333333, y: 0.3333333, z: 0.3333333}
        outWeight: {x: 0.3333333, y: 0.3333333, z: 0.3333333}
      - serializedVersion: 3
        time: 0.4666667
        value: {x: 0.007219198, y: 0.1926488, z: 0.3456535}
        inSlope: {x: 0.02632649, y: 0.06031066, z: -0.001372474}
        outSlope: {x: 0.02632642, y: 0.0603121, z: -0.001369258}
        tangentMode: 0
        weightedMode: 0
        inWeight: {x: 0.3333333, y: 0.3333333, z: 0.3333333}
        outWeight: {x: 0.3333333, y: 0.3333333, z: 0.3333333}
      - serializedVersion: 3
        time: 0.7
        value: {x: 0.01042401, y: 0.199221, z: 0.3451388}
        inSlope: {x: -0.006970776, y: -0.01300344, z: 0.001695035}
        outSlope: {x: -0.006970608, y: -0.01299911, z: 0.001692634}
        tangentMode: 0
        weightedMode: 0
        inWeight: {x: 0.3333333, y: 0.3333333, z: 0.3333333}
        outWeight: {x: 0.3333333, y: 0.3333333, z: 0.3333333}
      - serializedVersion: 3
        time: 0.9666666
        value: {x: 0.004561621, y: 0.1858465, z: 0.3454538}
        inSlope: {x: -0.02526198, y: -0.07317401, z: -0.006040033}
        outSlope: {x: -0.02526158, y: -0.07317378, z: -0.00603806}
        tangentMode: 0
        weightedMode: 0
        inWeight: {x: 0.3333333, y: 0.3333333, z: 0.3333333}
        outWeight: {x: 0.3333333, y: 0.3333333, z: 0.3333333}
      - serializedVersion: 3
        time: 1.133333
        value: {x: 0.001261685, y: 0.1737927, z: 0.3433744}
        inSlope: {x: -0.01336443, y: -0.06426691, z: -0.0167382}
        outSlope: {x: -0.01336441, y: -0.06426928, z: -0.0167388}
        tangentMode: 0
        weightedMode: 0
        inWeight: {x: 0.3333333, y: 0.3333333, z: 0.3333333}
        outWeight: {x: 0.3333333, y: 0.3333333, z: 0.3333333}
      - serializedVersion: 3
        time: 1.266667
        value: {x: 0.0001344269, y: 0.1673302, z: 0.3413739}
        inSlope: {x: -0.004026156, y: -0.02773429, z: -0.009823725}
        outSlope: {x: -0.004026134, y: -0.02773565, z: -0.009826015}
        tangentMode: 0
        weightedMode: 0
        inWeight: {x: 0.3333333, y: 0.3333333, z: 0.3333333}
        outWeight: {x: 0.3333333, y: 0.3333333, z: 0.3333333}
      - serializedVersion: 3
        time: 1.3
        value: {x: 0.00003406937, y: 0.1666124, z: 0.3411137}
        inSlope: {x: -0.002014758, y: -0.01453134, z: -0.005302869}
        outSlope: {x: -0.002014715, y: -0.01453287, z: -0.005297946}
        tangentMode: 0
        weightedMode: 0
        inWeight: {x: 0.3333333, y: 0.3333333, z: 0.3333333}
        outWeight: {x: 0.3333333, y: 0.3333333, z: 0.3333333}
      - serializedVersion: 3
        time: 1.333333
        value: {x: 0.0000001108875, y: 0.1663614, z: 0.3410209}
        inSlope: {x: -0.001018737, y: -0.007530191, z: -0.002780253}
        outSlope: {x: -0.001018737, y: -0.007530191, z: -0.002780253}
        tangentMode: 0
        weightedMode: 0
        inWeight: {x: 0.3333333, y: 0.3333333, z: 0.3333333}
        outWeight: {x: 0.3333333, y: 0.3333333, z: 0.3333333}
      m_PreInfinity: 2
      m_PostInfinity: 2
      m_RotationOrder: 4
    path: RigTongue5Gizmo
  m_ScaleCurves:
  - curve:
      serializedVersion: 2
      m_Curve:
      - serializedVersion: 3
        time: 0
        value: {x: 1, y: 1, z: 1}
        inSlope: {x: 0, y: 0, z: 0}
        outSlope: {x: 0, y: 0, z: 0}
        tangentMode: 0
        weightedMode: 0
        inWeight: {x: 0.3333333, y: 0.3333333, z: 0.3333333}
        outWeight: {x: 0.3333333, y: 0.3333333, z: 0.3333333}
      - serializedVersion: 3
        time: 1.333333
        value: {x: 1, y: 1, z: 1}
        inSlope: {x: 0, y: 0, z: 0}
        outSlope: {x: 0, y: 0, z: 0}
        tangentMode: 0
        weightedMode: 0
        inWeight: {x: 0.3333333, y: 0.3333333, z: 0.3333333}
        outWeight: {x: 0.3333333, y: 0.3333333, z: 0.3333333}
      m_PreInfinity: 2
      m_PostInfinity: 2
      m_RotationOrder: 4
    path: Rig
  - curve:
      serializedVersion: 2
      m_Curve:
      - serializedVersion: 3
        time: 0
        value: {x: 1, y: 1, z: 1}
        inSlope: {x: 0, y: 0, z: 0}
        outSlope: {x: 0, y: 0, z: 0}
        tangentMode: 0
        weightedMode: 0
        inWeight: {x: 0.3333333, y: 0.3333333, z: 0.3333333}
        outWeight: {x: 0.3333333, y: 0.3333333, z: 0.3333333}
      - serializedVersion: 3
        time: 1.333333
        value: {x: 1, y: 1, z: 1}
        inSlope: {x: 0, y: 0, z: 0}
        outSlope: {x: 0, y: 0, z: 0}
        tangentMode: 0
        weightedMode: 0
        inWeight: {x: 0.3333333, y: 0.3333333, z: 0.3333333}
        outWeight: {x: 0.3333333, y: 0.3333333, z: 0.3333333}
      m_PreInfinity: 2
      m_PostInfinity: 2
      m_RotationOrder: 4
    path: RigBottom
  - curve:
      serializedVersion: 2
      m_Curve:
      - serializedVersion: 3
        time: 0
        value: {x: 1, y: 1, z: 1}
        inSlope: {x: 0, y: 0, z: 0}
        outSlope: {x: 0, y: 0, z: 0}
        tangentMode: 0
        weightedMode: 0
        inWeight: {x: 0.3333333, y: 0.3333333, z: 0.3333333}
        outWeight: {x: 0.3333333, y: 0.3333333, z: 0.3333333}
      - serializedVersion: 3
        time: 1.333333
        value: {x: 1, y: 1, z: 1}
        inSlope: {x: 0, y: 0, z: 0}
        outSlope: {x: 0, y: 0, z: 0}
        tangentMode: 0
        weightedMode: 0
        inWeight: {x: 0.3333333, y: 0.3333333, z: 0.3333333}
        outWeight: {x: 0.3333333, y: 0.3333333, z: 0.3333333}
      m_PreInfinity: 2
      m_PostInfinity: 2
      m_RotationOrder: 4
    path: RigBottom/RigSpine
  - curve:
      serializedVersion: 2
      m_Curve:
      - serializedVersion: 3
        time: 0
        value: {x: 1, y: 1, z: 1}
        inSlope: {x: 0, y: 0, z: 0}
        outSlope: {x: 0, y: 0, z: 0}
        tangentMode: 0
        weightedMode: 0
        inWeight: {x: 0.3333333, y: 0.3333333, z: 0.3333333}
        outWeight: {x: 0.3333333, y: 0.3333333, z: 0.3333333}
      - serializedVersion: 3
        time: 1.333333
        value: {x: 1, y: 1, z: 1}
        inSlope: {x: 0, y: 0, z: 0}
        outSlope: {x: 0, y: 0, z: 0}
        tangentMode: 0
        weightedMode: 0
        inWeight: {x: 0.3333333, y: 0.3333333, z: 0.3333333}
        outWeight: {x: 0.3333333, y: 0.3333333, z: 0.3333333}
      m_PreInfinity: 2
      m_PostInfinity: 2
      m_RotationOrder: 4
    path: RigBottom/RigSpine/RigTop
  - curve:
      serializedVersion: 2
      m_Curve:
      - serializedVersion: 3
        time: 0
        value: {x: 1, y: 1, z: 1}
        inSlope: {x: 0, y: 0, z: 0}
        outSlope: {x: 0, y: 0, z: 0}
        tangentMode: 0
        weightedMode: 0
        inWeight: {x: 0.3333333, y: 0.3333333, z: 0.3333333}
        outWeight: {x: 0.3333333, y: 0.3333333, z: 0.3333333}
      - serializedVersion: 3
        time: 1.333333
        value: {x: 1, y: 1, z: 1}
        inSlope: {x: 0, y: 0, z: 0}
        outSlope: {x: 0, y: 0, z: 0}
        tangentMode: 0
        weightedMode: 0
        inWeight: {x: 0.3333333, y: 0.3333333, z: 0.3333333}
        outWeight: {x: 0.3333333, y: 0.3333333, z: 0.3333333}
      m_PreInfinity: 2
      m_PostInfinity: 2
      m_RotationOrder: 4
    path: RigBottom/RigSpine/RigTop/RigCover
  - curve:
      serializedVersion: 2
      m_Curve:
      - serializedVersion: 3
        time: 0
        value: {x: 1, y: 1, z: 1}
        inSlope: {x: 0, y: 0, z: 0}
        outSlope: {x: 0, y: 0, z: 0}
        tangentMode: 0
        weightedMode: 0
        inWeight: {x: 0.3333333, y: 0.3333333, z: 0.3333333}
        outWeight: {x: 0.3333333, y: 0.3333333, z: 0.3333333}
      - serializedVersion: 3
        time: 1.333333
        value: {x: 1, y: 1, z: 1}
        inSlope: {x: 0, y: 0, z: 0}
        outSlope: {x: 0, y: 0, z: 0}
        tangentMode: 0
        weightedMode: 0
        inWeight: {x: 0.3333333, y: 0.3333333, z: 0.3333333}
        outWeight: {x: 0.3333333, y: 0.3333333, z: 0.3333333}
      m_PreInfinity: 2
      m_PostInfinity: 2
      m_RotationOrder: 4
    path: RigBottom/RigSpine/RigTop/RigLHandle
  - curve:
      serializedVersion: 2
      m_Curve:
      - serializedVersion: 3
        time: 0
        value: {x: 1, y: 1, z: 1}
        inSlope: {x: 0, y: 0, z: 0}
        outSlope: {x: 0, y: 0, z: 0}
        tangentMode: 0
        weightedMode: 0
        inWeight: {x: 0.3333333, y: 0.3333333, z: 0.3333333}
        outWeight: {x: 0.3333333, y: 0.3333333, z: 0.3333333}
      - serializedVersion: 3
        time: 1.333333
        value: {x: 1, y: 1, z: 1}
        inSlope: {x: 0, y: 0, z: 0}
        outSlope: {x: 0, y: 0, z: 0}
        tangentMode: 0
        weightedMode: 0
        inWeight: {x: 0.3333333, y: 0.3333333, z: 0.3333333}
        outWeight: {x: 0.3333333, y: 0.3333333, z: 0.3333333}
      m_PreInfinity: 2
      m_PostInfinity: 2
      m_RotationOrder: 4
    path: RigBottom/RigSpine/RigTop/RigRHandle
  - curve:
      serializedVersion: 2
      m_Curve:
      - serializedVersion: 3
        time: 0
        value: {x: 1, y: 1, z: 1}
        inSlope: {x: 0, y: 0, z: 0}
        outSlope: {x: 0, y: 0, z: 0}
        tangentMode: 0
        weightedMode: 0
        inWeight: {x: 0.3333333, y: 0.3333333, z: 0.3333333}
        outWeight: {x: 0.3333333, y: 0.3333333, z: 0.3333333}
      - serializedVersion: 3
        time: 1.333333
        value: {x: 1, y: 1, z: 1}
        inSlope: {x: 0, y: 0, z: 0}
        outSlope: {x: 0, y: 0, z: 0}
        tangentMode: 0
        weightedMode: 0
        inWeight: {x: 0.3333333, y: 0.3333333, z: 0.3333333}
        outWeight: {x: 0.3333333, y: 0.3333333, z: 0.3333333}
      m_PreInfinity: 2
      m_PostInfinity: 2
      m_RotationOrder: 4
    path: RigBottom/RigSpine/RigTop/RigTongue1
  - curve:
      serializedVersion: 2
      m_Curve:
      - serializedVersion: 3
        time: 0
        value: {x: 1, y: 1, z: 1}
        inSlope: {x: 0, y: 0, z: 0}
        outSlope: {x: 0, y: 0, z: 0}
        tangentMode: 0
        weightedMode: 0
        inWeight: {x: 0.3333333, y: 0.3333333, z: 0.3333333}
        outWeight: {x: 0.3333333, y: 0.3333333, z: 0.3333333}
      - serializedVersion: 3
        time: 1.333333
        value: {x: 1, y: 1, z: 1}
        inSlope: {x: 0, y: 0, z: 0}
        outSlope: {x: 0, y: 0, z: 0}
        tangentMode: 0
        weightedMode: 0
        inWeight: {x: 0.3333333, y: 0.3333333, z: 0.3333333}
        outWeight: {x: 0.3333333, y: 0.3333333, z: 0.3333333}
      m_PreInfinity: 2
      m_PostInfinity: 2
      m_RotationOrder: 4
    path: RigBottom/RigSpine/RigTop/RigTongue1/RigTongue2
  - curve:
      serializedVersion: 2
      m_Curve:
      - serializedVersion: 3
        time: 0
        value: {x: 0.9999999, y: 0.9999997, z: 0.9999999}
        inSlope: {x: 0, y: 0, z: 0}
        outSlope: {x: 0, y: 0, z: 0}
        tangentMode: 0
        weightedMode: 0
        inWeight: {x: 0.3333333, y: 0.3333333, z: 0.3333333}
        outWeight: {x: 0.3333333, y: 0.3333333, z: 0.3333333}
      - serializedVersion: 3
        time: 1.333333
        value: {x: 0.9999999, y: 0.9999997, z: 0.9999999}
        inSlope: {x: 0, y: 0, z: 0}
        outSlope: {x: 0, y: 0, z: 0}
        tangentMode: 0
        weightedMode: 0
        inWeight: {x: 0.3333333, y: 0.3333333, z: 0.3333333}
        outWeight: {x: 0.3333333, y: 0.3333333, z: 0.3333333}
      m_PreInfinity: 2
      m_PostInfinity: 2
      m_RotationOrder: 4
    path: RigBottom/RigSpine/RigTop/RigTongue1/RigTongue2/RigTongue3
  - curve:
      serializedVersion: 2
      m_Curve:
      - serializedVersion: 3
        time: 0
        value: {x: 1, y: 0.9999999, z: 1}
        inSlope: {x: 0, y: 0, z: 0}
        outSlope: {x: 0, y: 0, z: 0}
        tangentMode: 0
        weightedMode: 0
        inWeight: {x: 0.3333333, y: 0.3333333, z: 0.3333333}
        outWeight: {x: 0.3333333, y: 0.3333333, z: 0.3333333}
      - serializedVersion: 3
        time: 1.333333
        value: {x: 1, y: 0.9999999, z: 1}
        inSlope: {x: 0, y: 0, z: 0}
        outSlope: {x: 0, y: 0, z: 0}
        tangentMode: 0
        weightedMode: 0
        inWeight: {x: 0.3333333, y: 0.3333333, z: 0.3333333}
        outWeight: {x: 0.3333333, y: 0.3333333, z: 0.3333333}
      m_PreInfinity: 2
      m_PostInfinity: 2
      m_RotationOrder: 4
    path: RigBottom/RigSpine/RigTop/RigTongue1/RigTongue2/RigTongue3/RigTongue4
  - curve:
      serializedVersion: 2
      m_Curve:
      - serializedVersion: 3
        time: 0
        value: {x: 1, y: 0.9999998, z: 1}
        inSlope: {x: 0, y: 0, z: 0}
        outSlope: {x: 0, y: 0, z: 0}
        tangentMode: 0
        weightedMode: 0
        inWeight: {x: 0.3333333, y: 0.3333333, z: 0.3333333}
        outWeight: {x: 0.3333333, y: 0.3333333, z: 0.3333333}
      - serializedVersion: 3
        time: 1.333333
        value: {x: 1, y: 0.9999998, z: 1}
        inSlope: {x: 0, y: 0, z: 0}
        outSlope: {x: 0, y: 0, z: 0}
        tangentMode: 0
        weightedMode: 0
        inWeight: {x: 0.3333333, y: 0.3333333, z: 0.3333333}
        outWeight: {x: 0.3333333, y: 0.3333333, z: 0.3333333}
      m_PreInfinity: 2
      m_PostInfinity: 2
      m_RotationOrder: 4
    path: RigBottom/RigSpine/RigTop/RigTongue1/RigTongue2/RigTongue3/RigTongue4/RigTongue5
  - curve:
      serializedVersion: 2
      m_Curve:
      - serializedVersion: 3
        time: 0
        value: {x: 1, y: 1, z: 1}
        inSlope: {x: 0, y: 0, z: 0}
        outSlope: {x: 0, y: 0, z: 0}
        tangentMode: 0
        weightedMode: 0
        inWeight: {x: 0.3333333, y: 0.3333333, z: 0.3333333}
        outWeight: {x: 0.3333333, y: 0.3333333, z: 0.3333333}
      - serializedVersion: 3
        time: 1.333333
        value: {x: 1, y: 1, z: 1}
        inSlope: {x: 0, y: 0, z: 0}
        outSlope: {x: 0, y: 0, z: 0}
        tangentMode: 0
        weightedMode: 0
        inWeight: {x: 0.3333333, y: 0.3333333, z: 0.3333333}
        outWeight: {x: 0.3333333, y: 0.3333333, z: 0.3333333}
      m_PreInfinity: 2
      m_PostInfinity: 2
      m_RotationOrder: 4
    path: RigBottomGizmo
  - curve:
      serializedVersion: 2
      m_Curve:
      - serializedVersion: 3
        time: 0
        value: {x: 1, y: 1, z: 1}
        inSlope: {x: 0, y: 0, z: 0}
        outSlope: {x: 0, y: 0, z: 0}
        tangentMode: 0
        weightedMode: 0
        inWeight: {x: 0.3333333, y: 0.3333333, z: 0.3333333}
        outWeight: {x: 0.3333333, y: 0.3333333, z: 0.3333333}
      - serializedVersion: 3
        time: 1.333333
        value: {x: 1, y: 1, z: 1}
        inSlope: {x: 0, y: 0, z: 0}
        outSlope: {x: 0, y: 0, z: 0}
        tangentMode: 0
        weightedMode: 0
        inWeight: {x: 0.3333333, y: 0.3333333, z: 0.3333333}
        outWeight: {x: 0.3333333, y: 0.3333333, z: 0.3333333}
      m_PreInfinity: 2
      m_PostInfinity: 2
      m_RotationOrder: 4
    path: RigRHandleGizmo
  - curve:
      serializedVersion: 2
      m_Curve:
      - serializedVersion: 3
        time: 0
        value: {x: 1, y: 1, z: 1}
        inSlope: {x: 0, y: 0, z: 0}
        outSlope: {x: 0, y: 0, z: 0}
        tangentMode: 0
        weightedMode: 0
        inWeight: {x: 0.3333333, y: 0.3333333, z: 0.3333333}
        outWeight: {x: 0.3333333, y: 0.3333333, z: 0.3333333}
      - serializedVersion: 3
        time: 1.333333
        value: {x: 1, y: 1, z: 1}
        inSlope: {x: 0, y: 0, z: 0}
        outSlope: {x: 0, y: 0, z: 0}
        tangentMode: 0
        weightedMode: 0
        inWeight: {x: 0.3333333, y: 0.3333333, z: 0.3333333}
        outWeight: {x: 0.3333333, y: 0.3333333, z: 0.3333333}
      m_PreInfinity: 2
      m_PostInfinity: 2
      m_RotationOrder: 4
    path: RigLHandleGizmo
  - curve:
      serializedVersion: 2
      m_Curve:
      - serializedVersion: 3
        time: 0
        value: {x: 1, y: 1, z: 1}
        inSlope: {x: 0, y: 0, z: 0}
        outSlope: {x: 0, y: 0, z: 0}
        tangentMode: 0
        weightedMode: 0
        inWeight: {x: 0.3333333, y: 0.3333333, z: 0.3333333}
        outWeight: {x: 0.3333333, y: 0.3333333, z: 0.3333333}
      - serializedVersion: 3
        time: 1.333333
        value: {x: 1, y: 1, z: 1}
        inSlope: {x: 0, y: 0, z: 0}
        outSlope: {x: 0, y: 0, z: 0}
        tangentMode: 0
        weightedMode: 0
        inWeight: {x: 0.3333333, y: 0.3333333, z: 0.3333333}
        outWeight: {x: 0.3333333, y: 0.3333333, z: 0.3333333}
      m_PreInfinity: 2
      m_PostInfinity: 2
      m_RotationOrder: 4
    path: RigTopGizmo
  - curve:
      serializedVersion: 2
      m_Curve:
      - serializedVersion: 3
        time: 0
        value: {x: 1, y: 1, z: 1}
        inSlope: {x: 0, y: 0, z: 0}
        outSlope: {x: 0, y: 0, z: 0}
        tangentMode: 0
        weightedMode: 0
        inWeight: {x: 0.3333333, y: 0.3333333, z: 0.3333333}
        outWeight: {x: 0.3333333, y: 0.3333333, z: 0.3333333}
      - serializedVersion: 3
        time: 1.333333
        value: {x: 1, y: 1, z: 1}
        inSlope: {x: 0, y: 0, z: 0}
        outSlope: {x: 0, y: 0, z: 0}
        tangentMode: 0
        weightedMode: 0
        inWeight: {x: 0.3333333, y: 0.3333333, z: 0.3333333}
        outWeight: {x: 0.3333333, y: 0.3333333, z: 0.3333333}
      m_PreInfinity: 2
      m_PostInfinity: 2
      m_RotationOrder: 4
    path: RigCoverGizmo
  - curve:
      serializedVersion: 2
      m_Curve:
      - serializedVersion: 3
        time: 0
        value: {x: 1, y: 1, z: 1}
        inSlope: {x: 0, y: 0, z: 0}
        outSlope: {x: 0, y: 0, z: 0}
        tangentMode: 0
        weightedMode: 0
        inWeight: {x: 0.3333333, y: 0.3333333, z: 0.3333333}
        outWeight: {x: 0.3333333, y: 0.3333333, z: 0.3333333}
      - serializedVersion: 3
        time: 1.333333
        value: {x: 1, y: 1, z: 1}
        inSlope: {x: 0, y: 0, z: 0}
        outSlope: {x: 0, y: 0, z: 0}
        tangentMode: 0
        weightedMode: 0
        inWeight: {x: 0.3333333, y: 0.3333333, z: 0.3333333}
        outWeight: {x: 0.3333333, y: 0.3333333, z: 0.3333333}
      m_PreInfinity: 2
      m_PostInfinity: 2
      m_RotationOrder: 4
    path: RigTongue1Gizmo
  - curve:
      serializedVersion: 2
      m_Curve:
      - serializedVersion: 3
        time: 0
        value: {x: 1, y: 1, z: 1}
        inSlope: {x: 0, y: 0, z: 0}
        outSlope: {x: 0, y: 0, z: 0}
        tangentMode: 0
        weightedMode: 0
        inWeight: {x: 0.3333333, y: 0.3333333, z: 0.3333333}
        outWeight: {x: 0.3333333, y: 0.3333333, z: 0.3333333}
      - serializedVersion: 3
        time: 1.333333
        value: {x: 1, y: 1, z: 1}
        inSlope: {x: 0, y: 0, z: 0}
        outSlope: {x: 0, y: 0, z: 0}
        tangentMode: 0
        weightedMode: 0
        inWeight: {x: 0.3333333, y: 0.3333333, z: 0.3333333}
        outWeight: {x: 0.3333333, y: 0.3333333, z: 0.3333333}
      m_PreInfinity: 2
      m_PostInfinity: 2
      m_RotationOrder: 4
    path: RigTongue2Gizmo
  - curve:
      serializedVersion: 2
      m_Curve:
      - serializedVersion: 3
        time: 0
        value: {x: 1, y: 0.9999998, z: 0.9999999}
        inSlope: {x: 0, y: 0, z: 0}
        outSlope: {x: 0, y: 0, z: 0}
        tangentMode: 0
        weightedMode: 0
        inWeight: {x: 0.3333333, y: 0.3333333, z: 0.3333333}
        outWeight: {x: 0.3333333, y: 0.3333333, z: 0.3333333}
      - serializedVersion: 3
        time: 1.333333
        value: {x: 1, y: 0.9999998, z: 0.9999999}
        inSlope: {x: 0, y: 0, z: 0}
        outSlope: {x: 0, y: 0, z: 0}
        tangentMode: 0
        weightedMode: 0
        inWeight: {x: 0.3333333, y: 0.3333333, z: 0.3333333}
        outWeight: {x: 0.3333333, y: 0.3333333, z: 0.3333333}
      m_PreInfinity: 2
      m_PostInfinity: 2
      m_RotationOrder: 4
    path: RigTongue3Gizmo
  - curve:
      serializedVersion: 2
      m_Curve:
      - serializedVersion: 3
        time: 0
        value: {x: 1, y: 0.9999998, z: 1}
        inSlope: {x: 0, y: 0, z: 0}
        outSlope: {x: 0, y: 0, z: 0}
        tangentMode: 0
        weightedMode: 0
        inWeight: {x: 0.3333333, y: 0.3333333, z: 0.3333333}
        outWeight: {x: 0.3333333, y: 0.3333333, z: 0.3333333}
      - serializedVersion: 3
        time: 1.333333
        value: {x: 1, y: 0.9999998, z: 1}
        inSlope: {x: 0, y: 0, z: 0}
        outSlope: {x: 0, y: 0, z: 0}
        tangentMode: 0
        weightedMode: 0
        inWeight: {x: 0.3333333, y: 0.3333333, z: 0.3333333}
        outWeight: {x: 0.3333333, y: 0.3333333, z: 0.3333333}
      m_PreInfinity: 2
      m_PostInfinity: 2
      m_RotationOrder: 4
    path: RigTongue4Gizmo
  - curve:
      serializedVersion: 2
      m_Curve:
      - serializedVersion: 3
        time: 0
        value: {x: 1, y: 0.9999996, z: 1}
        inSlope: {x: 0, y: 0, z: 0}
        outSlope: {x: 0, y: 0, z: 0}
        tangentMode: 0
        weightedMode: 0
        inWeight: {x: 0.3333333, y: 0.3333333, z: 0.3333333}
        outWeight: {x: 0.3333333, y: 0.3333333, z: 0.3333333}
      - serializedVersion: 3
        time: 1.333333
        value: {x: 1, y: 0.9999996, z: 1}
        inSlope: {x: 0, y: 0, z: 0}
        outSlope: {x: 0, y: 0, z: 0}
        tangentMode: 0
        weightedMode: 0
        inWeight: {x: 0.3333333, y: 0.3333333, z: 0.3333333}
        outWeight: {x: 0.3333333, y: 0.3333333, z: 0.3333333}
      m_PreInfinity: 2
      m_PostInfinity: 2
      m_RotationOrder: 4
    path: RigTongue5Gizmo
  m_FloatCurves: []
  m_PPtrCurves: []
  m_SampleRate: 30
  m_WrapMode: 2
  m_Bounds:
    m_Center: {x: 0.002410412, y: 0.3199444, z: 0.03270584}
    m_Extent: {x: 0.389618, y: 0.3200564, z: 0.3286247}
  m_ClipBindingConstant:
    genericBindings: []
    pptrCurveMapping: []
  m_AnimationClipSettings:
    serializedVersion: 2
    m_AdditiveReferencePoseClip: {fileID: 0}
    m_AdditiveReferencePoseTime: 0
    m_StartTime: 0
    m_StopTime: 1
    m_OrientationOffsetY: 0
    m_Level: 0
    m_CycleOffset: 0
    m_HasAdditiveReferencePose: 0
    m_LoopTime: 0
    m_LoopBlend: 0
    m_LoopBlendOrientation: 0
    m_LoopBlendPositionY: 0
    m_LoopBlendPositionXZ: 0
    m_KeepOriginalOrientation: 0
    m_KeepOriginalPositionY: 1
    m_KeepOriginalPositionXZ: 0
    m_HeightFromFeet: 0
    m_Mirror: 0
  m_EditorCurves: []
  m_EulerEditorCurves: []
  m_HasGenericRootTransform: 0
  m_HasMotionFloatCurves: 0
  m_Events: []
