%YAML 1.1
%TAG !u! tag:unity3d.com,2011:
--- !u!74 &7400000
AnimationClip:
  m_ObjectHideFlags: 0
  m_CorrespondingSourceObject: {fileID: 0}
  m_PrefabInstance: {fileID: 0}
  m_PrefabAsset: {fileID: 0}
  m_Name: Idle_10
  serializedVersion: 6
  m_Legacy: 1
  m_Compressed: 0
  m_UseHighQualityCurve: 1
  m_RotationCurves:
  - curve:
      serializedVersion: 2
      m_Curve:
      - serializedVersion: 3
        time: 0
        value: {x: 0, y: -0.01110356, z: 0, w: -0.9999384}
        inSlope: {x: 0, y: -1.563635, z: 0, w: 0.03775119}
        outSlope: {x: 0, y: -1.563635, z: 0, w: 0.03775119}
        tangentMode: 0
        weightedMode: 0
        inWeight: {x: 0.3333333, y: 0.3333333, z: 0.3333333, w: 0.3333333}
        outWeight: {x: 0.3333333, y: 0.3333333, z: 0.3333333, w: 0.3333333}
      - serializedVersion: 3
        time: 0.01666667
        value: {x: 0, y: -0.03716414, z: 0, w: -0.9993092}
        inSlope: {x: 0, y: -1.562966, z: 0, w: 0.05812883}
        outSlope: {x: 0, y: -1.562966, z: 0, w: 0.05812883}
        tangentMode: 0
        weightedMode: 0
        inWeight: {x: 0.3333333, y: 0.3333333, z: 0.3333333, w: 0.3333333}
        outWeight: {x: 0.3333333, y: 0.3333333, z: 0.3333333, w: 0.3333333}
      - serializedVersion: 3
        time: 0.03333334
        value: {x: 0, y: -0.06320242, z: 0, w: -0.9980007}
        inSlope: {x: 0, y: -1.561093, z: 0, w: 0.09886442}
        outSlope: {x: 0, y: -1.561093, z: 0, w: 0.09886442}
        tangentMode: 0
        weightedMode: 0
        inWeight: {x: 0.3333333, y: 0.3333333, z: 0.3333333, w: 0.3333333}
        outWeight: {x: 0.3333333, y: 0.3333333, z: 0.3333333, w: 0.3333333}
      - serializedVersion: 3
        time: 0.05
        value: {x: 0, y: -0.08920059, z: 0, w: -0.9960137}
        inSlope: {x: 0, y: -1.558155, z: 0, w: 0.1395464}
        outSlope: {x: 0, y: -1.558155, z: 0, w: 0.1395464}
        tangentMode: 0
        weightedMode: 0
        inWeight: {x: 0.3333333, y: 0.3333333, z: 0.3333333, w: 0.3333333}
        outWeight: {x: 0.3333333, y: 0.3333333, z: 0.3333333, w: 0.3333333}
      - serializedVersion: 3
        time: 0.06666667
        value: {x: 0, y: -0.1151409, z: 0, w: -0.9933492}
        inSlope: {x: 0, y: -1.554154, z: 0, w: 0.1801479}
        outSlope: {x: 0, y: -1.554154, z: 0, w: 0.1801479}
        tangentMode: 0
        weightedMode: 0
        inWeight: {x: 0.3333333, y: 0.3333333, z: 0.3333333, w: 0.3333333}
        outWeight: {x: 0.3333333, y: 0.3333333, z: 0.3333333, w: 0.3333333}
      - serializedVersion: 3
        time: 0.08333334
        value: {x: 0, y: -0.1410057, z: 0, w: -0.9900088}
        inSlope: {x: 0, y: -1.54909, z: 0, w: 0.2206385}
        outSlope: {x: 0, y: -1.54909, z: 0, w: 0.2206385}
        tangentMode: 0
        weightedMode: 0
        inWeight: {x: 0.3333333, y: 0.3333333, z: 0.3333333, w: 0.3333333}
        outWeight: {x: 0.3333333, y: 0.3333333, z: 0.3333333, w: 0.3333333}
      - serializedVersion: 3
        time: 0.1
        value: {x: 0, y: -0.1667773, z: 0, w: -0.9859946}
        inSlope: {x: 0, y: -1.542967, z: 0, w: 0.2609897}
        outSlope: {x: 0, y: -1.542967, z: 0, w: 0.2609897}
        tangentMode: 0
        weightedMode: 0
        inWeight: {x: 0.3333333, y: 0.3333333, z: 0.3333333, w: 0.3333333}
        outWeight: {x: 0.3333333, y: 0.3333333, z: 0.3333333, w: 0.3333333}
      - serializedVersion: 3
        time: 0.1166667
        value: {x: 0, y: -0.1924379, z: 0, w: -0.9813091}
        inSlope: {x: 0, y: -1.535789, z: 0, w: 0.3011745}
        outSlope: {x: 0, y: -1.535789, z: 0, w: 0.3011745}
        tangentMode: 0
        weightedMode: 0
        inWeight: {x: 0.3333333, y: 0.3333333, z: 0.3333333, w: 0.3333333}
        outWeight: {x: 0.3333333, y: 0.3333333, z: 0.3333333, w: 0.3333333}
      - serializedVersion: 3
        time: 0.1333333
        value: {x: 0, y: -0.2179702, z: 0, w: -0.9759554}
        inSlope: {x: 0, y: -1.527561, z: 0, w: 0.341168}
        outSlope: {x: 0, y: -1.527561, z: 0, w: 0.341168}
        tangentMode: 0
        weightedMode: 0
        inWeight: {x: 0.3333333, y: 0.3333333, z: 0.3333333, w: 0.3333333}
        outWeight: {x: 0.3333333, y: 0.3333333, z: 0.3333333, w: 0.3333333}
      - serializedVersion: 3
        time: 0.15
        value: {x: 0, y: -0.2433566, z: 0, w: -0.9699368}
        inSlope: {x: 0, y: -1.518286, z: 0, w: 0.3809399}
        outSlope: {x: 0, y: -1.518286, z: 0, w: 0.3809399}
        tangentMode: 0
        weightedMode: 0
        inWeight: {x: 0.3333333, y: 0.3333333, z: 0.3333333, w: 0.3333333}
        outWeight: {x: 0.3333333, y: 0.3333333, z: 0.3333333, w: 0.3333333}
      - serializedVersion: 3
        time: 0.1666667
        value: {x: 0, y: -0.2685798, z: 0, w: -0.9632574}
        inSlope: {x: 0, y: -1.507971, z: 0, w: 0.4204595}
        outSlope: {x: 0, y: -1.507971, z: 0, w: 0.4204595}
        tangentMode: 0
        weightedMode: 0
        inWeight: {x: 0.3333333, y: 0.3333333, z: 0.3333333, w: 0.3333333}
        outWeight: {x: 0.3333333, y: 0.3333333, z: 0.3333333, w: 0.3333333}
      - serializedVersion: 3
        time: 0.1833333
        value: {x: 0, y: -0.2936223, z: 0, w: -0.9559215}
        inSlope: {x: 0, y: -1.496624, z: 0, w: 0.4597074}
        outSlope: {x: 0, y: -1.496624, z: 0, w: 0.4597074}
        tangentMode: 0
        weightedMode: 0
        inWeight: {x: 0.3333333, y: 0.3333333, z: 0.3333333, w: 0.3333333}
        outWeight: {x: 0.3333333, y: 0.3333333, z: 0.3333333, w: 0.3333333}
      - serializedVersion: 3
        time: 0.2
        value: {x: 0, y: -0.3184672, z: 0, w: -0.9479339}
        inSlope: {x: 0, y: -1.48425, z: 0, w: 0.4986495}
        outSlope: {x: 0, y: -1.48425, z: 0, w: 0.4986495}
        tangentMode: 0
        weightedMode: 0
        inWeight: {x: 0.3333333, y: 0.3333333, z: 0.3333333, w: 0.3333333}
        outWeight: {x: 0.3333333, y: 0.3333333, z: 0.3333333, w: 0.3333333}
      - serializedVersion: 3
        time: 0.2166667
        value: {x: 0, y: -0.3430973, z: 0, w: -0.9392999}
        inSlope: {x: 0, y: -1.470858, z: 0, w: 0.5372608}
        outSlope: {x: 0, y: -1.470858, z: 0, w: 0.5372608}
        tangentMode: 0
        weightedMode: 0
        inWeight: {x: 0.3333333, y: 0.3333333, z: 0.3333333, w: 0.3333333}
        outWeight: {x: 0.3333333, y: 0.3333333, z: 0.3333333, w: 0.3333333}
      - serializedVersion: 3
        time: 0.2333333
        value: {x: 0, y: -0.3674958, z: 0, w: -0.9300252}
        inSlope: {x: 0, y: -1.456458, z: 0, w: 0.5755163}
        outSlope: {x: 0, y: -1.456458, z: 0, w: 0.5755163}
        tangentMode: 0
        weightedMode: 0
        inWeight: {x: 0.3333333, y: 0.3333333, z: 0.3333333, w: 0.3333333}
        outWeight: {x: 0.3333333, y: 0.3333333, z: 0.3333333, w: 0.3333333}
      - serializedVersion: 3
        time: 0.25
        value: {x: 0, y: -0.3916459, z: 0, w: -0.920116}
        inSlope: {x: 0, y: -1.44106, z: 0, w: 0.6133852}
        outSlope: {x: 0, y: -1.44106, z: 0, w: 0.6133852}
        tangentMode: 0
        weightedMode: 0
        inWeight: {x: 0.3333333, y: 0.3333333, z: 0.3333333, w: 0.3333333}
        outWeight: {x: 0.3333333, y: 0.3333333, z: 0.3333333, w: 0.3333333}
      - serializedVersion: 3
        time: 0.2666667
        value: {x: 0, y: -0.4155312, z: 0, w: -0.909579}
        inSlope: {x: 0, y: -1.424671, z: 0, w: 0.6508464}
        outSlope: {x: 0, y: -1.424671, z: 0, w: 0.6508464}
        tangentMode: 0
        weightedMode: 0
        inWeight: {x: 0.3333333, y: 0.3333333, z: 0.3333333, w: 0.3333333}
        outWeight: {x: 0.3333333, y: 0.3333333, z: 0.3333333, w: 0.3333333}
      - serializedVersion: 3
        time: 0.2833334
        value: {x: 0, y: -0.439135, z: 0, w: -0.8984211}
        inSlope: {x: 0, y: -1.407304, z: 0, w: 0.6878716}
        outSlope: {x: 0, y: -1.407304, z: 0, w: 0.6878716}
        tangentMode: 0
        weightedMode: 0
        inWeight: {x: 0.3333333, y: 0.3333333, z: 0.3333333, w: 0.3333333}
        outWeight: {x: 0.3333333, y: 0.3333333, z: 0.3333333, w: 0.3333333}
      - serializedVersion: 3
        time: 0.3
        value: {x: 0, y: -0.4624413, z: 0, w: -0.8866499}
        inSlope: {x: 0, y: -1.388971, z: 0, w: 0.7244337}
        outSlope: {x: 0, y: -1.388971, z: 0, w: 0.7244337}
        tangentMode: 0
        weightedMode: 0
        inWeight: {x: 0.3333333, y: 0.3333333, z: 0.3333333, w: 0.3333333}
        outWeight: {x: 0.3333333, y: 0.3333333, z: 0.3333333, w: 0.3333333}
      - serializedVersion: 3
        time: 0.3166667
        value: {x: 0, y: -0.4854341, z: 0, w: -0.8742733}
        inSlope: {x: 0, y: -1.369683, z: 0, w: 0.7605094}
        outSlope: {x: 0, y: -1.369683, z: 0, w: 0.7605094}
        tangentMode: 0
        weightedMode: 0
        inWeight: {x: 0.3333333, y: 0.3333333, z: 0.3333333, w: 0.3333333}
        outWeight: {x: 0.3333333, y: 0.3333333, z: 0.3333333, w: 0.3333333}
      - serializedVersion: 3
        time: 0.3333334
        value: {x: 0, y: -0.5080975, z: 0, w: -0.8612996}
        inSlope: {x: 0, y: -1.349453, z: 0, w: 0.7960718}
        outSlope: {x: 0, y: -1.349453, z: 0, w: 0.7960718}
        tangentMode: 0
        weightedMode: 0
        inWeight: {x: 0.3333333, y: 0.3333333, z: 0.3333333, w: 0.3333333}
        outWeight: {x: 0.3333333, y: 0.3333333, z: 0.3333333, w: 0.3333333}
      - serializedVersion: 3
        time: 0.3500001
        value: {x: 0, y: -0.5304159, z: 0, w: -0.8477376}
        inSlope: {x: 0, y: -1.328295, z: 0, w: 0.8310943}
        outSlope: {x: 0, y: -1.328295, z: 0, w: 0.8310943}
        tangentMode: 0
        weightedMode: 0
        inWeight: {x: 0.3333333, y: 0.3333333, z: 0.3333333, w: 0.3333333}
        outWeight: {x: 0.3333333, y: 0.3333333, z: 0.3333333, w: 0.3333333}
      - serializedVersion: 3
        time: 0.3666668
        value: {x: 0, y: -0.552374, z: 0, w: -0.8335964}
        inSlope: {x: 0, y: -1.306226, z: 0, w: 0.8655571}
        outSlope: {x: 0, y: -1.306226, z: 0, w: 0.8655571}
        tangentMode: 0
        weightedMode: 0
        inWeight: {x: 0.3333333, y: 0.3333333, z: 0.3333333, w: 0.3333333}
        outWeight: {x: 0.3333333, y: 0.3333333, z: 0.3333333, w: 0.3333333}
      - serializedVersion: 3
        time: 0.3833334
        value: {x: 0, y: -0.5739568, z: 0, w: -0.8188856}
        inSlope: {x: 0, y: -1.283255, z: 0, w: 0.8994352}
        outSlope: {x: 0, y: -1.283255, z: 0, w: 0.8994352}
        tangentMode: 0
        weightedMode: 0
        inWeight: {x: 0.3333333, y: 0.3333333, z: 0.3333333, w: 0.3333333}
        outWeight: {x: 0.3333333, y: 0.3333333, z: 0.3333333, w: 0.3333333}
      - serializedVersion: 3
        time: 0.4000001
        value: {x: 0, y: -0.5951492, z: 0, w: -0.8036152}
        inSlope: {x: 0, y: -1.259403, z: 0, w: 0.9327052}
        outSlope: {x: 0, y: -1.259403, z: 0, w: 0.9327052}
        tangentMode: 0
        weightedMode: 0
        inWeight: {x: 0.3333333, y: 0.3333333, z: 0.3333333, w: 0.3333333}
        outWeight: {x: 0.3333333, y: 0.3333333, z: 0.3333333, w: 0.3333333}
      - serializedVersion: 3
        time: 0.4166668
        value: {x: 0, y: -0.6159369, z: 0, w: -0.7877954}
        inSlope: {x: 0, y: -1.234689, z: 0, w: 0.9653423}
        outSlope: {x: 0, y: -1.234689, z: 0, w: 0.9653423}
        tangentMode: 0
        weightedMode: 0
        inWeight: {x: 0.3333333, y: 0.3333333, z: 0.3333333, w: 0.3333333}
        outWeight: {x: 0.3333333, y: 0.3333333, z: 0.3333333, w: 0.3333333}
      - serializedVersion: 3
        time: 0.4333335
        value: {x: 0, y: -0.6363056, z: 0, w: -0.7714371}
        inSlope: {x: 0, y: -1.209121, z: 0, w: 0.9973214}
        outSlope: {x: 0, y: -1.209121, z: 0, w: 0.9973214}
        tangentMode: 0
        weightedMode: 0
        inWeight: {x: 0.3333333, y: 0.3333333, z: 0.3333333, w: 0.3333333}
        outWeight: {x: 0.3333333, y: 0.3333333, z: 0.3333333, w: 0.3333333}
      - serializedVersion: 3
        time: 0.4500002
        value: {x: 0, y: -0.656241, z: 0, w: -0.7545514}
        inSlope: {x: 0, y: -1.182721, z: 0, w: 1.028625}
        outSlope: {x: 0, y: -1.182721, z: 0, w: 1.028625}
        tangentMode: 0
        weightedMode: 0
        inWeight: {x: 0.3333333, y: 0.3333333, z: 0.3333333, w: 0.3333333}
        outWeight: {x: 0.3333333, y: 0.3333333, z: 0.3333333, w: 0.3333333}
      - serializedVersion: 3
        time: 0.4666668
        value: {x: 0, y: -0.6757296, z: 0, w: -0.7371496}
        inSlope: {x: 0, y: -1.155504, z: 0, w: 1.059228}
        outSlope: {x: 0, y: -1.155504, z: 0, w: 1.059228}
        tangentMode: 0
        weightedMode: 0
        inWeight: {x: 0.3333333, y: 0.3333333, z: 0.3333333, w: 0.3333333}
        outWeight: {x: 0.3333333, y: 0.3333333, z: 0.3333333, w: 0.3333333}
      - serializedVersion: 3
        time: 0.4833335
        value: {x: 0, y: -0.6947578, z: 0, w: -0.7192437}
        inSlope: {x: 0, y: -1.127492, z: 0, w: 1.089109}
        outSlope: {x: 0, y: -1.127492, z: 0, w: 1.089109}
        tangentMode: 0
        weightedMode: 0
        inWeight: {x: 0.3333333, y: 0.3333333, z: 0.3333333, w: 0.3333333}
        outWeight: {x: 0.3333333, y: 0.3333333, z: 0.3333333, w: 0.3333333}
      - serializedVersion: 3
        time: 0.5000002
        value: {x: 0, y: -0.7133127, z: 0, w: -0.700846}
        inSlope: {x: 0, y: -1.098707, z: 0, w: 1.118252}
        outSlope: {x: 0, y: -1.098707, z: 0, w: 1.118252}
        tangentMode: 0
        weightedMode: 0
        inWeight: {x: 0.3333333, y: 0.3333333, z: 0.3333333, w: 0.3333333}
        outWeight: {x: 0.3333333, y: 0.3333333, z: 0.3333333, w: 0.3333333}
      - serializedVersion: 3
        time: 0.5166668
        value: {x: 0, y: -0.7313814, z: 0, w: -0.6819687}
        inSlope: {x: 0, y: -1.069165, z: 0, w: 1.146635}
        outSlope: {x: 0, y: -1.069165, z: 0, w: 1.146635}
        tangentMode: 0
        weightedMode: 0
        inWeight: {x: 0.3333333, y: 0.3333333, z: 0.3333333, w: 0.3333333}
        outWeight: {x: 0.3333333, y: 0.3333333, z: 0.3333333, w: 0.3333333}
      - serializedVersion: 3
        time: 0.5333335
        value: {x: 0, y: -0.7489515, z: 0, w: -0.6626248}
        inSlope: {x: 0, y: -1.038883, z: 0, w: 1.174229}
        outSlope: {x: 0, y: -1.038883, z: 0, w: 1.174229}
        tangentMode: 0
        weightedMode: 0
        inWeight: {x: 0.3333333, y: 0.3333333, z: 0.3333333, w: 0.3333333}
        outWeight: {x: 0.3333333, y: 0.3333333, z: 0.3333333, w: 0.3333333}
      - serializedVersion: 3
        time: 0.5500001
        value: {x: 0, y: -0.7660108, z: 0, w: -0.6428277}
        inSlope: {x: 0, y: -1.007884, z: 0, w: 1.201025}
        outSlope: {x: 0, y: -1.007884, z: 0, w: 1.201025}
        tangentMode: 0
        weightedMode: 0
        inWeight: {x: 0.3333333, y: 0.3333333, z: 0.3333333, w: 0.3333333}
        outWeight: {x: 0.3333333, y: 0.3333333, z: 0.3333333, w: 0.3333333}
      - serializedVersion: 3
        time: 0.5666668
        value: {x: 0, y: -0.7825476, z: 0, w: -0.6225907}
        inSlope: {x: 0, y: -0.9761963, z: 0, w: 1.227005}
        outSlope: {x: 0, y: -0.9761963, z: 0, w: 1.227005}
        tangentMode: 0
        weightedMode: 0
        inWeight: {x: 0.3333333, y: 0.3333333, z: 0.3333333, w: 0.3333333}
        outWeight: {x: 0.3333333, y: 0.3333333, z: 0.3333333, w: 0.3333333}
      - serializedVersion: 3
        time: 0.5833334
        value: {x: 0, y: -0.7985506, z: 0, w: -0.6019276}
        inSlope: {x: 0, y: -0.9438345, z: 0, w: 1.252142}
        outSlope: {x: 0, y: -0.9438345, z: 0, w: 1.252142}
        tangentMode: 0
        weightedMode: 0
        inWeight: {x: 0.3333333, y: 0.3333333, z: 0.3333333, w: 0.3333333}
        outWeight: {x: 0.3333333, y: 0.3333333, z: 0.3333333, w: 0.3333333}
      - serializedVersion: 3
        time: 0.6000001
        value: {x: 0, y: -0.8140087, z: 0, w: -0.5808527}
        inSlope: {x: 0, y: -0.91082, z: 0, w: 1.276427}
        outSlope: {x: 0, y: -0.91082, z: 0, w: 1.276427}
        tangentMode: 0
        weightedMode: 0
        inWeight: {x: 0.3333333, y: 0.3333333, z: 0.3333333, w: 0.3333333}
        outWeight: {x: 0.3333333, y: 0.3333333, z: 0.3333333, w: 0.3333333}
      - serializedVersion: 3
        time: 0.6166667
        value: {x: 0, y: -0.8289112, z: 0, w: -0.5593801}
        inSlope: {x: 0, y: -0.877178, z: 0, w: 1.299839}
        outSlope: {x: 0, y: -0.877178, z: 0, w: 1.299839}
        tangentMode: 0
        weightedMode: 0
        inWeight: {x: 0.3333333, y: 0.3333333, z: 0.3333333, w: 0.3333333}
        outWeight: {x: 0.3333333, y: 0.3333333, z: 0.3333333, w: 0.3333333}
      - serializedVersion: 3
        time: 0.6333334
        value: {x: 0, y: -0.843248, z: 0, w: -0.5375248}
        inSlope: {x: 0, y: -0.8429315, z: 0, w: 1.322357}
        outSlope: {x: 0, y: -0.8429315, z: 0, w: 1.322357}
        tangentMode: 0
        weightedMode: 0
        inWeight: {x: 0.3333333, y: 0.3333333, z: 0.3333333, w: 0.3333333}
        outWeight: {x: 0.3333333, y: 0.3333333, z: 0.3333333, w: 0.3333333}
      - serializedVersion: 3
        time: 0.65
        value: {x: 0, y: -0.8570089, z: 0, w: -0.5153016}
        inSlope: {x: 0, y: -0.8081056, z: 0, w: 1.343977}
        outSlope: {x: 0, y: -0.8081056, z: 0, w: 1.343977}
        tangentMode: 0
        weightedMode: 0
        inWeight: {x: 0.3333333, y: 0.3333333, z: 0.3333333, w: 0.3333333}
        outWeight: {x: 0.3333333, y: 0.3333333, z: 0.3333333, w: 0.3333333}
      - serializedVersion: 3
        time: 0.6666667
        value: {x: 0, y: -0.8701848, z: 0, w: -0.4927256}
        inSlope: {x: 0, y: -0.7727237, z: 0, w: 1.364681}
        outSlope: {x: 0, y: -0.7727237, z: 0, w: 1.364681}
        tangentMode: 0
        weightedMode: 0
        inWeight: {x: 0.3333333, y: 0.3333333, z: 0.3333333, w: 0.3333333}
        outWeight: {x: 0.3333333, y: 0.3333333, z: 0.3333333, w: 0.3333333}
      - serializedVersion: 3
        time: 0.6833333
        value: {x: 0, y: -0.8827664, z: 0, w: -0.4698123}
        inSlope: {x: 0, y: -0.7368053, z: 0, w: 1.384443}
        outSlope: {x: 0, y: -0.7368053, z: 0, w: 1.384443}
        tangentMode: 0
        weightedMode: 0
        inWeight: {x: 0.3333333, y: 0.3333333, z: 0.3333333, w: 0.3333333}
        outWeight: {x: 0.3333333, y: 0.3333333, z: 0.3333333, w: 0.3333333}
      - serializedVersion: 3
        time: 0.7
        value: {x: 0, y: -0.8947449, z: 0, w: -0.4465775}
        inSlope: {x: 0, y: -0.7003809, z: 0, w: 1.403257}
        outSlope: {x: 0, y: -0.7003809, z: 0, w: 1.403257}
        tangentMode: 0
        weightedMode: 0
        inWeight: {x: 0.3333333, y: 0.3333333, z: 0.3333333, w: 0.3333333}
        outWeight: {x: 0.3333333, y: 0.3333333, z: 0.3333333, w: 0.3333333}
      - serializedVersion: 3
        time: 0.7166666
        value: {x: 0, y: -0.9061124, z: 0, w: -0.4230371}
        inSlope: {x: 0, y: -0.6634754, z: 0, w: 1.421114}
        outSlope: {x: 0, y: -0.6634754, z: 0, w: 1.421114}
        tangentMode: 0
        weightedMode: 0
        inWeight: {x: 0.3333333, y: 0.3333333, z: 0.3333333, w: 0.3333333}
        outWeight: {x: 0.3333333, y: 0.3333333, z: 0.3333333, w: 0.3333333}
      - serializedVersion: 3
        time: 0.7333333
        value: {x: 0, y: -0.9168608, z: 0, w: -0.3992071}
        inSlope: {x: 0, y: -0.626114, z: 0, w: 1.437998}
        outSlope: {x: 0, y: -0.626114, z: 0, w: 1.437998}
        tangentMode: 0
        weightedMode: 0
        inWeight: {x: 0.3333333, y: 0.3333333, z: 0.3333333, w: 0.3333333}
        outWeight: {x: 0.3333333, y: 0.3333333, z: 0.3333333, w: 0.3333333}
      - serializedVersion: 3
        time: 0.7499999
        value: {x: 0, y: -0.9269828, z: 0, w: -0.3751039}
        inSlope: {x: 0, y: -0.5883199, z: 0, w: 1.453896}
        outSlope: {x: 0, y: -0.5883199, z: 0, w: 1.453896}
        tangentMode: 0
        weightedMode: 0
        inWeight: {x: 0.3333333, y: 0.3333333, z: 0.3333333, w: 0.3333333}
        outWeight: {x: 0.3333333, y: 0.3333333, z: 0.3333333, w: 0.3333333}
      - serializedVersion: 3
        time: 0.7666666
        value: {x: 0, y: -0.9364714, z: 0, w: -0.3507439}
        inSlope: {x: 0, y: -0.550118, z: 0, w: 1.468792}
        outSlope: {x: 0, y: -0.550118, z: 0, w: 1.468792}
        tangentMode: 0
        weightedMode: 0
        inWeight: {x: 0.3333333, y: 0.3333333, z: 0.3333333, w: 0.3333333}
        outWeight: {x: 0.3333333, y: 0.3333333, z: 0.3333333, w: 0.3333333}
      - serializedVersion: 3
        time: 0.7833332
        value: {x: 0, y: -0.9453201, z: 0, w: -0.3261442}
        inSlope: {x: 0, y: -0.5115407, z: 0, w: 1.482687}
        outSlope: {x: 0, y: -0.5115407, z: 0, w: 1.482687}
        tangentMode: 0
        weightedMode: 0
        inWeight: {x: 0.3333333, y: 0.3333333, z: 0.3333333, w: 0.3333333}
        outWeight: {x: 0.3333333, y: 0.3333333, z: 0.3333333, w: 0.3333333}
      - serializedVersion: 3
        time: 0.7999999
        value: {x: 0, y: -0.9535227, z: 0, w: -0.3013211}
        inSlope: {x: 0, y: -0.4726128, z: 0, w: 1.495574}
        outSlope: {x: 0, y: -0.4726128, z: 0, w: 1.495574}
        tangentMode: 0
        weightedMode: 0
        inWeight: {x: 0.3333333, y: 0.3333333, z: 0.3333333, w: 0.3333333}
        outWeight: {x: 0.3333333, y: 0.3333333, z: 0.3333333, w: 0.3333333}
      - serializedVersion: 3
        time: 0.8166665
        value: {x: 0, y: -0.9610738, z: 0, w: -0.2762918}
        inSlope: {x: 0, y: -0.4333578, z: 0, w: 1.507424}
        outSlope: {x: 0, y: -0.4333578, z: 0, w: 1.507424}
        tangentMode: 0
        weightedMode: 0
        inWeight: {x: 0.3333333, y: 0.3333333, z: 0.3333333, w: 0.3333333}
        outWeight: {x: 0.3333333, y: 0.3333333, z: 0.3333333, w: 0.3333333}
      - serializedVersion: 3
        time: 0.8333332
        value: {x: 0, y: -0.967968, z: 0, w: -0.2510736}
        inSlope: {x: 0, y: -0.3938041, z: 0, w: 1.51824}
        outSlope: {x: 0, y: -0.3938041, z: 0, w: 1.51824}
        tangentMode: 0
        weightedMode: 0
        inWeight: {x: 0.3333333, y: 0.3333333, z: 0.3333333, w: 0.3333333}
        outWeight: {x: 0.3333333, y: 0.3333333, z: 0.3333333, w: 0.3333333}
      - serializedVersion: 3
        time: 0.8499998
        value: {x: 0, y: -0.9742006, z: 0, w: -0.2256838}
        inSlope: {x: 0, y: -0.3539822, z: 0, w: 1.52802}
        outSlope: {x: 0, y: -0.3539822, z: 0, w: 1.52802}
        tangentMode: 0
        weightedMode: 0
        inWeight: {x: 0.3333333, y: 0.3333333, z: 0.3333333, w: 0.3333333}
        outWeight: {x: 0.3333333, y: 0.3333333, z: 0.3333333, w: 0.3333333}
      - serializedVersion: 3
        time: 0.8666665
        value: {x: 0, y: -0.9797674, z: 0, w: -0.2001397}
        inSlope: {x: 0, y: -0.3139171, z: 0, w: 1.536752}
        outSlope: {x: 0, y: -0.3139171, z: 0, w: 1.536752}
        tangentMode: 0
        weightedMode: 0
        inWeight: {x: 0.3333333, y: 0.3333333, z: 0.3333333, w: 0.3333333}
        outWeight: {x: 0.3333333, y: 0.3333333, z: 0.3333333, w: 0.3333333}
      - serializedVersion: 3
        time: 0.8833331
        value: {x: 0, y: -0.9846645, z: 0, w: -0.1744588}
        inSlope: {x: 0, y: -0.2736356, z: 0, w: 1.544429}
        outSlope: {x: 0, y: -0.2736356, z: 0, w: 1.544429}
        tangentMode: 0
        weightedMode: 0
        inWeight: {x: 0.3333333, y: 0.3333333, z: 0.3333333, w: 0.3333333}
        outWeight: {x: 0.3333333, y: 0.3333333, z: 0.3333333, w: 0.3333333}
      - serializedVersion: 3
        time: 0.8999998
        value: {x: 0, y: -0.9888886, z: 0, w: -0.1486588}
        inSlope: {x: 0, y: -0.2331664, z: 0, w: 1.551047}
        outSlope: {x: 0, y: -0.2331664, z: 0, w: 1.551047}
        tangentMode: 0
        weightedMode: 0
        inWeight: {x: 0.3333333, y: 0.3333333, z: 0.3333333, w: 0.3333333}
        outWeight: {x: 0.3333333, y: 0.3333333, z: 0.3333333, w: 0.3333333}
      - serializedVersion: 3
        time: 0.9166664
        value: {x: 0, y: -0.9924367, z: 0, w: -0.1227573}
        inSlope: {x: 0, y: -0.1925399, z: 0, w: 1.556598}
        outSlope: {x: 0, y: -0.1925399, z: 0, w: 1.556598}
        tangentMode: 0
        weightedMode: 0
        inWeight: {x: 0.3333333, y: 0.3333333, z: 0.3333333, w: 0.3333333}
        outWeight: {x: 0.3333333, y: 0.3333333, z: 0.3333333, w: 0.3333333}
      - serializedVersion: 3
        time: 0.9333331
        value: {x: 0, y: -0.9953066, z: 0, w: -0.09677222}
        inSlope: {x: 0, y: -0.1517828, z: 0, w: 1.561085}
        outSlope: {x: 0, y: -0.1517828, z: 0, w: 1.561085}
        tangentMode: 0
        weightedMode: 0
        inWeight: {x: 0.3333333, y: 0.3333333, z: 0.3333333, w: 0.3333333}
        outWeight: {x: 0.3333333, y: 0.3333333, z: 0.3333333, w: 0.3333333}
      - serializedVersion: 3
        time: 0.9499997
        value: {x: 0, y: -0.9974961, z: 0, w: -0.07072115}
        inSlope: {x: 0, y: -0.110922, z: 0, w: 1.564502}
        outSlope: {x: 0, y: -0.110922, z: 0, w: 1.564502}
        tangentMode: 0
        weightedMode: 0
        inWeight: {x: 0.3333333, y: 0.3333333, z: 0.3333333, w: 0.3333333}
        outWeight: {x: 0.3333333, y: 0.3333333, z: 0.3333333, w: 0.3333333}
      - serializedVersion: 3
        time: 0.9666664
        value: {x: 0, y: -0.9990039, z: 0, w: -0.04462222}
        inSlope: {x: 0, y: -0.06998605, z: 0, w: 1.566849}
        outSlope: {x: 0, y: -0.06998605, z: 0, w: 1.566849}
        tangentMode: 0
        weightedMode: 0
        inWeight: {x: 0.3333333, y: 0.3333333, z: 0.3333333, w: 0.3333333}
        outWeight: {x: 0.3333333, y: 0.3333333, z: 0.3333333, w: 0.3333333}
      - serializedVersion: 3
        time: 0.9833331
        value: {x: 0, y: -0.999829, z: 0, w: -0.01849291}
        inSlope: {x: 0, y: -0.02900365, z: 0, w: 1.568114}
        outSlope: {x: 0, y: -0.02900365, z: 0, w: 1.568114}
        tangentMode: 0
        weightedMode: 0
        inWeight: {x: 0.3333333, y: 0.3333333, z: 0.3333333, w: 0.3333333}
        outWeight: {x: 0.3333333, y: 0.3333333, z: 0.3333333, w: 0.3333333}
      - serializedVersion: 3
        time: 0.9999997
        value: {x: 0, y: -0.9999707, z: 0, w: 0.007648199}
        inSlope: {x: 0, y: 0.01199479, z: 0, w: 1.568312}
        outSlope: {x: 0, y: 0.01199479, z: 0, w: 1.568312}
        tangentMode: 0
        weightedMode: 0
        inWeight: {x: 0.3333333, y: 0.3333333, z: 0.3333333, w: 0.3333333}
        outWeight: {x: 0.3333333, y: 0.3333333, z: 0.3333333, w: 0.3333333}
      - serializedVersion: 3
        time: 1.016666
        value: {x: 0, y: -0.9994292, z: 0, w: 0.0337842}
        inSlope: {x: 0, y: 0.05298256, z: 0, w: 1.567434}
        outSlope: {x: 0, y: 0.05298256, z: 0, w: 1.567434}
        tangentMode: 0
        weightedMode: 0
        inWeight: {x: 0.3333333, y: 0.3333333, z: 0.3333333, w: 0.3333333}
        outWeight: {x: 0.3333333, y: 0.3333333, z: 0.3333333, w: 0.3333333}
      - serializedVersion: 3
        time: 1.033333
        value: {x: 0, y: -0.9982046, z: 0, w: 0.05989605}
        inSlope: {x: 0, y: 0.09393463, z: 0, w: 1.56547}
        outSlope: {x: 0, y: 0.09393463, z: 0, w: 1.56547}
        tangentMode: 0
        weightedMode: 0
        inWeight: {x: 0.3333333, y: 0.3333333, z: 0.3333333, w: 0.3333333}
        outWeight: {x: 0.3333333, y: 0.3333333, z: 0.3333333, w: 0.3333333}
      - serializedVersion: 3
        time: 1.05
        value: {x: 0, y: -0.996298, z: 0, w: 0.08596649}
        inSlope: {x: 0, y: 0.1348169, z: 0, w: 1.562444}
        outSlope: {x: 0, y: 0.1348169, z: 0, w: 1.562444}
        tangentMode: 0
        weightedMode: 0
        inWeight: {x: 0.3333333, y: 0.3333333, z: 0.3333333, w: 0.3333333}
        outWeight: {x: 0.3333333, y: 0.3333333, z: 0.3333333, w: 0.3333333}
      - serializedVersion: 3
        time: 1.066666
        value: {x: 0, y: -0.9937108, z: 0, w: 0.1119775}
        inSlope: {x: 0, y: 0.1756026, z: 0, w: 1.558341}
        outSlope: {x: 0, y: 0.1756026, z: 0, w: 1.558341}
        tangentMode: 0
        weightedMode: 0
        inWeight: {x: 0.3333333, y: 0.3333333, z: 0.3333333, w: 0.3333333}
        outWeight: {x: 0.3333333, y: 0.3333333, z: 0.3333333, w: 0.3333333}
      - serializedVersion: 3
        time: 1.083333
        value: {x: 0, y: -0.9904446, z: 0, w: 0.1379111}
        inSlope: {x: 0, y: 0.2162667, z: 0, w: 1.553173}
        outSlope: {x: 0, y: 0.2162667, z: 0, w: 1.553173}
        tangentMode: 0
        weightedMode: 0
        inWeight: {x: 0.3333333, y: 0.3333333, z: 0.3333333, w: 0.3333333}
        outWeight: {x: 0.3333333, y: 0.3333333, z: 0.3333333, w: 0.3333333}
      - serializedVersion: 3
        time: 1.1
        value: {x: 0, y: -0.9865019, z: 0, w: 0.1637499}
        inSlope: {x: 0, y: 0.256777, z: 0, w: 1.546944}
        outSlope: {x: 0, y: 0.256777, z: 0, w: 1.546944}
        tangentMode: 0
        weightedMode: 0
        inWeight: {x: 0.3333333, y: 0.3333333, z: 0.3333333, w: 0.3333333}
        outWeight: {x: 0.3333333, y: 0.3333333, z: 0.3333333, w: 0.3333333}
      - serializedVersion: 3
        time: 1.116666
        value: {x: 0, y: -0.9818854, z: 0, w: 0.1894759}
        inSlope: {x: 0, y: 0.2971086, z: 0, w: 1.539656}
        outSlope: {x: 0, y: 0.2971086, z: 0, w: 1.539656}
        tangentMode: 0
        weightedMode: 0
        inWeight: {x: 0.3333333, y: 0.3333333, z: 0.3333333, w: 0.3333333}
        outWeight: {x: 0.3333333, y: 0.3333333, z: 0.3333333, w: 0.3333333}
      - serializedVersion: 3
        time: 1.133333
        value: {x: 0, y: -0.9765983, z: 0, w: 0.2150717}
        inSlope: {x: 0, y: 0.3372326, z: 0, w: 1.531309}
        outSlope: {x: 0, y: 0.3372326, z: 0, w: 1.531309}
        tangentMode: 0
        weightedMode: 0
        inWeight: {x: 0.3333333, y: 0.3333333, z: 0.3333333, w: 0.3333333}
        outWeight: {x: 0.3333333, y: 0.3333333, z: 0.3333333, w: 0.3333333}
      - serializedVersion: 3
        time: 1.15
        value: {x: 0, y: -0.9706443, z: 0, w: 0.2405195}
        inSlope: {x: 0, y: 0.3771189, z: 0, w: 1.521915}
        outSlope: {x: 0, y: 0.3771189, z: 0, w: 1.521915}
        tangentMode: 0
        weightedMode: 0
        inWeight: {x: 0.3333333, y: 0.3333333, z: 0.3333333, w: 0.3333333}
        outWeight: {x: 0.3333333, y: 0.3333333, z: 0.3333333, w: 0.3333333}
      - serializedVersion: 3
        time: 1.166666
        value: {x: 0, y: -0.9640276, z: 0, w: 0.2658021}
        inSlope: {x: 0, y: 0.4167424, z: 0, w: 1.511475}
        outSlope: {x: 0, y: 0.4167424, z: 0, w: 1.511475}
        tangentMode: 0
        weightedMode: 0
        inWeight: {x: 0.3333333, y: 0.3333333, z: 0.3333333, w: 0.3333333}
        outWeight: {x: 0.3333333, y: 0.3333333, z: 0.3333333, w: 0.3333333}
      - serializedVersion: 3
        time: 1.183333
        value: {x: 0, y: -0.9567529, z: 0, w: 0.2909019}
        inSlope: {x: 0, y: 0.4560797, z: 0, w: 1.500007}
        outSlope: {x: 0, y: 0.4560797, z: 0, w: 1.500007}
        tangentMode: 0
        weightedMode: 0
        inWeight: {x: 0.3333333, y: 0.3333333, z: 0.3333333, w: 0.3333333}
        outWeight: {x: 0.3333333, y: 0.3333333, z: 0.3333333, w: 0.3333333}
      - serializedVersion: 3
        time: 1.2
        value: {x: 0, y: -0.948825, z: 0, w: 0.3158023}
        inSlope: {x: 0, y: 0.4950987, z: 0, w: 1.48752}
        outSlope: {x: 0, y: 0.4950987, z: 0, w: 1.48752}
        tangentMode: 0
        weightedMode: 0
        inWeight: {x: 0.3333333, y: 0.3333333, z: 0.3333333, w: 0.3333333}
        outWeight: {x: 0.3333333, y: 0.3333333, z: 0.3333333, w: 0.3333333}
      - serializedVersion: 3
        time: 1.216666
        value: {x: 0, y: -0.9402496, z: 0, w: 0.3404859}
        inSlope: {x: 0, y: 0.5337672, z: 0, w: 1.473999}
        outSlope: {x: 0, y: 0.5337672, z: 0, w: 1.473999}
        tangentMode: 0
        weightedMode: 0
        inWeight: {x: 0.3333333, y: 0.3333333, z: 0.3333333, w: 0.3333333}
        outWeight: {x: 0.3333333, y: 0.3333333, z: 0.3333333, w: 0.3333333}
      - serializedVersion: 3
        time: 1.233333
        value: {x: 0, y: -0.9310328, z: 0, w: 0.3649355}
        inSlope: {x: 0, y: 0.5720657, z: 0, w: 1.459474}
        outSlope: {x: 0, y: 0.5720657, z: 0, w: 1.459474}
        tangentMode: 0
        weightedMode: 0
        inWeight: {x: 0.3333333, y: 0.3333333, z: 0.3333333, w: 0.3333333}
        outWeight: {x: 0.3333333, y: 0.3333333, z: 0.3333333, w: 0.3333333}
      - serializedVersion: 3
        time: 1.25
        value: {x: 0, y: -0.9211808, z: 0, w: 0.3891349}
        inSlope: {x: 0, y: 0.6099689, z: 0, w: 1.443953}
        outSlope: {x: 0, y: 0.6099689, z: 0, w: 1.443953}
        tangentMode: 0
        weightedMode: 0
        inWeight: {x: 0.3333333, y: 0.3333333, z: 0.3333333, w: 0.3333333}
        outWeight: {x: 0.3333333, y: 0.3333333, z: 0.3333333, w: 0.3333333}
      - serializedVersion: 3
        time: 1.266666
        value: {x: 0, y: -0.9107005, z: 0, w: 0.4130673}
        inSlope: {x: 0, y: 0.6474519, z: 0, w: 1.427454}
        outSlope: {x: 0, y: 0.6474519, z: 0, w: 1.427454}
        tangentMode: 0
        weightedMode: 0
        inWeight: {x: 0.3333333, y: 0.3333333, z: 0.3333333, w: 0.3333333}
        outWeight: {x: 0.3333333, y: 0.3333333, z: 0.3333333, w: 0.3333333}
      - serializedVersion: 3
        time: 1.283333
        value: {x: 0, y: -0.8995991, z: 0, w: 0.4367167}
        inSlope: {x: 0, y: 0.6844825, z: 0, w: 1.409981}
        outSlope: {x: 0, y: 0.6844825, z: 0, w: 1.409981}
        tangentMode: 0
        weightedMode: 0
        inWeight: {x: 0.3333333, y: 0.3333333, z: 0.3333333, w: 0.3333333}
        outWeight: {x: 0.3333333, y: 0.3333333, z: 0.3333333, w: 0.3333333}
      - serializedVersion: 3
        time: 1.299999
        value: {x: 0, y: -0.8878844, z: 0, w: 0.4600666}
        inSlope: {x: 0, y: 0.7210339, z: 0, w: 1.391531}
        outSlope: {x: 0, y: 0.7210339, z: 0, w: 1.391531}
        tangentMode: 0
        weightedMode: 0
        inWeight: {x: 0.3333333, y: 0.3333333, z: 0.3333333, w: 0.3333333}
        outWeight: {x: 0.3333333, y: 0.3333333, z: 0.3333333, w: 0.3333333}
      - serializedVersion: 3
        time: 1.316666
        value: {x: 0, y: -0.8755646, z: 0, w: 0.483101}
        inSlope: {x: 0, y: 0.7570864, z: 0, w: 1.372134}
        outSlope: {x: 0, y: 0.7570864, z: 0, w: 1.372134}
        tangentMode: 0
        weightedMode: 0
        inWeight: {x: 0.3333333, y: 0.3333333, z: 0.3333333, w: 0.3333333}
        outWeight: {x: 0.3333333, y: 0.3333333, z: 0.3333333, w: 0.3333333}
      - serializedVersion: 3
        time: 1.333333
        value: {x: 0, y: -0.8626482, z: 0, w: 0.5058044}
        inSlope: {x: 0, y: 0.7926185, z: 0, w: 1.351813}
        outSlope: {x: 0, y: 0.7926185, z: 0, w: 1.351813}
        tangentMode: 0
        weightedMode: 0
        inWeight: {x: 0.3333333, y: 0.3333333, z: 0.3333333, w: 0.3333333}
        outWeight: {x: 0.3333333, y: 0.3333333, z: 0.3333333, w: 0.3333333}
      - serializedVersion: 3
        time: 1.349999
        value: {x: 0, y: -0.849144, z: 0, w: 0.5281614}
        inSlope: {x: 0, y: 0.8276054, z: 0, w: 1.330572}
        outSlope: {x: 0, y: 0.8276054, z: 0, w: 1.330572}
        tangentMode: 0
        weightedMode: 0
        inWeight: {x: 0.3333333, y: 0.3333333, z: 0.3333333, w: 0.3333333}
        outWeight: {x: 0.3333333, y: 0.3333333, z: 0.3333333, w: 0.3333333}
      - serializedVersion: 3
        time: 1.366666
        value: {x: 0, y: -0.8350614, z: 0, w: 0.5501567}
        inSlope: {x: 0, y: 0.8620074, z: 0, w: 1.30841}
        outSlope: {x: 0, y: 0.8620074, z: 0, w: 1.30841}
        tangentMode: 0
        weightedMode: 0
        inWeight: {x: 0.3333333, y: 0.3333333, z: 0.3333333, w: 0.3333333}
        outWeight: {x: 0.3333333, y: 0.3333333, z: 0.3333333, w: 0.3333333}
      - serializedVersion: 3
        time: 1.383333
        value: {x: 0, y: -0.8204105, z: 0, w: 0.571775}
        inSlope: {x: 0, y: 0.8958139, z: 0, w: 1.28536}
        outSlope: {x: 0, y: 0.8958139, z: 0, w: 1.28536}
        tangentMode: 0
        weightedMode: 0
        inWeight: {x: 0.3333333, y: 0.3333333, z: 0.3333333, w: 0.3333333}
        outWeight: {x: 0.3333333, y: 0.3333333, z: 0.3333333, w: 0.3333333}
      - serializedVersion: 3
        time: 1.399999
        value: {x: 0, y: -0.805201, z: 0, w: 0.593002}
        inSlope: {x: 0, y: 0.9290072, z: 0, w: 1.261444}
        outSlope: {x: 0, y: 0.9290072, z: 0, w: 1.261444}
        tangentMode: 0
        weightedMode: 0
        inWeight: {x: 0.3333333, y: 0.3333333, z: 0.3333333, w: 0.3333333}
        outWeight: {x: 0.3333333, y: 0.3333333, z: 0.3333333, w: 0.3333333}
      - serializedVersion: 3
        time: 1.416666
        value: {x: 0, y: -0.7894436, z: 0, w: 0.6138231}
        inSlope: {x: 0, y: 0.9615568, z: 0, w: 1.236668}
        outSlope: {x: 0, y: 0.9615568, z: 0, w: 1.236668}
        tangentMode: 0
        weightedMode: 0
        inWeight: {x: 0.3333333, y: 0.3333333, z: 0.3333333, w: 0.3333333}
        outWeight: {x: 0.3333333, y: 0.3333333, z: 0.3333333, w: 0.3333333}
      - serializedVersion: 3
        time: 1.433333
        value: {x: 0, y: -0.7731491, z: 0, w: 0.6342242}
        inSlope: {x: 0, y: 0.9934375, z: 0, w: 1.211049}
        outSlope: {x: 0, y: 0.9934375, z: 0, w: 1.211049}
        tangentMode: 0
        weightedMode: 0
        inWeight: {x: 0.3333333, y: 0.3333333, z: 0.3333333, w: 0.3333333}
        outWeight: {x: 0.3333333, y: 0.3333333, z: 0.3333333, w: 0.3333333}
      - serializedVersion: 3
        time: 1.449999
        value: {x: 0, y: -0.7563291, z: 0, w: 0.6541914}
        inSlope: {x: 0, y: 1.024633, z: 0, w: 1.184611}
        outSlope: {x: 0, y: 1.024633, z: 0, w: 1.184611}
        tangentMode: 0
        weightedMode: 0
        inWeight: {x: 0.3333333, y: 0.3333333, z: 0.3333333, w: 0.3333333}
        outWeight: {x: 0.3333333, y: 0.3333333, z: 0.3333333, w: 0.3333333}
      - serializedVersion: 3
        time: 1.466666
        value: {x: 0, y: -0.7389947, z: 0, w: 0.6737112}
        inSlope: {x: 0, y: 1.055125, z: 0, w: 1.157371}
        outSlope: {x: 0, y: 1.055125, z: 0, w: 1.157371}
        tangentMode: 0
        weightedMode: 0
        inWeight: {x: 0.3333333, y: 0.3333333, z: 0.3333333, w: 0.3333333}
        outWeight: {x: 0.3333333, y: 0.3333333, z: 0.3333333, w: 0.3333333}
      - serializedVersion: 3
        time: 1.483333
        value: {x: 0, y: -0.7211583, z: 0, w: 0.6927704}
        inSlope: {x: 0, y: 1.084881, z: 0, w: 1.129338}
        outSlope: {x: 0, y: 1.084881, z: 0, w: 1.129338}
        tangentMode: 0
        weightedMode: 0
        inWeight: {x: 0.3333333, y: 0.3333333, z: 0.3333333, w: 0.3333333}
        outWeight: {x: 0.3333333, y: 0.3333333, z: 0.3333333, w: 0.3333333}
      - serializedVersion: 3
        time: 1.499999
        value: {x: 0, y: -0.702832, z: 0, w: 0.7113558}
        inSlope: {x: 0, y: 1.11389, z: 0, w: 1.100545}
        outSlope: {x: 0, y: 1.11389, z: 0, w: 1.100545}
        tangentMode: 0
        weightedMode: 0
        inWeight: {x: 0.3333333, y: 0.3333333, z: 0.3333333, w: 0.3333333}
        outWeight: {x: 0.3333333, y: 0.3333333, z: 0.3333333, w: 0.3333333}
      - serializedVersion: 3
        time: 1.516666
        value: {x: 0, y: -0.6840286, z: 0, w: 0.7294552}
        inSlope: {x: 0, y: 1.142136, z: 0, w: 1.071012}
        outSlope: {x: 0, y: 1.142136, z: 0, w: 1.071012}
        tangentMode: 0
        weightedMode: 0
        inWeight: {x: 0.3333333, y: 0.3333333, z: 0.3333333, w: 0.3333333}
        outWeight: {x: 0.3333333, y: 0.3333333, z: 0.3333333, w: 0.3333333}
      - serializedVersion: 3
        time: 1.533333
        value: {x: 0, y: -0.6647609, z: 0, w: 0.7470562}
        inSlope: {x: 0, y: 1.169582, z: 0, w: 1.040745}
        outSlope: {x: 0, y: 1.169582, z: 0, w: 1.040745}
        tangentMode: 0
        weightedMode: 0
        inWeight: {x: 0.3333333, y: 0.3333333, z: 0.3333333, w: 0.3333333}
        outWeight: {x: 0.3333333, y: 0.3333333, z: 0.3333333, w: 0.3333333}
      - serializedVersion: 3
        time: 1.549999
        value: {x: 0, y: -0.6450426, z: 0, w: 0.7641466}
        inSlope: {x: 0, y: 1.196231, z: 0, w: 1.009781}
        outSlope: {x: 0, y: 1.196231, z: 0, w: 1.009781}
        tangentMode: 0
        weightedMode: 0
        inWeight: {x: 0.3333333, y: 0.3333333, z: 0.3333333, w: 0.3333333}
        outWeight: {x: 0.3333333, y: 0.3333333, z: 0.3333333, w: 0.3333333}
      - serializedVersion: 3
        time: 1.566666
        value: {x: 0, y: -0.6248866, z: 0, w: 0.7807155}
        inSlope: {x: 0, y: 1.222055, z: 0, w: 0.9781382}
        outSlope: {x: 0, y: 1.222055, z: 0, w: 0.9781382}
        tangentMode: 0
        weightedMode: 0
        inWeight: {x: 0.3333333, y: 0.3333333, z: 0.3333333, w: 0.3333333}
        outWeight: {x: 0.3333333, y: 0.3333333, z: 0.3333333, w: 0.3333333}
      - serializedVersion: 3
        time: 1.583333
        value: {x: 0, y: -0.6043075, z: 0, w: 0.7967512}
        inSlope: {x: 0, y: 1.24703, z: 0, w: 0.9458318}
        outSlope: {x: 0, y: 1.24703, z: 0, w: 0.9458318}
        tangentMode: 0
        weightedMode: 0
        inWeight: {x: 0.3333333, y: 0.3333333, z: 0.3333333, w: 0.3333333}
        outWeight: {x: 0.3333333, y: 0.3333333, z: 0.3333333, w: 0.3333333}
      - serializedVersion: 3
        time: 1.599999
        value: {x: 0, y: -0.5833189, z: 0, w: 0.8122432}
        inSlope: {x: 0, y: 1.271157, z: 0, w: 0.9128942}
        outSlope: {x: 0, y: 1.271157, z: 0, w: 0.9128942}
        tangentMode: 0
        weightedMode: 0
        inWeight: {x: 0.3333333, y: 0.3333333, z: 0.3333333, w: 0.3333333}
        outWeight: {x: 0.3333333, y: 0.3333333, z: 0.3333333, w: 0.3333333}
      - serializedVersion: 3
        time: 1.616666
        value: {x: 0, y: -0.5619356, z: 0, w: 0.827181}
        inSlope: {x: 0, y: 1.294405, z: 0, w: 0.8793398}
        outSlope: {x: 0, y: 1.294405, z: 0, w: 0.8793398}
        tangentMode: 0
        weightedMode: 0
        inWeight: {x: 0.3333333, y: 0.3333333, z: 0.3333333, w: 0.3333333}
        outWeight: {x: 0.3333333, y: 0.3333333, z: 0.3333333, w: 0.3333333}
      - serializedVersion: 3
        time: 1.633332
        value: {x: 0, y: -0.5401722, z: 0, w: 0.8415545}
        inSlope: {x: 0, y: 1.316758, z: 0, w: 0.8451953}
        outSlope: {x: 0, y: 1.316758, z: 0, w: 0.8451953}
        tangentMode: 0
        weightedMode: 0
        inWeight: {x: 0.3333333, y: 0.3333333, z: 0.3333333, w: 0.3333333}
        outWeight: {x: 0.3333333, y: 0.3333333, z: 0.3333333, w: 0.3333333}
      - serializedVersion: 3
        time: 1.649999
        value: {x: 0, y: -0.5180437, z: 0, w: 0.8553541}
        inSlope: {x: 0, y: 1.338215, z: 0, w: 0.810491}
        outSlope: {x: 0, y: 1.338215, z: 0, w: 0.810491}
        tangentMode: 0
        weightedMode: 0
        inWeight: {x: 0.3333333, y: 0.3333333, z: 0.3333333, w: 0.3333333}
        outWeight: {x: 0.3333333, y: 0.3333333, z: 0.3333333, w: 0.3333333}
      - serializedVersion: 3
        time: 1.666666
        value: {x: 0, y: -0.495565, z: 0, w: 0.8685709}
        inSlope: {x: 0, y: 1.358744, z: 0, w: 0.7752378}
        outSlope: {x: 0, y: 1.358744, z: 0, w: 0.7752378}
        tangentMode: 0
        weightedMode: 0
        inWeight: {x: 0.3333333, y: 0.3333333, z: 0.3333333, w: 0.3333333}
        outWeight: {x: 0.3333333, y: 0.3333333, z: 0.3333333, w: 0.3333333}
      - serializedVersion: 3
        time: 1.683332
        value: {x: 0, y: -0.4727523, z: 0, w: 0.8811954}
        inSlope: {x: 0, y: 1.378343, z: 0, w: 0.7394679}
        outSlope: {x: 0, y: 1.378343, z: 0, w: 0.7394679}
        tangentMode: 0
        weightedMode: 0
        inWeight: {x: 0.3333333, y: 0.3333333, z: 0.3333333, w: 0.3333333}
        outWeight: {x: 0.3333333, y: 0.3333333, z: 0.3333333, w: 0.3333333}
      - serializedVersion: 3
        time: 1.699999
        value: {x: 0, y: -0.4496203, z: 0, w: 0.8932198}
        inSlope: {x: 0, y: 1.396991, z: 0, w: 0.7032062}
        outSlope: {x: 0, y: 1.396991, z: 0, w: 0.7032062}
        tangentMode: 0
        weightedMode: 0
        inWeight: {x: 0.3333333, y: 0.3333333, z: 0.3333333, w: 0.3333333}
        outWeight: {x: 0.3333333, y: 0.3333333, z: 0.3333333, w: 0.3333333}
      - serializedVersion: 3
        time: 1.716666
        value: {x: 0, y: -0.426186, z: 0, w: 0.9046355}
        inSlope: {x: 0, y: 1.41467, z: 0, w: 0.6664723}
        outSlope: {x: 0, y: 1.41467, z: 0, w: 0.6664723}
        tangentMode: 0
        weightedMode: 0
        inWeight: {x: 0.3333333, y: 0.3333333, z: 0.3333333, w: 0.3333333}
        outWeight: {x: 0.3333333, y: 0.3333333, z: 0.3333333, w: 0.3333333}
      - serializedVersion: 3
        time: 1.733332
        value: {x: 0, y: -0.4024647, z: 0, w: 0.9154355}
        inSlope: {x: 0, y: 1.431409, z: 0, w: 0.6293112}
        outSlope: {x: 0, y: 1.431409, z: 0, w: 0.6293112}
        tangentMode: 0
        weightedMode: 0
        inWeight: {x: 0.3333333, y: 0.3333333, z: 0.3333333, w: 0.3333333}
        outWeight: {x: 0.3333333, y: 0.3333333, z: 0.3333333, w: 0.3333333}
      - serializedVersion: 3
        time: 1.749999
        value: {x: 0, y: -0.3784724, z: 0, w: 0.9256126}
        inSlope: {x: 0, y: 1.447151, z: 0, w: 0.5917263}
        outSlope: {x: 0, y: 1.447151, z: 0, w: 0.5917263}
        tangentMode: 0
        weightedMode: 0
        inWeight: {x: 0.3333333, y: 0.3333333, z: 0.3333333, w: 0.3333333}
        outWeight: {x: 0.3333333, y: 0.3333333, z: 0.3333333, w: 0.3333333}
      - serializedVersion: 3
        time: 1.766666
        value: {x: 0, y: -0.3542264, z: 0, w: 0.9351597}
        inSlope: {x: 0, y: 1.461889, z: 0, w: 0.553748}
        outSlope: {x: 0, y: 1.461889, z: 0, w: 0.553748}
        tangentMode: 0
        weightedMode: 0
        inWeight: {x: 0.3333333, y: 0.3333333, z: 0.3333333, w: 0.3333333}
        outWeight: {x: 0.3333333, y: 0.3333333, z: 0.3333333, w: 0.3333333}
      - serializedVersion: 3
        time: 1.783332
        value: {x: 0, y: -0.3297428, z: 0, w: 0.9440708}
        inSlope: {x: 0, y: 1.475644, z: 0, w: 0.515412}
        outSlope: {x: 0, y: 1.475644, z: 0, w: 0.515412}
        tangentMode: 0
        weightedMode: 0
        inWeight: {x: 0.3333333, y: 0.3333333, z: 0.3333333, w: 0.3333333}
        outWeight: {x: 0.3333333, y: 0.3333333, z: 0.3333333, w: 0.3333333}
      - serializedVersion: 3
        time: 1.799999
        value: {x: 0, y: -0.3050383, z: 0, w: 0.9523401}
        inSlope: {x: 0, y: 1.488379, z: 0, w: 0.4767363}
        outSlope: {x: 0, y: 1.488379, z: 0, w: 0.4767363}
        tangentMode: 0
        weightedMode: 0
        inWeight: {x: 0.3333333, y: 0.3333333, z: 0.3333333, w: 0.3333333}
        outWeight: {x: 0.3333333, y: 0.3333333, z: 0.3333333, w: 0.3333333}
      - serializedVersion: 3
        time: 1.816666
        value: {x: 0, y: -0.2801302, z: 0, w: 0.959962}
        inSlope: {x: 0, y: 1.500106, z: 0, w: 0.4377548}
        outSlope: {x: 0, y: 1.500106, z: 0, w: 0.4377548}
        tangentMode: 0
        weightedMode: 0
        inWeight: {x: 0.3333333, y: 0.3333333, z: 0.3333333, w: 0.3333333}
        outWeight: {x: 0.3333333, y: 0.3333333, z: 0.3333333, w: 0.3333333}
      - serializedVersion: 3
        time: 1.833332
        value: {x: 0, y: -0.2550348, z: 0, w: 0.9669319}
        inSlope: {x: 0, y: 1.510804, z: 0, w: 0.3984872}
        outSlope: {x: 0, y: 1.510804, z: 0, w: 0.3984872}
        tangentMode: 0
        weightedMode: 0
        inWeight: {x: 0.3333333, y: 0.3333333, z: 0.3333333, w: 0.3333333}
        outWeight: {x: 0.3333333, y: 0.3333333, z: 0.3333333, w: 0.3333333}
      - serializedVersion: 3
        time: 1.849999
        value: {x: 0, y: -0.2297701, z: 0, w: 0.9732449}
        inSlope: {x: 0, y: 1.520452, z: 0, w: 0.3589604}
        outSlope: {x: 0, y: 1.520452, z: 0, w: 0.3589604}
        tangentMode: 0
        weightedMode: 0
        inWeight: {x: 0.3333333, y: 0.3333333, z: 0.3333333, w: 0.3333333}
        outWeight: {x: 0.3333333, y: 0.3333333, z: 0.3333333, w: 0.3333333}
      - serializedVersion: 3
        time: 1.866666
        value: {x: 0, y: -0.2043531, z: 0, w: 0.9788972}
        inSlope: {x: 0, y: 1.529087, z: 0, w: 0.3192136}
        outSlope: {x: 0, y: 1.529087, z: 0, w: 0.3192136}
        tangentMode: 0
        weightedMode: 0
        inWeight: {x: 0.3333333, y: 0.3333333, z: 0.3333333, w: 0.3333333}
        outWeight: {x: 0.3333333, y: 0.3333333, z: 0.3333333, w: 0.3333333}
      - serializedVersion: 3
        time: 1.883332
        value: {x: 0, y: -0.1788006, z: 0, w: 0.9838853}
        inSlope: {x: 0, y: 1.536667, z: 0, w: 0.2792611}
        outSlope: {x: 0, y: 1.536667, z: 0, w: 0.2792611}
        tangentMode: 0
        weightedMode: 0
        inWeight: {x: 0.3333333, y: 0.3333333, z: 0.3333333, w: 0.3333333}
        outWeight: {x: 0.3333333, y: 0.3333333, z: 0.3333333, w: 0.3333333}
      - serializedVersion: 3
        time: 1.899999
        value: {x: 0, y: -0.1531309, z: 0, w: 0.9882059}
        inSlope: {x: 0, y: 1.543189, z: 0, w: 0.2391335}
        outSlope: {x: 0, y: 1.543189, z: 0, w: 0.2391335}
        tangentMode: 0
        weightedMode: 0
        inWeight: {x: 0.3333333, y: 0.3333333, z: 0.3333333, w: 0.3333333}
        outWeight: {x: 0.3333333, y: 0.3333333, z: 0.3333333, w: 0.3333333}
      - serializedVersion: 3
        time: 1.916666
        value: {x: 0, y: -0.127361, z: 0, w: 0.9918565}
        inSlope: {x: 0, y: 1.548677, z: 0, w: 0.1988627}
        outSlope: {x: 0, y: 1.548677, z: 0, w: 0.1988627}
        tangentMode: 0
        weightedMode: 0
        inWeight: {x: 0.3333333, y: 0.3333333, z: 0.3333333, w: 0.3333333}
        outWeight: {x: 0.3333333, y: 0.3333333, z: 0.3333333, w: 0.3333333}
      - serializedVersion: 3
        time: 1.933332
        value: {x: 0, y: -0.1015084, z: 0, w: 0.9948347}
        inSlope: {x: 0, y: 1.553107, z: 0, w: 0.158474}
        outSlope: {x: 0, y: 1.553107, z: 0, w: 0.158474}
        tangentMode: 0
        weightedMode: 0
        inWeight: {x: 0.3333333, y: 0.3333333, z: 0.3333333, w: 0.3333333}
        outWeight: {x: 0.3333333, y: 0.3333333, z: 0.3333333, w: 0.3333333}
      - serializedVersion: 3
        time: 1.949999
        value: {x: 0, y: -0.07559083, z: 0, w: 0.9971389}
        inSlope: {x: 0, y: 1.556476, z: 0, w: 0.1179959}
        outSlope: {x: 0, y: 1.556476, z: 0, w: 0.1179959}
        tangentMode: 0
        weightedMode: 0
        inWeight: {x: 0.3333333, y: 0.3333333, z: 0.3333333, w: 0.3333333}
        outWeight: {x: 0.3333333, y: 0.3333333, z: 0.3333333, w: 0.3333333}
      - serializedVersion: 3
        time: 1.966666
        value: {x: 0, y: -0.0496259, z: 0, w: 0.9987679}
        inSlope: {x: 0, y: 1.558783, z: 0, w: 0.07745512}
        outSlope: {x: 0, y: 1.558783, z: 0, w: 0.07745512}
        tangentMode: 0
        weightedMode: 0
        inWeight: {x: 0.3333333, y: 0.3333333, z: 0.3333333, w: 0.3333333}
        outWeight: {x: 0.3333333, y: 0.3333333, z: 0.3333333, w: 0.3333333}
      - serializedVersion: 3
        time: 1.983332
        value: {x: 0, y: -0.02363143, z: 0, w: 0.9997208}
        inSlope: {x: 0, y: 1.560036, z: 0, w: 0.03687982}
        outSlope: {x: 0, y: 1.560036, z: 0, w: 0.03687982}
        tangentMode: 0
        weightedMode: 0
        inWeight: {x: 0.3333333, y: 0.3333333, z: 0.3333333, w: 0.3333333}
        outWeight: {x: 0.3333333, y: 0.3333333, z: 0.3333333, w: 0.3333333}
      - serializedVersion: 3
        time: 2
        value: {x: 0, y: 0.002377118, z: 0, w: 0.9999972}
        inSlope: {x: 0, y: 1.560403, z: 0, w: 0.01658561}
        outSlope: {x: 0, y: 1.560403, z: 0, w: 0.01658561}
        tangentMode: 0
        weightedMode: 0
        inWeight: {x: 0.3333333, y: 0.3333333, z: 0.3333333, w: 0.3333333}
        outWeight: {x: 0.3333333, y: 0.3333333, z: 0.3333333, w: 0.3333333}
      m_PreInfinity: 2
      m_PostInfinity: 2
      m_RotationOrder: 4
    path: 
  m_CompressedRotationCurves: []
  m_EulerCurves: []
  m_PositionCurves: []
  m_ScaleCurves: []
  m_FloatCurves: []
  m_PPtrCurves: []
  m_SampleRate: 60
  m_WrapMode: 2
  m_Bounds:
    m_Center: {x: 0, y: 0, z: 0}
    m_Extent: {x: 0, y: 0, z: 0}
  m_ClipBindingConstant:
    genericBindings: []
    pptrCurveMapping: []
  m_AnimationClipSettings:
    serializedVersion: 2
    m_AdditiveReferencePoseClip: {fileID: 0}
    m_AdditiveReferencePoseTime: 0
    m_StartTime: 0
    m_StopTime: 1
    m_OrientationOffsetY: 0
    m_Level: 0
    m_CycleOffset: 0
    m_HasAdditiveReferencePose: 0
    m_LoopTime: 0
    m_LoopBlend: 0
    m_LoopBlendOrientation: 0
    m_LoopBlendPositionY: 0
    m_LoopBlendPositionXZ: 0
    m_KeepOriginalOrientation: 0
    m_KeepOriginalPositionY: 1
    m_KeepOriginalPositionXZ: 0
    m_HeightFromFeet: 0
    m_Mirror: 0
  m_EditorCurves: []
  m_EulerEditorCurves: []
  m_HasGenericRootTransform: 0
  m_HasMotionFloatCurves: 0
  m_Events: []
