%YAML 1.1
%TAG !u! tag:unity3d.com,2011:
--- !u!74 &7400000
AnimationClip:
  m_ObjectHideFlags: 0
  m_CorrespondingSourceObject: {fileID: 0}
  m_PrefabInstance: {fileID: 0}
  m_PrefabAsset: {fileID: 0}
  m_Name: Idle_22
  serializedVersion: 6
  m_Legacy: 1
  m_Compressed: 1
  m_UseHighQualityCurve: 1
  m_RotationCurves: []
  m_CompressedRotationCurves:
  - m_Path: root_ghost
    m_Times:
      m_NumItems: 2
      m_Data: 00ce
      m_BitSize: 8
    m_Values:
      m_NumItems: 2
      m_Data: fbf7df7ffbf7df7f
    m_Slopes:
      m_NumItems: 8
      m_Range: 0
      m_Start: 0
      m_Data: 
      m_BitSize: 0
    m_PreInfinity: 2
    m_PostInfinity: 2
  - m_Path: root_ghost/body_ghost
    m_Times:
      m_NumItems: 2
      m_Data: 00ce
      m_BitSize: 8
    m_Values:
      m_NumItems: 2
      m_Data: fbf7df7ffbf7df7f
    m_Slopes:
      m_NumItems: 8
      m_Range: 0
      m_Start: 0
      m_Data: 
      m_BitSize: 0
    m_PreInfinity: 2
    m_PostInfinity: 2
  - m_Path: root_ghost/body_ghost/head_ghost
    m_Times:
      m_NumItems: 4
      m_Data: 80a4f107
      m_BitSize: 7
    m_Values:
      m_NumItems: 4
      m_Data: e3f7df7fa3f7df7f4bf8df7f03f8df7f
    m_Slopes:
      m_NumItems: 16
      m_Range: 0.2525528
      m_Start: -0.1198156
      m_Data: 80e775bfe77d9ae7798ee779
      m_BitSize: 6
    m_PreInfinity: 2
    m_PostInfinity: 2
  - m_Path: root_ghost/body_ghost/head_ghost/face_ghost
    m_Times:
      m_NumItems: 2
      m_Data: 00ce
      m_BitSize: 8
    m_Values:
      m_NumItems: 2
      m_Data: fbf7df7ffbf7df7f
    m_Slopes:
      m_NumItems: 8
      m_Range: 0
      m_Start: 0
      m_Data: 
      m_BitSize: 0
    m_PreInfinity: 2
    m_PostInfinity: 2
  - m_Path: root_ghost/body_ghost/head_ghost/eyes_ghost
    m_Times:
      m_NumItems: 5
      m_Data: 009910aa00
      m_BitSize: 7
    m_Values:
      m_NumItems: 5
      m_Data: 1bf8df7f63f8df7ffbf7df7ff3f7df7ffbf7df7f
    m_Slopes:
      m_NumItems: 20
      m_Range: 0.2259288
      m_Start: -0.08725475
      m_Data: 3f86611686610086611c86611c8661
      m_BitSize: 6
    m_PreInfinity: 2
    m_PostInfinity: 2
  - m_Path: root_ghost/body_ghost/left_shoulder_ghost
    m_Times:
      m_NumItems: 4
      m_Data: 805fd208
      m_BitSize: 7
    m_Values:
      m_NumItems: 4
      m_Data: c367df7cd3879f7d03e75d717bc79e78
    m_Slopes:
      m_NumItems: 16
      m_Range: 0.2908781
      m_Start: -0.1201603
      m_Data: 386b738022640bc5587fcb7f
      m_BitSize: 6
    m_PreInfinity: 2
    m_PostInfinity: 2
  - m_Path: root_ghost/body_ghost/left_shoulder_ghost/left_hand_ghost
    m_Times:
      m_NumItems: 2
      m_Data: 00ce
      m_BitSize: 8
    m_Values:
      m_NumItems: 2
      m_Data: fbf7df7ffbf7df7f
    m_Slopes:
      m_NumItems: 8
      m_Range: 0
      m_Start: 0
      m_Data: 
      m_BitSize: 0
    m_PreInfinity: 2
    m_PostInfinity: 2
  - m_Path: root_ghost/body_ghost/right_shoulder_ghost
    m_Times:
      m_NumItems: 4
      m_Data: 0068bc01
      m_BitSize: 7
    m_Values:
      m_NumItems: 4
      m_Data: 7bd79f7fe3f7df7f13c75f7f33c75f7f
    m_Slopes:
      m_NumItems: 16
      m_Range: 0.2523929
      m_Start: -0.09245994
      m_Data: 7f866980655d2d8669778669
      m_BitSize: 6
    m_PreInfinity: 2
    m_PostInfinity: 2
  - m_Path: root_ghost/body_ghost/right_shoulder_ghost/right_hand_ghost
    m_Times:
      m_NumItems: 2
      m_Data: 00ce
      m_BitSize: 8
    m_Values:
      m_NumItems: 2
      m_Data: fbf7df7ffbf7df7f
    m_Slopes:
      m_NumItems: 8
      m_Range: 0
      m_Start: 0
      m_Data: 
      m_BitSize: 0
    m_PreInfinity: 2
    m_PostInfinity: 2
  - m_Path: root_ghost/body_ghost/right_shoulder_ghost/chain_01_ghost
    m_Times:
      m_NumItems: 4
      m_Data: 009a9309
      m_BitSize: 7
    m_Values:
      m_NumItems: 4
      m_Data: 3bf8df7ffbf8df7fdbf7df7febf7df7f
    m_Slopes:
      m_NumItems: 16
      m_Range: 0.4490912
      m_Start: -0.1704118
      m_Data: 3f865d108665008661258661
      m_BitSize: 6
    m_PreInfinity: 2
    m_PostInfinity: 2
  - m_Path: root_ghost/body_ghost/right_shoulder_ghost/chain_01_ghost/chain_02_ghost
    m_Times:
      m_NumItems: 7
      m_Data: 8067c1eb8502
      m_BitSize: 6
    m_Values:
      m_NumItems: 7
      m_Data: 53f7df7f73f6df7f2bf7df7f0bf9df7f8bf9df7febf8df7f2bf8df7f
    m_Slopes:
      m_NumItems: 28
      m_Range: 1.137906
      m_Start: -0.6953706
      m_Data: 80698eb269a6bf69a6be698e9469aa9969a299699e
      m_BitSize: 6
    m_PreInfinity: 2
    m_PostInfinity: 2
  - m_Path: root_ghost/body_ghost/right_shoulder_ghost/chain_01_ghost/chain_02_ghost/chain_03_ghost
    m_Times:
      m_NumItems: 2
      m_Data: 00ce
      m_BitSize: 8
    m_Values:
      m_NumItems: 2
      m_Data: fbf7df7ffbf7df7f
    m_Slopes:
      m_NumItems: 8
      m_Range: 0
      m_Start: 0
      m_Data: 
      m_BitSize: 0
    m_PreInfinity: 2
    m_PostInfinity: 2
  - m_Path: root_ghost/body_ghost/right_shoulder_ghost/spikeball1
    m_Times:
      m_NumItems: 2
      m_Data: 00ce
      m_BitSize: 8
    m_Values:
      m_NumItems: 2
      m_Data: fbf7df7ffbf7df7f
    m_Slopes:
      m_NumItems: 8
      m_Range: 0
      m_Start: 0
      m_Data: 
      m_BitSize: 0
    m_PreInfinity: 2
    m_PostInfinity: 2
  - m_Path: root_ghost/body_ghost/front_01_ghost
    m_Times:
      m_NumItems: 2
      m_Data: 00ce
      m_BitSize: 8
    m_Values:
      m_NumItems: 2
      m_Data: fbf7df7ffbf7df7f
    m_Slopes:
      m_NumItems: 8
      m_Range: 0
      m_Start: 0
      m_Data: 
      m_BitSize: 0
    m_PreInfinity: 2
    m_PostInfinity: 2
  - m_Path: root_ghost/body_ghost/front_01_ghost/front_02_ghost
    m_Times:
      m_NumItems: 7
      m_Data: 80878668e801
      m_BitSize: 6
    m_Values:
      m_NumItems: 7
      m_Data: fbf7df8bf3f71f93b3865f8b6b56a078c317606afbf71f6ffbf7df80
    m_Slopes:
      m_NumItems: 28
      m_Range: 0.8567329
      m_Start: -0.4337116
      m_Data: 20c877d7e78141987474098838777d20f893209883
      m_BitSize: 6
    m_PreInfinity: 2
    m_PostInfinity: 2
  - m_Path: root_ghost/body_ghost/front_01_ghost/front_02_ghost/front_03_ghost
    m_Times:
      m_NumItems: 2
      m_Data: 00ce
      m_BitSize: 8
    m_Values:
      m_NumItems: 2
      m_Data: fbf7df7ffbf7df7f
    m_Slopes:
      m_NumItems: 8
      m_Range: 0
      m_Start: 0
      m_Data: 
      m_BitSize: 0
    m_PreInfinity: 2
    m_PostInfinity: 2
  - m_Path: root_ghost/body_ghost/right_01_ghost
    m_Times:
      m_NumItems: 2
      m_Data: 00ce
      m_BitSize: 8
    m_Values:
      m_NumItems: 2
      m_Data: fbf7df7ffbf7df7f
    m_Slopes:
      m_NumItems: 8
      m_Range: 0
      m_Start: 0
      m_Data: 
      m_BitSize: 0
    m_PreInfinity: 2
    m_PostInfinity: 2
  - m_Path: root_ghost/body_ghost/right_01_ghost/right_02_ghost
    m_Times:
      m_NumItems: 5
      m_Data: 80558fa901
      m_BitSize: 7
    m_Values:
      m_NumItems: 5
      m_Data: fbf7df7ffbf79f92fbf7df82fbf75f69fbf71f72
    m_Slopes:
      m_NumItems: 20
      m_Range: 0.8404535
      m_Start: -0.3607876
      m_Data: db766fdb6666db0670db866ddbf67f
      m_BitSize: 6
    m_PreInfinity: 2
    m_PostInfinity: 2
  - m_Path: root_ghost/body_ghost/right_01_ghost/right_02_ghost/right_03_ghost
    m_Times:
      m_NumItems: 2
      m_Data: 00ce
      m_BitSize: 8
    m_Values:
      m_NumItems: 2
      m_Data: fbf7df7ffbf7df7f
    m_Slopes:
      m_NumItems: 8
      m_Range: 0
      m_Start: 0
      m_Data: 
      m_BitSize: 0
    m_PreInfinity: 2
    m_PostInfinity: 2
  - m_Path: root_ghost/body_ghost/back_01_ghost
    m_Times:
      m_NumItems: 2
      m_Data: 00ce
      m_BitSize: 8
    m_Values:
      m_NumItems: 2
      m_Data: fbf7df7ffbf7df7f
    m_Slopes:
      m_NumItems: 8
      m_Range: 0
      m_Start: 0
      m_Data: 
      m_BitSize: 0
    m_PreInfinity: 2
    m_PostInfinity: 2
  - m_Path: root_ghost/body_ghost/back_01_ghost/back_02_ghost
    m_Times:
      m_NumItems: 7
      m_Data: 00f986a80801
      m_BitSize: 6
    m_Values:
      m_NumItems: 7
      m_Data: fbf79f85fbf71f93ab861f8b73562078cb17606afbf79f6ffbf71f7a
    m_Slopes:
      m_NumItems: 28
      m_Range: 0.9237012
      m_Start: -0.4297783
      m_Data: 5d87735cf77581876cb1087cb366755db7875df77f
      m_BitSize: 6
    m_PreInfinity: 2
    m_PostInfinity: 2
  - m_Path: root_ghost/body_ghost/back_01_ghost/back_02_ghost/back_03_ghost
    m_Times:
      m_NumItems: 2
      m_Data: 00ce
      m_BitSize: 8
    m_Values:
      m_NumItems: 2
      m_Data: fbf7df7ffbf7df7f
    m_Slopes:
      m_NumItems: 8
      m_Range: 0
      m_Start: 0
      m_Data: 
      m_BitSize: 0
    m_PreInfinity: 2
    m_PostInfinity: 2
  - m_Path: root_ghost/body_ghost/left_01_ghost
    m_Times:
      m_NumItems: 2
      m_Data: 00ce
      m_BitSize: 8
    m_Values:
      m_NumItems: 2
      m_Data: fbf7df7ffbf7df7f
    m_Slopes:
      m_NumItems: 8
      m_Range: 0
      m_Start: 0
      m_Data: 
      m_BitSize: 0
    m_PreInfinity: 2
    m_PostInfinity: 2
  - m_Path: root_ghost/body_ghost/left_01_ghost/left_02_ghost
    m_Times:
      m_NumItems: 7
      m_Data: 00f986a80801
      m_BitSize: 6
    m_Values:
      m_NumItems: 7
      m_Data: fbf79f85fbf71f93ab861f8b73562078cb17606afbf79f6ffbf71f7a
    m_Slopes:
      m_NumItems: 28
      m_Range: 0.9237012
      m_Start: -0.4297783
      m_Data: 5d87735cf77581876cb1087cb366755db7875df77f
      m_BitSize: 6
    m_PreInfinity: 2
    m_PostInfinity: 2
  - m_Path: root_ghost/body_ghost/left_01_ghost/left_02_ghost/left_03_ghost
    m_Times:
      m_NumItems: 2
      m_Data: 00ce
      m_BitSize: 8
    m_Values:
      m_NumItems: 2
      m_Data: fbf7df7ffbf7df7f
    m_Slopes:
      m_NumItems: 8
      m_Range: 0
      m_Start: 0
      m_Data: 
      m_BitSize: 0
    m_PreInfinity: 2
    m_PostInfinity: 2
  m_EulerCurves: []
  m_PositionCurves:
  - curve:
      serializedVersion: 2
      m_Curve:
      - serializedVersion: 3
        time: 0
        value: {x: 0, y: 0.008508377, z: 0}
        inSlope: {x: 0, y: 0.1151671, z: 0}
        outSlope: {x: 0, y: 0.1458845, z: 0}
        tangentMode: 0
        weightedMode: 0
        inWeight: {x: 0.3333333, y: 0.3333333, z: 0.3333333}
        outWeight: {x: 0.3333333, y: 0.3333333, z: 0.3333333}
      - serializedVersion: 3
        time: 0.03333333
        value: {x: 0, y: 0.01337119, z: 0}
        inSlope: {x: 0, y: 0.1458845, z: 0}
        outSlope: {x: 0, y: 0.1743679, z: 0}
        tangentMode: 0
        weightedMode: 0
        inWeight: {x: 0.3333333, y: 0.3333333, z: 0.3333333}
        outWeight: {x: 0.3333333, y: 0.3333333, z: 0.3333333}
      - serializedVersion: 3
        time: 0.06666666
        value: {x: 0, y: 0.01918346, z: 0}
        inSlope: {x: 0, y: 0.1743679, z: 0}
        outSlope: {x: 0, y: 0.2006174, z: 0}
        tangentMode: 0
        weightedMode: 0
        inWeight: {x: 0.3333333, y: 0.3333333, z: 0.3333333}
        outWeight: {x: 0.3333333, y: 0.3333333, z: 0.3333333}
      - serializedVersion: 3
        time: 0.09999999
        value: {x: 0, y: 0.0258707, z: 0}
        inSlope: {x: 0, y: 0.2006174, z: 0}
        outSlope: {x: 0, y: 0.2246327, z: 0}
        tangentMode: 0
        weightedMode: 0
        inWeight: {x: 0.3333333, y: 0.3333333, z: 0.3333333}
        outWeight: {x: 0.3333333, y: 0.3333333, z: 0.3333333}
      - serializedVersion: 3
        time: 0.1333333
        value: {x: 0, y: 0.03335846, z: 0}
        inSlope: {x: 0, y: 0.2246327, z: 0}
        outSlope: {x: 0, y: 0.2464144, z: 0}
        tangentMode: 0
        weightedMode: 0
        inWeight: {x: 0.3333333, y: 0.3333333, z: 0.3333333}
        outWeight: {x: 0.3333333, y: 0.3333333, z: 0.3333333}
      - serializedVersion: 3
        time: 0.2
        value: {x: 0, y: 0.05043766, z: 0}
        inSlope: {x: 0, y: 0.2659615, z: 0}
        outSlope: {x: 0, y: 0.2832752, z: 0}
        tangentMode: 0
        weightedMode: 0
        inWeight: {x: 0.3333333, y: 0.3333333, z: 0.3333333}
        outWeight: {x: 0.3333333, y: 0.3333333, z: 0.3333333}
      - serializedVersion: 3
        time: 0.6333333
        value: {x: 0, y: 0.1910994, z: 0}
        inSlope: {x: 0, y: 0.3167853, z: 0}
        outSlope: {x: 0, y: 0.3050563, z: 0}
        tangentMode: 0
        weightedMode: 0
        inWeight: {x: 0.3333333, y: 0.3333333, z: 0.3333333}
        outWeight: {x: 0.3333333, y: 0.3333333, z: 0.3333333}
      - serializedVersion: 3
        time: 1
        value: {x: 0, y: 0.2650687, z: 0}
        inSlope: {x: 0, y: 0.06490213, z: 0}
        outSlope: {x: 0, y: 0.02859996, z: 0}
        tangentMode: 0
        weightedMode: 0
        inWeight: {x: 0.3333333, y: 0.3333333, z: 0.3333333}
        outWeight: {x: 0.3333333, y: 0.3333333, z: 0.3333333}
      - serializedVersion: 3
        time: 1.266667
        value: {x: 0, y: 0.238392, z: 0}
        inSlope: {x: 0, y: -0.2140122, z: 0}
        outSlope: {x: 0, y: -0.2392384, z: 0}
        tangentMode: 0
        weightedMode: 0
        inWeight: {x: 0.3333333, y: 0.3333333, z: 0.3333333}
        outWeight: {x: 0.3333333, y: 0.3333333, z: 0.3333333}
      - serializedVersion: 3
        time: 1.833333
        value: {x: 0, y: 0.05623228, z: 0}
        inSlope: {x: 0, y: -0.304018, z: 0}
        outSlope: {x: 0, y: -0.2868886, z: 0}
        tangentMode: 0
        weightedMode: 0
        inWeight: {x: 0.3333333, y: 0.3333333, z: 0.3333333}
        outWeight: {x: 0.3333333, y: 0.3333333, z: 0.3333333}
      - serializedVersion: 3
        time: 1.9
        value: {x: 0, y: 0.03776041, z: 0}
        inSlope: {x: 0, y: -0.2672681, z: 0}
        outSlope: {x: 0, y: -0.2451555, z: 0}
        tangentMode: 0
        weightedMode: 0
        inWeight: {x: 0.3333333, y: 0.3333333, z: 0.3333333}
        outWeight: {x: 0.3333333, y: 0.3333333, z: 0.3333333}
      - serializedVersion: 3
        time: 1.933333
        value: {x: 0, y: 0.02958857, z: 0}
        inSlope: {x: 0, y: -0.2451555, z: 0}
        outSlope: {x: 0, y: -0.220552, z: 0}
        tangentMode: 0
        weightedMode: 0
        inWeight: {x: 0.3333333, y: 0.3333333, z: 0.3333333}
        outWeight: {x: 0.3333333, y: 0.3333333, z: 0.3333333}
      - serializedVersion: 3
        time: 1.966667
        value: {x: 0, y: 0.02223684, z: 0}
        inSlope: {x: 0, y: -0.220552, z: 0}
        outSlope: {x: 0, y: -0.1934566, z: 0}
        tangentMode: 0
        weightedMode: 0
        inWeight: {x: 0.3333333, y: 0.3333333, z: 0.3333333}
        outWeight: {x: 0.3333333, y: 0.3333333, z: 0.3333333}
      - serializedVersion: 3
        time: 2
        value: {x: 0, y: 0.0157883, z: 0}
        inSlope: {x: 0, y: -0.1934566, z: 0}
        outSlope: {x: 0, y: -0.1638697, z: 0}
        tangentMode: 0
        weightedMode: 0
        inWeight: {x: 0.3333333, y: 0.3333333, z: 0.3333333}
        outWeight: {x: 0.3333333, y: 0.3333333, z: 0.3333333}
      - serializedVersion: 3
        time: 2.033333
        value: {x: 0, y: 0.01032598, z: 0}
        inSlope: {x: 0, y: -0.1638697, z: 0}
        outSlope: {x: 0, y: -0.1317904, z: 0}
        tangentMode: 0
        weightedMode: 0
        inWeight: {x: 0.3333333, y: 0.3333333, z: 0.3333333}
        outWeight: {x: 0.3333333, y: 0.3333333, z: 0.3333333}
      - serializedVersion: 3
        time: 2.066667
        value: {x: 0, y: 0.005932938, z: 0}
        inSlope: {x: 0, y: -0.1317904, z: 0}
        outSlope: {x: 0, y: -0.09722137, z: 0}
        tangentMode: 0
        weightedMode: 0
        inWeight: {x: 0.3333333, y: 0.3333333, z: 0.3333333}
        outWeight: {x: 0.3333333, y: 0.3333333, z: 0.3333333}
      m_PreInfinity: 2
      m_PostInfinity: 2
      m_RotationOrder: 4
    path: root_ghost
  - curve:
      serializedVersion: 2
      m_Curve:
      - serializedVersion: 3
        time: 0
        value: {x: 0, y: 0.2229934, z: -0.01472573}
        inSlope: {x: 0, y: 0, z: 0}
        outSlope: {x: 0, y: 0, z: 0}
        tangentMode: 0
        weightedMode: 0
        inWeight: {x: 0.3333333, y: 0.3333333, z: 0.3333333}
        outWeight: {x: 0.3333333, y: 0.3333333, z: 0.3333333}
      - serializedVersion: 3
        time: 2.066667
        value: {x: 0, y: 0.2229934, z: -0.01472573}
        inSlope: {x: 0, y: 0, z: 0}
        outSlope: {x: 0, y: 0, z: 0}
        tangentMode: 0
        weightedMode: 0
        inWeight: {x: 0.3333333, y: 0.3333333, z: 0.3333333}
        outWeight: {x: 0.3333333, y: 0.3333333, z: 0.3333333}
      m_PreInfinity: 2
      m_PostInfinity: 2
      m_RotationOrder: 4
    path: root_ghost/body_ghost
  - curve:
      serializedVersion: 2
      m_Curve:
      - serializedVersion: 3
        time: 0
        value: {x: 0, y: 0.5576807, z: 0.02564927}
        inSlope: {x: 0, y: 0, z: 0}
        outSlope: {x: 0, y: 0, z: 0}
        tangentMode: 0
        weightedMode: 0
        inWeight: {x: 0.3333333, y: 0.3333333, z: 0.3333333}
        outWeight: {x: 0.3333333, y: 0.3333333, z: 0.3333333}
      - serializedVersion: 3
        time: 2.066667
        value: {x: 0, y: 0.5576807, z: 0.02564927}
        inSlope: {x: 0, y: 0, z: 0}
        outSlope: {x: 0, y: 0, z: 0}
        tangentMode: 0
        weightedMode: 0
        inWeight: {x: 0.3333333, y: 0.3333333, z: 0.3333333}
        outWeight: {x: 0.3333333, y: 0.3333333, z: 0.3333333}
      m_PreInfinity: 2
      m_PostInfinity: 2
      m_RotationOrder: 4
    path: root_ghost/body_ghost/head_ghost
  - curve:
      serializedVersion: 2
      m_Curve:
      - serializedVersion: 3
        time: 0
        value: {x: 0, y: 0.08407172, z: 0.4851264}
        inSlope: {x: 0, y: 0, z: 0}
        outSlope: {x: 0, y: 0, z: 0}
        tangentMode: 0
        weightedMode: 0
        inWeight: {x: 0.3333333, y: 0.3333333, z: 0.3333333}
        outWeight: {x: 0.3333333, y: 0.3333333, z: 0.3333333}
      - serializedVersion: 3
        time: 2.066667
        value: {x: 0, y: 0.08407172, z: 0.4851264}
        inSlope: {x: 0, y: 0, z: 0}
        outSlope: {x: 0, y: 0, z: 0}
        tangentMode: 0
        weightedMode: 0
        inWeight: {x: 0.3333333, y: 0.3333333, z: 0.3333333}
        outWeight: {x: 0.3333333, y: 0.3333333, z: 0.3333333}
      m_PreInfinity: 2
      m_PostInfinity: 2
      m_RotationOrder: 4
    path: root_ghost/body_ghost/head_ghost/face_ghost
  - curve:
      serializedVersion: 2
      m_Curve:
      - serializedVersion: 3
        time: 0
        value: {x: 0, y: 0.001869343, z: 0.05933271}
        inSlope: {x: 0, y: 0, z: 0}
        outSlope: {x: 0, y: 0, z: 0}
        tangentMode: 0
        weightedMode: 0
        inWeight: {x: 0.3333333, y: 0.3333333, z: 0.3333333}
        outWeight: {x: 0.3333333, y: 0.3333333, z: 0.3333333}
      - serializedVersion: 3
        time: 2.066667
        value: {x: 0, y: 0.001869343, z: 0.05933271}
        inSlope: {x: 0, y: 0, z: 0}
        outSlope: {x: 0, y: 0, z: 0}
        tangentMode: 0
        weightedMode: 0
        inWeight: {x: 0.3333333, y: 0.3333333, z: 0.3333333}
        outWeight: {x: 0.3333333, y: 0.3333333, z: 0.3333333}
      m_PreInfinity: 2
      m_PostInfinity: 2
      m_RotationOrder: 4
    path: root_ghost/body_ghost/head_ghost/eyes_ghost
  - curve:
      serializedVersion: 2
      m_Curve:
      - serializedVersion: 3
        time: 0
        value: {x: -0.6075585, y: 0.248122, z: 0.006982798}
        inSlope: {x: 0.0137249, y: 0.08494149, z: -0.01430837}
        outSlope: {x: 0.01407394, y: 0.109211, z: -0.01467294}
        tangentMode: 0
        weightedMode: 0
        inWeight: {x: 0.3333333, y: 0.3333333, z: 0.3333333}
        outWeight: {x: 0.3333333, y: 0.3333333, z: 0.3333333}
      - serializedVersion: 3
        time: 0.2
        value: {x: -0.605003, y: 0.2750669, z: 0.00431859}
        inSlope: {x: 0.01022872, y: 0.1502808, z: -0.01066286}
        outSlope: {x: 0.008522423, y: 0.1474813, z: -0.008885755}
        tangentMode: 0
        weightedMode: 0
        inWeight: {x: 0.3333333, y: 0.3333333, z: 0.3333333}
        outWeight: {x: 0.3333333, y: 0.3333333, z: 0.3333333}
      - serializedVersion: 3
        time: 0.2666667
        value: {x: -0.6045004, y: 0.2847123, z: 0.003794558}
        inSlope: {x: 0.006556315, y: 0.1418809, z: -0.006835201}
        outSlope: {x: 0.004327015, y: 0.13348, z: -0.004511238}
        tangentMode: 0
        weightedMode: 0
        inWeight: {x: 0.3333333, y: 0.3333333, z: 0.3333333}
        outWeight: {x: 0.3333333, y: 0.3333333, z: 0.3333333}
      - serializedVersion: 3
        time: 0.3
        value: {x: -0.6043562, y: 0.2891617, z: 0.003644184}
        inSlope: {x: 0.004327015, y: 0.13348, z: -0.004511238}
        outSlope: {x: 0.001835631, y: 0.1222783, z: -0.001913835}
        tangentMode: 0
        weightedMode: 0
        inWeight: {x: 0.3333333, y: 0.3333333, z: 0.3333333}
        outWeight: {x: 0.3333333, y: 0.3333333, z: 0.3333333}
      - serializedVersion: 3
        time: 0.3666666
        value: {x: -0.6042358, y: 0.2965742, z: 0.003522179}
        inSlope: {x: 0.001773836, y: 0.1000981, z: -0.001746316}
        outSlope: {x: 0.004276653, y: 0.1069902, z: -0.004207015}
        tangentMode: 0
        weightedMode: 0
        inWeight: {x: 0.3333333, y: 0.3333333, z: 0.3333333}
        outWeight: {x: 0.3333333, y: 0.3333333, z: 0.3333333}
      - serializedVersion: 3
        time: 0.4
        value: {x: -0.6040933, y: 0.3001405, z: 0.003381945}
        inSlope: {x: 0.004276653, y: 0.1069902, z: -0.004207015}
        outSlope: {x: 0.006614692, y: 0.1128978, z: -0.006508976}
        tangentMode: 0
        weightedMode: 0
        inWeight: {x: 0.3333333, y: 0.3333333, z: 0.3333333}
        outWeight: {x: 0.3333333, y: 0.3333333, z: 0.3333333}
      - serializedVersion: 3
        time: 0.4333333
        value: {x: -0.6038728, y: 0.3039038, z: 0.003164979}
        inSlope: {x: 0.006614692, y: 0.1128978, z: -0.006508976}
        outSlope: {x: 0.008791344, y: 0.1178208, z: -0.008652173}
        tangentMode: 0
        weightedMode: 0
        inWeight: {x: 0.3333333, y: 0.3333333, z: 0.3333333}
        outWeight: {x: 0.3333333, y: 0.3333333, z: 0.3333333}
      - serializedVersion: 3
        time: 0.4666667
        value: {x: -0.6035798, y: 0.3078311, z: 0.002876573}
        inSlope: {x: 0.008791344, y: 0.1178208, z: -0.008652173}
        outSlope: {x: 0.0108101, y: 0.121759, z: -0.01063662}
        tangentMode: 0
        weightedMode: 0
        inWeight: {x: 0.3333333, y: 0.3333333, z: 0.3333333}
        outWeight: {x: 0.3333333, y: 0.3333333, z: 0.3333333}
      - serializedVersion: 3
        time: 0.5
        value: {x: -0.6032194, y: 0.3118898, z: 0.002522019}
        inSlope: {x: 0.0108101, y: 0.121759, z: -0.01063662}
        outSlope: {x: 0.01317557, y: 0.1250409, z: -0.01296503}
        tangentMode: 0
        weightedMode: 0
        inWeight: {x: 0.3333333, y: 0.3333333, z: 0.3333333}
        outWeight: {x: 0.3333333, y: 0.3333333, z: 0.3333333}
      - serializedVersion: 3
        time: 0.5333333
        value: {x: -0.6027802, y: 0.3160578, z: 0.002089852}
        inSlope: {x: 0.01317557, y: 0.1250409, z: -0.01296503}
        outSlope: {x: 0.01470796, y: 0.1260248, z: -0.01447323}
        tangentMode: 0
        weightedMode: 0
        inWeight: {x: 0.3333333, y: 0.3333333, z: 0.3333333}
        outWeight: {x: 0.3333333, y: 0.3333333, z: 0.3333333}
      - serializedVersion: 3
        time: 0.5666666
        value: {x: -0.60229, y: 0.3202586, z: 0.001607411}
        inSlope: {x: 0.01470796, y: 0.1260248, z: -0.01447323}
        outSlope: {x: 0.01607894, y: 0.1260257, z: -0.01582261}
        tangentMode: 0
        weightedMode: 0
        inWeight: {x: 0.3333333, y: 0.3333333, z: 0.3333333}
        outWeight: {x: 0.3333333, y: 0.3333333, z: 0.3333333}
      - serializedVersion: 3
        time: 0.6
        value: {x: -0.601754, y: 0.3244595, z: 0.00107999}
        inSlope: {x: 0.01607894, y: 0.1260257, z: -0.01582261}
        outSlope: {x: 0.01728861, y: 0.1250406, z: -0.01701331}
        tangentMode: 0
        weightedMode: 0
        inWeight: {x: 0.3333333, y: 0.3333333, z: 0.3333333}
        outWeight: {x: 0.3333333, y: 0.3333333, z: 0.3333333}
      - serializedVersion: 3
        time: 0.6333333
        value: {x: -0.6011777, y: 0.3286275, z: 0.0005128804}
        inSlope: {x: 0.01728861, y: 0.1250406, z: -0.01701331}
        outSlope: {x: 0.018338, y: 0.1230719, z: -0.0180452}
        tangentMode: 0
        weightedMode: 0
        inWeight: {x: 0.3333333, y: 0.3333333, z: 0.3333333}
        outWeight: {x: 0.3333333, y: 0.3333333, z: 0.3333333}
      - serializedVersion: 3
        time: 0.6666666
        value: {x: -0.6005664, y: 0.3327299, z: -0.00008862682}
        inSlope: {x: 0.018338, y: 0.1230719, z: -0.0180452}
        outSlope: {x: 0.01941378, y: 0.1184774, z: -0.01910358}
        tangentMode: 0
        weightedMode: 0
        inWeight: {x: 0.3333333, y: 0.3333333, z: 0.3333333}
        outWeight: {x: 0.3333333, y: 0.3333333, z: 0.3333333}
      - serializedVersion: 3
        time: 0.6999999
        value: {x: -0.5999193, y: 0.3366792, z: -0.0007254122}
        inSlope: {x: 0.01941378, y: 0.1184774, z: -0.01910358}
        outSlope: {x: 0.0199779, y: 0.1135537, z: -0.0196592}
        tangentMode: 0
        weightedMode: 0
        inWeight: {x: 0.3333333, y: 0.3333333, z: 0.3333333}
        outWeight: {x: 0.3333333, y: 0.3333333, z: 0.3333333}
      - serializedVersion: 3
        time: 1.033333
        value: {x: -0.593423, y: 0.3603308, z: -0.007117969}
        inSlope: {x: 0.01640283, y: 0.01082955, z: -0.01614015}
        outSlope: {x: -0.006470495, y: -0.005885702, z: 0.006556397}
        tangentMode: 0
        weightedMode: 0
        inWeight: {x: 0.3333333, y: 0.3333333, z: 0.3333333}
        outWeight: {x: 0.3333333, y: 0.3333333, z: 0.3333333}
      - serializedVersion: 3
        time: 1.066667
        value: {x: -0.5936387, y: 0.3601346, z: -0.006899422}
        inSlope: {x: -0.006470495, y: -0.005885702, z: 0.006556397}
        outSlope: {x: -0.01409456, y: -0.02233545, z: 0.01412188}
        tangentMode: 0
        weightedMode: 0
        inWeight: {x: 0.3333333, y: 0.3333333, z: 0.3333333}
        outWeight: {x: 0.3333333, y: 0.3333333, z: 0.3333333}
      - serializedVersion: 3
        time: 2.066667
        value: {x: -0.6077335, y: 0.2442198, z: 0.007222449}
        inSlope: {x: -0.0140956, y: -0.05779803, z: 0.01412178}
        outSlope: {x: -0.01409456, y: -0.04322094, z: 0.01412188}
        tangentMode: 0
        weightedMode: 0
        inWeight: {x: 0.3333333, y: 0.3333333, z: 0.3333333}
        outWeight: {x: 0.3333333, y: 0.3333333, z: 0.3333333}
      m_PreInfinity: 2
      m_PostInfinity: 2
      m_RotationOrder: 4
    path: root_ghost/body_ghost/left_shoulder_ghost
  - curve:
      serializedVersion: 2
      m_Curve:
      - serializedVersion: 3
        time: 0
        value: {x: -0.05218506, y: -0.0794174, z: 0.2012182}
        inSlope: {x: 0, y: 0, z: 0}
        outSlope: {x: 0, y: 0, z: 0}
        tangentMode: 0
        weightedMode: 0
        inWeight: {x: 0.3333333, y: 0.3333333, z: 0.3333333}
        outWeight: {x: 0.3333333, y: 0.3333333, z: 0.3333333}
      - serializedVersion: 3
        time: 2.066667
        value: {x: -0.05218506, y: -0.0794174, z: 0.2012182}
        inSlope: {x: 0, y: 0, z: 0}
        outSlope: {x: 0, y: 0, z: 0}
        tangentMode: 0
        weightedMode: 0
        inWeight: {x: 0.3333333, y: 0.3333333, z: 0.3333333}
        outWeight: {x: 0.3333333, y: 0.3333333, z: 0.3333333}
      m_PreInfinity: 2
      m_PostInfinity: 2
      m_RotationOrder: 4
    path: root_ghost/body_ghost/left_shoulder_ghost/left_hand_ghost
  - curve:
      serializedVersion: 2
      m_Curve:
      - serializedVersion: 3
        time: 0
        value: {x: 0.6578141, y: 0.2455506, z: -0.06189411}
        inSlope: {x: 0, y: -0.07150383, z: 0}
        outSlope: {x: 0, y: -0.05322934, z: 0}
        tangentMode: 0
        weightedMode: 0
        inWeight: {x: 0.3333333, y: 0.3333333, z: 0.3333333}
        outWeight: {x: 0.3333333, y: 0.3333333, z: 0.3333333}
      - serializedVersion: 3
        time: 0.2333333
        value: {x: 0.6578141, y: 0.2467063, z: -0.06189411}
        inSlope: {x: 0, y: 0.07747428, z: 0}
        outSlope: {x: 0, y: 0.09707615, z: 0}
        tangentMode: 0
        weightedMode: 0
        inWeight: {x: 0.3333333, y: 0.3333333, z: 0.3333333}
        outWeight: {x: 0.3333333, y: 0.3333333, z: 0.3333333}
      - serializedVersion: 3
        time: 0.6333333
        value: {x: 0.6578141, y: 0.2983191, z: -0.06189411}
        inSlope: {x: 0, y: 0.1023955, z: 0}
        outSlope: {x: 0, y: 0.1092875, z: 0}
        tangentMode: 0
        weightedMode: 0
        inWeight: {x: 0.3333333, y: 0.3333333, z: 0.3333333}
        outWeight: {x: 0.3333333, y: 0.3333333, z: 0.3333333}
      - serializedVersion: 3
        time: 1.4
        value: {x: 0.6578141, y: 0.357229, z: -0.06189411}
        inSlope: {x: 0, y: -0.04822545, z: 0}
        outSlope: {x: 0, y: -0.06236692, z: 0}
        tangentMode: 0
        weightedMode: 0
        inWeight: {x: 0.3333333, y: 0.3333333, z: 0.3333333}
        outWeight: {x: 0.3333333, y: 0.3333333, z: 0.3333333}
      - serializedVersion: 3
        time: 2.066667
        value: {x: 0.6578141, y: 0.2688909, z: -0.06189411}
        inSlope: {x: 0, y: -0.1387284, z: 0}
        outSlope: {x: 0, y: -0.1319854, z: 0}
        tangentMode: 0
        weightedMode: 0
        inWeight: {x: 0.3333333, y: 0.3333333, z: 0.3333333}
        outWeight: {x: 0.3333333, y: 0.3333333, z: 0.3333333}
      m_PreInfinity: 2
      m_PostInfinity: 2
      m_RotationOrder: 4
    path: root_ghost/body_ghost/right_shoulder_ghost
  - curve:
      serializedVersion: 2
      m_Curve:
      - serializedVersion: 3
        time: 0
        value: {x: 0.07504547, y: -0.04406298, z: 0.200367}
        inSlope: {x: 0, y: 0, z: 0}
        outSlope: {x: 0, y: 0, z: 0}
        tangentMode: 0
        weightedMode: 0
        inWeight: {x: 0.3333333, y: 0.3333333, z: 0.3333333}
        outWeight: {x: 0.3333333, y: 0.3333333, z: 0.3333333}
      - serializedVersion: 3
        time: 2.066667
        value: {x: 0.07504547, y: -0.04406298, z: 0.200367}
        inSlope: {x: 0, y: 0, z: 0}
        outSlope: {x: 0, y: 0, z: 0}
        tangentMode: 0
        weightedMode: 0
        inWeight: {x: 0.3333333, y: 0.3333333, z: 0.3333333}
        outWeight: {x: 0.3333333, y: 0.3333333, z: 0.3333333}
      m_PreInfinity: 2
      m_PostInfinity: 2
      m_RotationOrder: 4
    path: root_ghost/body_ghost/right_shoulder_ghost/right_hand_ghost
  - curve:
      serializedVersion: 2
      m_Curve:
      - serializedVersion: 3
        time: 0
        value: {x: 0, y: -0.04448795, z: 0}
        inSlope: {x: 0, y: 0, z: 0}
        outSlope: {x: 0, y: 0, z: 0}
        tangentMode: 0
        weightedMode: 0
        inWeight: {x: 0.3333333, y: 0.3333333, z: 0.3333333}
        outWeight: {x: 0.3333333, y: 0.3333333, z: 0.3333333}
      - serializedVersion: 3
        time: 2.066667
        value: {x: 0, y: -0.04448795, z: 0}
        inSlope: {x: 0, y: 0, z: 0}
        outSlope: {x: 0, y: 0, z: 0}
        tangentMode: 0
        weightedMode: 0
        inWeight: {x: 0.3333333, y: 0.3333333, z: 0.3333333}
        outWeight: {x: 0.3333333, y: 0.3333333, z: 0.3333333}
      m_PreInfinity: 2
      m_PostInfinity: 2
      m_RotationOrder: 4
    path: root_ghost/body_ghost/right_shoulder_ghost/chain_01_ghost
  - curve:
      serializedVersion: 2
      m_Curve:
      - serializedVersion: 3
        time: 0
        value: {x: 0, y: -0.1542219, z: 0}
        inSlope: {x: 0, y: 0, z: 0}
        outSlope: {x: 0, y: 0, z: 0}
        tangentMode: 0
        weightedMode: 0
        inWeight: {x: 0.3333333, y: 0.3333333, z: 0.3333333}
        outWeight: {x: 0.3333333, y: 0.3333333, z: 0.3333333}
      - serializedVersion: 3
        time: 2.066667
        value: {x: 0, y: -0.1542219, z: 0}
        inSlope: {x: 0, y: 0, z: 0}
        outSlope: {x: 0, y: 0, z: 0}
        tangentMode: 0
        weightedMode: 0
        inWeight: {x: 0.3333333, y: 0.3333333, z: 0.3333333}
        outWeight: {x: 0.3333333, y: 0.3333333, z: 0.3333333}
      m_PreInfinity: 2
      m_PostInfinity: 2
      m_RotationOrder: 4
    path: root_ghost/body_ghost/right_shoulder_ghost/chain_01_ghost/chain_02_ghost
  - curve:
      serializedVersion: 2
      m_Curve:
      - serializedVersion: 3
        time: 0
        value: {x: 0, y: -0.167017, z: 0}
        inSlope: {x: 0, y: 0, z: 0}
        outSlope: {x: 0, y: 0, z: 0}
        tangentMode: 0
        weightedMode: 0
        inWeight: {x: 0.3333333, y: 0.3333333, z: 0.3333333}
        outWeight: {x: 0.3333333, y: 0.3333333, z: 0.3333333}
      - serializedVersion: 3
        time: 2.066667
        value: {x: 0, y: -0.167017, z: 0}
        inSlope: {x: 0, y: 0, z: 0}
        outSlope: {x: 0, y: 0, z: 0}
        tangentMode: 0
        weightedMode: 0
        inWeight: {x: 0.3333333, y: 0.3333333, z: 0.3333333}
        outWeight: {x: 0.3333333, y: 0.3333333, z: 0.3333333}
      m_PreInfinity: 2
      m_PostInfinity: 2
      m_RotationOrder: 4
    path: root_ghost/body_ghost/right_shoulder_ghost/chain_01_ghost/chain_02_ghost/chain_03_ghost
  - curve:
      serializedVersion: 2
      m_Curve:
      - serializedVersion: 3
        time: 0
        value: {x: 0.07218582, y: 0.116441, z: 0.3666198}
        inSlope: {x: 0, y: 0, z: 0}
        outSlope: {x: 0, y: 0, z: 0}
        tangentMode: 0
        weightedMode: 0
        inWeight: {x: 0.3333333, y: 0.3333333, z: 0.3333333}
        outWeight: {x: 0.3333333, y: 0.3333333, z: 0.3333333}
      - serializedVersion: 3
        time: 2.066667
        value: {x: 0.07218582, y: 0.116441, z: 0.3666198}
        inSlope: {x: 0, y: 0, z: 0}
        outSlope: {x: 0, y: 0, z: 0}
        tangentMode: 0
        weightedMode: 0
        inWeight: {x: 0.3333333, y: 0.3333333, z: 0.3333333}
        outWeight: {x: 0.3333333, y: 0.3333333, z: 0.3333333}
      m_PreInfinity: 2
      m_PostInfinity: 2
      m_RotationOrder: 4
    path: root_ghost/body_ghost/right_shoulder_ghost/spikeball1
  - curve:
      serializedVersion: 2
      m_Curve:
      - serializedVersion: 3
        time: 0
        value: {x: 4.666409e-10, y: 0.2671379, z: 0.3357284}
        inSlope: {x: 0, y: 0, z: 0}
        outSlope: {x: 0, y: 0, z: 0}
        tangentMode: 0
        weightedMode: 0
        inWeight: {x: 0.3333333, y: 0.3333333, z: 0.3333333}
        outWeight: {x: 0.3333333, y: 0.3333333, z: 0.3333333}
      - serializedVersion: 3
        time: 2.066667
        value: {x: 4.666409e-10, y: 0.2671379, z: 0.3357284}
        inSlope: {x: 0, y: 0, z: 0}
        outSlope: {x: 0, y: 0, z: 0}
        tangentMode: 0
        weightedMode: 0
        inWeight: {x: 0.3333333, y: 0.3333333, z: 0.3333333}
        outWeight: {x: 0.3333333, y: 0.3333333, z: 0.3333333}
      m_PreInfinity: 2
      m_PostInfinity: 2
      m_RotationOrder: 4
    path: root_ghost/body_ghost/front_01_ghost
  - curve:
      serializedVersion: 2
      m_Curve:
      - serializedVersion: 3
        time: 0
        value: {x: 0, y: -0.3027242, z: 0.02849698}
        inSlope: {x: 0, y: 0, z: 0}
        outSlope: {x: 0, y: 0, z: 0}
        tangentMode: 0
        weightedMode: 0
        inWeight: {x: 0.3333333, y: 0.3333333, z: 0.3333333}
        outWeight: {x: 0.3333333, y: 0.3333333, z: 0.3333333}
      - serializedVersion: 3
        time: 0.2333333
        value: {x: 0, y: -0.3027242, z: 0.02849698}
        inSlope: {x: 0, y: 0, z: 0}
        outSlope: {x: 0, y: 0.009959784, z: 0.0218803}
        tangentMode: 0
        weightedMode: 0
        inWeight: {x: 0.3333333, y: 0.3333333, z: 0.3333333}
        outWeight: {x: 0.3333333, y: 0.3333333, z: 0.3333333}
      - serializedVersion: 3
        time: 0.2666667
        value: {x: 0, y: -0.3023922, z: 0.02922633}
        inSlope: {x: 0, y: 0.009959784, z: 0.0218803}
        outSlope: {x: 0, y: 0.02901423, z: 0.06373843}
        tangentMode: 0
        weightedMode: 0
        inWeight: {x: 0.3333333, y: 0.3333333, z: 0.3333333}
        outWeight: {x: 0.3333333, y: 0.3333333, z: 0.3333333}
      - serializedVersion: 3
        time: 0.3
        value: {x: 0, y: -0.301425, z: 0.03135094}
        inSlope: {x: 0, y: 0.02901423, z: 0.06373843}
        outSlope: {x: 0, y: 0.05629573, z: 0.1236714}
        tangentMode: 0
        weightedMode: 0
        inWeight: {x: 0.3333333, y: 0.3333333, z: 0.3333333}
        outWeight: {x: 0.3333333, y: 0.3333333, z: 0.3333333}
      - serializedVersion: 3
        time: 0.3333333
        value: {x: 0, y: -0.2995485, z: 0.03547332}
        inSlope: {x: 0, y: 0.05629573, z: 0.1236714}
        outSlope: {x: 0, y: 0.08747472, z: 0.1921662}
        tangentMode: 0
        weightedMode: 0
        inWeight: {x: 0.3333333, y: 0.3333333, z: 0.3333333}
        outWeight: {x: 0.3333333, y: 0.3333333, z: 0.3333333}
      - serializedVersion: 3
        time: 0.3666666
        value: {x: 0, y: -0.2966327, z: 0.04187886}
        inSlope: {x: 0, y: 0.08747472, z: 0.1921662}
        outSlope: {x: 0, y: 0.1069615, z: 0.2349756}
        tangentMode: 0
        weightedMode: 0
        inWeight: {x: 0.3333333, y: 0.3333333, z: 0.3333333}
        outWeight: {x: 0.3333333, y: 0.3333333, z: 0.3333333}
      - serializedVersion: 3
        time: 0.4
        value: {x: 0, y: -0.2930673, z: 0.04971138}
        inSlope: {x: 0, y: 0.1069615, z: 0.2349756}
        outSlope: {x: 0, y: 0.1238504, z: 0.2720774}
        tangentMode: 0
        weightedMode: 0
        inWeight: {x: 0.3333333, y: 0.3333333, z: 0.3333333}
        outWeight: {x: 0.3333333, y: 0.3333333, z: 0.3333333}
      - serializedVersion: 3
        time: 0.4666667
        value: {x: 0, y: -0.2843342, z: 0.06889631}
        inSlope: {x: 0, y: 0.1381404, z: 0.3034703}
        outSlope: {x: 0, y: 0.1498331, z: 0.3291561}
        tangentMode: 0
        weightedMode: 0
        inWeight: {x: 0.3333333, y: 0.3333333, z: 0.3333333}
        outWeight: {x: 0.3333333, y: 0.3333333, z: 0.3333333}
      - serializedVersion: 3
        time: 0.7333333
        value: {x: 0, y: -0.2426033, z: 0.1605717}
        inSlope: {x: 0, y: 0.1381401, z: 0.3034702}
        outSlope: {x: 0, y: 0.1238504, z: 0.2720778}
        tangentMode: 0
        weightedMode: 0
        inWeight: {x: 0.3333333, y: 0.3333333, z: 0.3333333}
        outWeight: {x: 0.3333333, y: 0.3333333, z: 0.3333333}
      - serializedVersion: 3
        time: 0.8666667
        value: {x: 0, y: -0.2301173, z: 0.1880013}
        inSlope: {x: 0, y: 0.05629563, z: 0.1236714}
        outSlope: {x: 0, y: 0.02901423, z: 0.0637385}
        tangentMode: 0
        weightedMode: 0
        inWeight: {x: 0.3333333, y: 0.3333333, z: 0.3333333}
        outWeight: {x: 0.3333333, y: 0.3333333, z: 0.3333333}
      - serializedVersion: 3
        time: 0.9666666
        value: {x: 0, y: -0.2301173, z: 0.1880013}
        inSlope: {x: 0, y: -0.02901423, z: -0.0637385}
        outSlope: {x: 0, y: -0.05629563, z: -0.1236714}
        tangentMode: 0
        weightedMode: 0
        inWeight: {x: 0.3333333, y: 0.3333333, z: 0.3333333}
        outWeight: {x: 0.3333333, y: 0.3333333, z: 0.3333333}
      - serializedVersion: 3
        time: 1.2
        value: {x: 0, y: -0.2575433, z: 0.1277512}
        inSlope: {x: 0, y: -0.160226, z: -0.351988}
        outSlope: {x: 0, y: -0.1641233, z: -0.3605489}
        tangentMode: 0
        weightedMode: 0
        inWeight: {x: 0.3333333, y: 0.3333333, z: 0.3333333}
        outWeight: {x: 0.3333333, y: 0.3333333, z: 0.3333333}
      - serializedVersion: 3
        time: 1.366667
        value: {x: 0, y: -0.2843342, z: 0.06889629}
        inSlope: {x: 0, y: -0.1498325, z: -0.3291558}
        outSlope: {x: 0, y: -0.1381406, z: -0.3034707}
        tangentMode: 0
        weightedMode: 0
        inWeight: {x: 0.3333333, y: 0.3333333, z: 0.3333333}
        outWeight: {x: 0.3333333, y: 0.3333333, z: 0.3333333}
      - serializedVersion: 3
        time: 1.433333
        value: {x: 0, y: -0.2930673, z: 0.04971137}
        inSlope: {x: 0, y: -0.1238504, z: -0.2720771}
        outSlope: {x: 0, y: -0.1069617, z: -0.2349758}
        tangentMode: 0
        weightedMode: 0
        inWeight: {x: 0.3333333, y: 0.3333333, z: 0.3333333}
        outWeight: {x: 0.3333333, y: 0.3333333, z: 0.3333333}
      - serializedVersion: 3
        time: 1.466667
        value: {x: 0, y: -0.2966327, z: 0.04187886}
        inSlope: {x: 0, y: -0.1069617, z: -0.2349758}
        outSlope: {x: 0, y: -0.08747497, z: -0.1921661}
        tangentMode: 0
        weightedMode: 0
        inWeight: {x: 0.3333333, y: 0.3333333, z: 0.3333333}
        outWeight: {x: 0.3333333, y: 0.3333333, z: 0.3333333}
      - serializedVersion: 3
        time: 1.5
        value: {x: 0, y: -0.2995485, z: 0.0354733}
        inSlope: {x: 0, y: -0.08747497, z: -0.1921661}
        outSlope: {x: 0, y: -0.05629526, z: -0.1236713}
        tangentMode: 0
        weightedMode: 0
        inWeight: {x: 0.3333333, y: 0.3333333, z: 0.3333333}
        outWeight: {x: 0.3333333, y: 0.3333333, z: 0.3333333}
      - serializedVersion: 3
        time: 1.533333
        value: {x: 0, y: -0.301425, z: 0.03135093}
        inSlope: {x: 0, y: -0.05629526, z: -0.1236713}
        outSlope: {x: 0, y: -0.02901423, z: -0.06373829}
        tangentMode: 0
        weightedMode: 0
        inWeight: {x: 0.3333333, y: 0.3333333, z: 0.3333333}
        outWeight: {x: 0.3333333, y: 0.3333333, z: 0.3333333}
      - serializedVersion: 3
        time: 1.566667
        value: {x: 0, y: -0.3023922, z: 0.02922632}
        inSlope: {x: 0, y: -0.02901423, z: -0.06373829}
        outSlope: {x: 0, y: -0.009959802, z: -0.02188027}
        tangentMode: 0
        weightedMode: 0
        inWeight: {x: 0.3333333, y: 0.3333333, z: 0.3333333}
        outWeight: {x: 0.3333333, y: 0.3333333, z: 0.3333333}
      - serializedVersion: 3
        time: 1.6
        value: {x: 0, y: -0.3027242, z: 0.02849698}
        inSlope: {x: 0, y: -0.009959802, z: -0.02188027}
        outSlope: {x: 0, y: 0, z: 0}
        tangentMode: 0
        weightedMode: 0
        inWeight: {x: 0.3333333, y: 0.3333333, z: 0.3333333}
        outWeight: {x: 0.3333333, y: 0.3333333, z: 0.3333333}
      - serializedVersion: 3
        time: 2.066667
        value: {x: 0, y: -0.3027242, z: 0.02849698}
        inSlope: {x: 0, y: 0, z: 0}
        outSlope: {x: 0, y: 0, z: 0}
        tangentMode: 0
        weightedMode: 0
        inWeight: {x: 0.3333333, y: 0.3333333, z: 0.3333333}
        outWeight: {x: 0.3333333, y: 0.3333333, z: 0.3333333}
      m_PreInfinity: 2
      m_PostInfinity: 2
      m_RotationOrder: 4
    path: root_ghost/body_ghost/front_01_ghost/front_02_ghost
  - curve:
      serializedVersion: 2
      m_Curve:
      - serializedVersion: 3
        time: 0
        value: {x: 0, y: -0.1373534, z: 0.05987442}
        inSlope: {x: 0, y: 0, z: 0}
        outSlope: {x: 0, y: 0, z: 0}
        tangentMode: 0
        weightedMode: 0
        inWeight: {x: 0.3333333, y: 0.3333333, z: 0.3333333}
        outWeight: {x: 0.3333333, y: 0.3333333, z: 0.3333333}
      - serializedVersion: 3
        time: 2.066667
        value: {x: 0, y: -0.1373534, z: 0.05987442}
        inSlope: {x: 0, y: 0, z: 0}
        outSlope: {x: 0, y: 0, z: 0}
        tangentMode: 0
        weightedMode: 0
        inWeight: {x: 0.3333333, y: 0.3333333, z: 0.3333333}
        outWeight: {x: 0.3333333, y: 0.3333333, z: 0.3333333}
      m_PreInfinity: 2
      m_PostInfinity: 2
      m_RotationOrder: 4
    path: root_ghost/body_ghost/front_01_ghost/front_02_ghost/front_03_ghost
  - curve:
      serializedVersion: 2
      m_Curve:
      - serializedVersion: 3
        time: 0
        value: {x: 0.3332109, y: 0.2696143, z: 0.008709431}
        inSlope: {x: 0, y: 0, z: 0}
        outSlope: {x: 0, y: 0, z: 0}
        tangentMode: 0
        weightedMode: 0
        inWeight: {x: 0.3333333, y: 0.3333333, z: 0.3333333}
        outWeight: {x: 0.3333333, y: 0.3333333, z: 0.3333333}
      - serializedVersion: 3
        time: 2.066667
        value: {x: 0.3332109, y: 0.2696143, z: 0.008709431}
        inSlope: {x: 0, y: 0, z: 0}
        outSlope: {x: 0, y: 0, z: 0}
        tangentMode: 0
        weightedMode: 0
        inWeight: {x: 0.3333333, y: 0.3333333, z: 0.3333333}
        outWeight: {x: 0.3333333, y: 0.3333333, z: 0.3333333}
      m_PreInfinity: 2
      m_PostInfinity: 2
      m_RotationOrder: 4
    path: root_ghost/body_ghost/right_01_ghost
  - curve:
      serializedVersion: 2
      m_Curve:
      - serializedVersion: 3
        time: 0
        value: {x: 0.03097202, y: -0.3027242, z: 0}
        inSlope: {x: 0.3334332, y: -0.1231625, z: 0}
        outSlope: {x: 0.3024907, y: 0.09469472, z: 0}
        tangentMode: 0
        weightedMode: 0
        inWeight: {x: 0.3333333, y: 0.3333333, z: 0.3333333}
        outWeight: {x: 0.3333333, y: 0.3333333, z: 0.3333333}
      - serializedVersion: 3
        time: 0.03333333
        value: {x: 0.04105504, y: -0.2995676, z: 0}
        inSlope: {x: 0.3024907, y: 0.09469472, z: 0}
        outSlope: {x: 0.3288367, y: 0.1029425, z: 0}
        tangentMode: 0
        weightedMode: 0
        inWeight: {x: 0.3333333, y: 0.3333333, z: 0.3333333}
        outWeight: {x: 0.3333333, y: 0.3333333, z: 0.3333333}
      - serializedVersion: 3
        time: 0.1666667
        value: {x: 0.08821759, y: -0.2848034, z: 0}
        inSlope: {x: 0.3727468, y: 0.1166885, z: 0}
        outSlope: {x: 0.3727466, y: 0.1166884, z: 0}
        tangentMode: 0
        weightedMode: 0
        inWeight: {x: 0.3333333, y: 0.3333333, z: 0.3333333}
        outWeight: {x: 0.3333333, y: 0.3333333, z: 0.3333333}
      - serializedVersion: 3
        time: 0.3666666
        value: {x: 0.1539849, y: -0.2642149, z: 0}
        inSlope: {x: 0.2556535, y: 0.08003262, z: 0}
        outSlope: {x: 0.2117433, y: 0.06628641, z: 0}
        tangentMode: 0
        weightedMode: 0
        inWeight: {x: 0.3333333, y: 0.3333333, z: 0.3333333}
        outWeight: {x: 0.3333333, y: 0.3333333, z: 0.3333333}
      - serializedVersion: 3
        time: 0.4666667
        value: {x: 0.1699877, y: -0.2592052, z: 0}
        inSlope: {x: 0.1063596, y: 0.03329599, z: 0}
        outSlope: {x: 0.04488549, y: 0.01405164, z: 0}
        tangentMode: 0
        weightedMode: 0
        inWeight: {x: 0.3333333, y: 0.3333333, z: 0.3333333}
        outWeight: {x: 0.3333333, y: 0.3333333, z: 0.3333333}
      - serializedVersion: 3
        time: 1.133333
        value: {x: 0.04119813, y: -0.2549658, z: 0}
        inSlope: {x: -0.3146081, y: 0.00910604, z: 0}
        outSlope: {x: -0.3164651, y: 0.00915986, z: 0}
        tangentMode: 0
        weightedMode: 0
        inWeight: {x: 0.3333333, y: 0.3333333, z: 0.3333333}
        outWeight: {x: 0.3333333, y: 0.3333333, z: 0.3333333}
      - serializedVersion: 3
        time: 1.266667
        value: {x: -0.0007702963, y: -0.253751, z: 0}
        inSlope: {x: -0.3115144, y: 0.009016236, z: 0}
        outSlope: {x: -0.3071817, y: 0.008891495, z: 0}
        tangentMode: 0
        weightedMode: 0
        inWeight: {x: 0.3333333, y: 0.3333333, z: 0.3333333}
        outWeight: {x: 0.3333333, y: 0.3333333, z: 0.3333333}
      - serializedVersion: 3
        time: 1.333333
        value: {x: -0.02106338, y: -0.2531636, z: 0}
        inSlope: {x: -0.3016115, y: 0.008730134, z: 0}
        outSlope: {x: -0.291709, y: 0.008443429, z: 0}
        tangentMode: 0
        weightedMode: 0
        inWeight: {x: 0.3333333, y: 0.3333333, z: 0.3333333}
        outWeight: {x: 0.3333333, y: 0.3333333, z: 0.3333333}
      - serializedVersion: 3
        time: 1.466667
        value: {x: -0.0579362, y: -0.2520964, z: 0}
        inSlope: {x: -0.2601453, y: 0.007529647, z: 0}
        outSlope: {x: -0.247148, y: 0.007153683, z: 0}
        tangentMode: 0
        weightedMode: 0
        inWeight: {x: 0.3333333, y: 0.3333333, z: 0.3333333}
        outWeight: {x: 0.3333333, y: 0.3333333, z: 0.3333333}
      - serializedVersion: 3
        time: 1.633333
        value: {x: -0.09297982, y: -0.251082, z: 0}
        inSlope: {x: -0.1734986, y: 0.005021654, z: 0}
        outSlope: {x: -0.1530752, y: 0.004430584, z: 0}
        tangentMode: 0
        weightedMode: 0
        inWeight: {x: 0.3333333, y: 0.3333333, z: 0.3333333}
        outWeight: {x: 0.3333333, y: 0.3333333, z: 0.3333333}
      - serializedVersion: 3
        time: 1.8
        value: {x: -0.1095389, y: -0.2506027, z: 0}
        inSlope: {x: -0.04724263, y: 0.001366988, z: 0}
        outSlope: {x: -0.01939232, y: 0.0005613332, z: 0}
        tangentMode: 0
        weightedMode: 0
        inWeight: {x: 0.3333333, y: 0.3333333, z: 0.3333333}
        outWeight: {x: 0.3333333, y: 0.3333333, z: 0.3333333}
      - serializedVersion: 3
        time: 1.833333
        value: {x: -0.1101853, y: -0.250584, z: 0}
        inSlope: {x: -0.01939232, y: 0.0005613332, z: 0}
        outSlope: {x: 0.05345054, y: -0.01974337, z: 0}
        tangentMode: 0
        weightedMode: 0
        inWeight: {x: 0.3333333, y: 0.3333333, z: 0.3333333}
        outWeight: {x: 0.3333333, y: 0.3333333, z: 0.3333333}
      - serializedVersion: 3
        time: 1.866667
        value: {x: -0.1084036, y: -0.2512421, z: 0}
        inSlope: {x: 0.05345054, y: -0.01974337, z: 0}
        outSlope: {x: 0.1259919, y: -0.04653858, z: 0}
        tangentMode: 0
        weightedMode: 0
        inWeight: {x: 0.3333333, y: 0.3333333, z: 0.3333333}
        outWeight: {x: 0.3333333, y: 0.3333333, z: 0.3333333}
      - serializedVersion: 3
        time: 1.9
        value: {x: -0.1042039, y: -0.2527934, z: 0}
        inSlope: {x: 0.1259919, y: -0.04653858, z: 0}
        outSlope: {x: 0.1908968, y: -0.07051284, z: 0}
        tangentMode: 0
        weightedMode: 0
        inWeight: {x: 0.3333333, y: 0.3333333, z: 0.3333333}
        outWeight: {x: 0.3333333, y: 0.3333333, z: 0.3333333}
      - serializedVersion: 3
        time: 1.966667
        value: {x: -0.08956849, y: -0.2581994, z: 0}
        inSlope: {x: 0.2481656, y: -0.09166612, z: 0}
        outSlope: {x: 0.2977977, y: -0.109999, z: 0}
        tangentMode: 0
        weightedMode: 0
        inWeight: {x: 0.3333333, y: 0.3333333, z: 0.3333333}
        outWeight: {x: 0.3333333, y: 0.3333333, z: 0.3333333}
      - serializedVersion: 3
        time: 2
        value: {x: -0.07964191, y: -0.261866, z: 0}
        inSlope: {x: 0.2977977, y: -0.109999, z: 0}
        outSlope: {x: 0.3487051, y: -0.1288034, z: 0}
        tangentMode: 0
        weightedMode: 0
        inWeight: {x: 0.3333333, y: 0.3333333, z: 0.3333333}
        outWeight: {x: 0.3333333, y: 0.3333333, z: 0.3333333}
      - serializedVersion: 3
        time: 2.066667
        value: {x: -0.05550407, y: -0.270782, z: 0}
        inSlope: {x: 0.3754281, y: -0.1386741, z: 0}
        outSlope: {x: 0.3945193, y: -0.1457263, z: 0}
        tangentMode: 0
        weightedMode: 0
        inWeight: {x: 0.3333333, y: 0.3333333, z: 0.3333333}
        outWeight: {x: 0.3333333, y: 0.3333333, z: 0.3333333}
      m_PreInfinity: 2
      m_PostInfinity: 2
      m_RotationOrder: 4
    path: root_ghost/body_ghost/right_01_ghost/right_02_ghost
  - curve:
      serializedVersion: 2
      m_Curve:
      - serializedVersion: 3
        time: 0
        value: {x: 0.05965604, y: -0.1373534, z: 0}
        inSlope: {x: 0, y: 0, z: 0}
        outSlope: {x: 0, y: 0, z: 0}
        tangentMode: 0
        weightedMode: 0
        inWeight: {x: 0.3333333, y: 0.3333333, z: 0.3333333}
        outWeight: {x: 0.3333333, y: 0.3333333, z: 0.3333333}
      - serializedVersion: 3
        time: 2.066667
        value: {x: 0.05965604, y: -0.1373534, z: 0}
        inSlope: {x: 0, y: 0, z: 0}
        outSlope: {x: 0, y: 0, z: 0}
        tangentMode: 0
        weightedMode: 0
        inWeight: {x: 0.3333333, y: 0.3333333, z: 0.3333333}
        outWeight: {x: 0.3333333, y: 0.3333333, z: 0.3333333}
      m_PreInfinity: 2
      m_PostInfinity: 2
      m_RotationOrder: 4
    path: root_ghost/body_ghost/right_01_ghost/right_02_ghost/right_03_ghost
  - curve:
      serializedVersion: 2
      m_Curve:
      - serializedVersion: 3
        time: 0
        value: {x: 0, y: 0.2610344, z: -0.3555054}
        inSlope: {x: 0, y: 0, z: 0}
        outSlope: {x: 0, y: 0, z: 0}
        tangentMode: 0
        weightedMode: 0
        inWeight: {x: 0.3333333, y: 0.3333333, z: 0.3333333}
        outWeight: {x: 0.3333333, y: 0.3333333, z: 0.3333333}
      - serializedVersion: 3
        time: 2.066667
        value: {x: 0, y: 0.2610344, z: -0.3555054}
        inSlope: {x: 0, y: 0, z: 0}
        outSlope: {x: 0, y: 0, z: 0}
        tangentMode: 0
        weightedMode: 0
        inWeight: {x: 0.3333333, y: 0.3333333, z: 0.3333333}
        outWeight: {x: 0.3333333, y: 0.3333333, z: 0.3333333}
      m_PreInfinity: 2
      m_PostInfinity: 2
      m_RotationOrder: 4
    path: root_ghost/body_ghost/back_01_ghost
  - curve:
      serializedVersion: 2
      m_Curve:
      - serializedVersion: 3
        time: 0
        value: {x: 6.617445e-26, y: -0.3027242, z: 0.04076519}
        inSlope: {x: 0, y: 0, z: 0.5738372}
        outSlope: {x: 0, y: 0, z: 0.5924478}
        tangentMode: 0
        weightedMode: 0
        inWeight: {x: 0.3333333, y: 0.3333333, z: 0.3333333}
        outWeight: {x: 0.3333333, y: 0.3333333, z: 0.3333333}
      - serializedVersion: 3
        time: 0.2
        value: {x: 6.617445e-26, y: -0.3027242, z: 0.1524308}
        inSlope: {x: 0, y: 0, z: 0.4807822}
        outSlope: {x: 0, y: 0, z: 0.4249493}
        tangentMode: 0
        weightedMode: 0
        inWeight: {x: 0.3333333, y: 0.3333333, z: 0.3333333}
        outWeight: {x: 0.3333333, y: 0.3333333, z: 0.3333333}
      - serializedVersion: 3
        time: 0.3
        value: {x: 6.617445e-26, y: -0.3027242, z: 0.1881017}
        inSlope: {x: 0, y: 0, z: 0.2853678}
        outSlope: {x: 0, y: 0, z: 0.2016184}
        tangentMode: 0
        weightedMode: 0
        inWeight: {x: 0.3333333, y: 0.3333333, z: 0.3333333}
        outWeight: {x: 0.3333333, y: 0.3333333, z: 0.3333333}
      - serializedVersion: 3
        time: 0.3333333
        value: {x: 6.617445e-26, y: -0.3027242, z: 0.1948223}
        inSlope: {x: 0, y: 0, z: 0.2016184}
        outSlope: {x: 0, y: 0, z: 0.07134139}
        tangentMode: 0
        weightedMode: 0
        inWeight: {x: 0.3333333, y: 0.3333333, z: 0.3333333}
        outWeight: {x: 0.3333333, y: 0.3333333, z: 0.3333333}
      - serializedVersion: 3
        time: 0.4
        value: {x: 6.617445e-26, y: -0.3027242, z: 0.19629}
        inSlope: {x: 0, y: 0, z: -0.02731016}
        outSlope: {x: 0, y: 0, z: -0.1151557}
        tangentMode: 0
        weightedMode: 0
        inWeight: {x: 0.3333333, y: 0.3333333, z: 0.3333333}
        outWeight: {x: 0.3333333, y: 0.3333333, z: 0.3333333}
      - serializedVersion: 3
        time: 0.5
        value: {x: 6.617445e-26, y: -0.3027242, z: 0.1771847}
        inSlope: {x: 0, y: 0, z: -0.264333}
        outSlope: {x: 0, y: 0, z: -0.3428481}
        tangentMode: 0
        weightedMode: 0
        inWeight: {x: 0.3333333, y: 0.3333333, z: 0.3333333}
        outWeight: {x: 0.3333333, y: 0.3333333, z: 0.3333333}
      - serializedVersion: 3
        time: 0.6333333
        value: {x: 6.617445e-26, y: -0.3027242, z: 0.1230967}
        inSlope: {x: 0, y: 0, z: -0.4606208}
        outSlope: {x: 0, y: 0, z: -0.4841745}
        tangentMode: 0
        weightedMode: 0
        inWeight: {x: 0.3333333, y: 0.3333333, z: 0.3333333}
        outWeight: {x: 0.3333333, y: 0.3333333, z: 0.3333333}
      - serializedVersion: 3
        time: 0.8
        value: {x: 6.617445e-26, y: -0.3027242, z: 0.04135405}
        inSlope: {x: 0, y: 0, z: -0.4763233}
        outSlope: {x: 0, y: 0, z: -0.452769}
        tangentMode: 0
        weightedMode: 0
        inWeight: {x: 0.3333333, y: 0.3333333, z: 0.3333333}
        outWeight: {x: 0.3333333, y: 0.3333333, z: 0.3333333}
      - serializedVersion: 3
        time: 0.8333333
        value: {x: 6.617445e-26, y: -0.3027242, z: 0.02626176}
        inSlope: {x: 0, y: 0, z: -0.452769}
        outSlope: {x: 0, y: 0, z: -0.4056597}
        tangentMode: 0
        weightedMode: 0
        inWeight: {x: 0.3333333, y: 0.3333333, z: 0.3333333}
        outWeight: {x: 0.3333333, y: 0.3333333, z: 0.3333333}
      - serializedVersion: 3
        time: 0.8666667
        value: {x: 6.617445e-26, y: -0.3027242, z: 0.01273974}
        inSlope: {x: 0, y: 0, z: -0.4056597}
        outSlope: {x: 0, y: 0, z: -0.3585514}
        tangentMode: 0
        weightedMode: 0
        inWeight: {x: 0.3333333, y: 0.3333333, z: 0.3333333}
        outWeight: {x: 0.3333333, y: 0.3333333, z: 0.3333333}
      - serializedVersion: 3
        time: 0.9
        value: {x: 6.617445e-26, y: -0.3027242, z: 0.0007880349}
        inSlope: {x: 0, y: 0, z: -0.3585514}
        outSlope: {x: 0, y: 0, z: -0.3035907}
        tangentMode: 0
        weightedMode: 0
        inWeight: {x: 0.3333333, y: 0.3333333, z: 0.3333333}
        outWeight: {x: 0.3333333, y: 0.3333333, z: 0.3333333}
      - serializedVersion: 3
        time: 0.9333333
        value: {x: 6.617445e-26, y: -0.3027242, z: -0.009331645}
        inSlope: {x: 0, y: 0, z: -0.3035907}
        outSlope: {x: 0, y: 0, z: -0.240779}
        tangentMode: 0
        weightedMode: 0
        inWeight: {x: 0.3333333, y: 0.3333333, z: 0.3333333}
        outWeight: {x: 0.3333333, y: 0.3333333, z: 0.3333333}
      - serializedVersion: 3
        time: 0.9666666
        value: {x: 6.617445e-26, y: -0.3027242, z: -0.0173576}
        inSlope: {x: 0, y: 0, z: -0.240779}
        outSlope: {x: 0, y: 0, z: -0.1701154}
        tangentMode: 0
        weightedMode: 0
        inWeight: {x: 0.3333333, y: 0.3333333, z: 0.3333333}
        outWeight: {x: 0.3333333, y: 0.3333333, z: 0.3333333}
      - serializedVersion: 3
        time: 1
        value: {x: 6.617445e-26, y: -0.3027242, z: -0.02302813}
        inSlope: {x: 0, y: 0, z: -0.1701154}
        outSlope: {x: 0, y: 0, z: -0.06019469}
        tangentMode: 0
        weightedMode: 0
        inWeight: {x: 0.3333333, y: 0.3333333, z: 0.3333333}
        outWeight: {x: 0.3333333, y: 0.3333333, z: 0.3333333}
      - serializedVersion: 3
        time: 1.066667
        value: {x: 6.617445e-26, y: -0.3027242, z: -0.02682479}
        inSlope: {x: 0, y: 0, z: -0.0537051}
        outSlope: {x: 0, y: 0, z: -0.09860231}
        tangentMode: 0
        weightedMode: 0
        inWeight: {x: 0.3333333, y: 0.3333333, z: 0.3333333}
        outWeight: {x: 0.3333333, y: 0.3333333, z: 0.3333333}
      - serializedVersion: 3
        time: 1.1
        value: {x: 6.617445e-26, y: -0.3027242, z: -0.03011153}
        inSlope: {x: 0, y: 0, z: -0.09860231}
        outSlope: {x: 0, y: 0, z: -0.1658307}
        tangentMode: 0
        weightedMode: 0
        inWeight: {x: 0.3333333, y: 0.3333333, z: 0.3333333}
        outWeight: {x: 0.3333333, y: 0.3333333, z: 0.3333333}
      - serializedVersion: 3
        time: 1.133333
        value: {x: 6.617445e-26, y: -0.3027242, z: -0.03563923}
        inSlope: {x: 0, y: 0, z: -0.1658307}
        outSlope: {x: 0, y: 0, z: -0.2263367}
        tangentMode: 0
        weightedMode: 0
        inWeight: {x: 0.3333333, y: 0.3333333, z: 0.3333333}
        outWeight: {x: 0.3333333, y: 0.3333333, z: 0.3333333}
      - serializedVersion: 3
        time: 1.166667
        value: {x: 6.617445e-26, y: -0.3027242, z: -0.04318378}
        inSlope: {x: 0, y: 0, z: -0.2263367}
        outSlope: {x: 0, y: 0, z: -0.2935655}
        tangentMode: 0
        weightedMode: 0
        inWeight: {x: 0.3333333, y: 0.3333333, z: 0.3333333}
        outWeight: {x: 0.3333333, y: 0.3333333, z: 0.3333333}
      - serializedVersion: 3
        time: 1.2
        value: {x: 6.617445e-26, y: -0.3027242, z: -0.05296929}
        inSlope: {x: 0, y: 0, z: -0.2935655}
        outSlope: {x: 0, y: 0, z: -0.3339022}
        tangentMode: 0
        weightedMode: 0
        inWeight: {x: 0.3333333, y: 0.3333333, z: 0.3333333}
        outWeight: {x: 0.3333333, y: 0.3333333, z: 0.3333333}
      - serializedVersion: 3
        time: 1.266667
        value: {x: 6.617445e-26, y: -0.3027242, z: -0.07634997}
        inSlope: {x: 0, y: 0, z: -0.3675176}
        outSlope: {x: 0, y: 0, z: -0.3944087}
        tangentMode: 0
        weightedMode: 0
        inWeight: {x: 0.3333333, y: 0.3333333, z: 0.3333333}
        outWeight: {x: 0.3333333, y: 0.3333333, z: 0.3333333}
      - serializedVersion: 3
        time: 1.533333
        value: {x: 6.617445e-26, y: -0.3027242, z: -0.1839907}
        inSlope: {x: 0, y: 0, z: -0.3473485}
        outSlope: {x: 0, y: 0, z: -0.3070115}
        tangentMode: 0
        weightedMode: 0
        inWeight: {x: 0.3333333, y: 0.3333333, z: 0.3333333}
        outWeight: {x: 0.3333333, y: 0.3333333, z: 0.3333333}
      - serializedVersion: 3
        time: 1.666667
        value: {x: 6.617445e-26, y: -0.3027242, z: -0.2146171}
        inSlope: {x: 0, y: 0, z: -0.1456623}
        outSlope: {x: 0, y: 0, z: -0.05154195}
        tangentMode: 0
        weightedMode: 0
        inWeight: {x: 0.3333333, y: 0.3333333, z: 0.3333333}
        outWeight: {x: 0.3333333, y: 0.3333333, z: 0.3333333}
      - serializedVersion: 3
        time: 1.766667
        value: {x: 6.617445e-26, y: -0.3027242, z: -0.2103569}
        inSlope: {x: 0, y: 0, z: 0.1379255}
        outSlope: {x: 0, y: 0, z: 0.2310244}
        tangentMode: 0
        weightedMode: 0
        inWeight: {x: 0.3333333, y: 0.3333333, z: 0.3333333}
        outWeight: {x: 0.3333333, y: 0.3333333, z: 0.3333333}
      - serializedVersion: 3
        time: 1.833333
        value: {x: 6.617445e-26, y: -0.3027242, z: -0.1921967}
        inSlope: {x: 0, y: 0, z: 0.3137824}
        outSlope: {x: 0, y: 0, z: 0.4034321}
        tangentMode: 0
        weightedMode: 0
        inWeight: {x: 0.3333333, y: 0.3333333, z: 0.3333333}
        outWeight: {x: 0.3333333, y: 0.3333333, z: 0.3333333}
      - serializedVersion: 3
        time: 2
        value: {x: 6.617445e-26, y: -0.3027242, z: -0.1111653}
        inSlope: {x: 0, y: 0, z: 0.5482538}
        outSlope: {x: 0, y: 0, z: 0.5551531}
        tangentMode: 0
        weightedMode: 0
        inWeight: {x: 0.3333333, y: 0.3333333, z: 0.3333333}
        outWeight: {x: 0.3333333, y: 0.3333333, z: 0.3333333}
      - serializedVersion: 3
        time: 2.066667
        value: {x: 6.617445e-26, y: -0.3027242, z: -0.07449991}
        inSlope: {x: 0, y: 0, z: 0.544805}
        outSlope: {x: 0, y: 0, z: 0.5241184}
        tangentMode: 0
        weightedMode: 0
        inWeight: {x: 0.3333333, y: 0.3333333, z: 0.3333333}
        outWeight: {x: 0.3333333, y: 0.3333333, z: 0.3333333}
      m_PreInfinity: 2
      m_PostInfinity: 2
      m_RotationOrder: 4
    path: root_ghost/body_ghost/back_01_ghost/back_02_ghost
  - curve:
      serializedVersion: 2
      m_Curve:
      - serializedVersion: 3
        time: 0
        value: {x: 0, y: -0.1373534, z: -0.0712165}
        inSlope: {x: 0, y: 0, z: 0}
        outSlope: {x: 0, y: 0, z: 0}
        tangentMode: 0
        weightedMode: 0
        inWeight: {x: 0.3333333, y: 0.3333333, z: 0.3333333}
        outWeight: {x: 0.3333333, y: 0.3333333, z: 0.3333333}
      - serializedVersion: 3
        time: 2.066667
        value: {x: 0, y: -0.1373534, z: -0.0712165}
        inSlope: {x: 0, y: 0, z: 0}
        outSlope: {x: 0, y: 0, z: 0}
        tangentMode: 0
        weightedMode: 0
        inWeight: {x: 0.3333333, y: 0.3333333, z: 0.3333333}
        outWeight: {x: 0.3333333, y: 0.3333333, z: 0.3333333}
      m_PreInfinity: 2
      m_PostInfinity: 2
      m_RotationOrder: 4
    path: root_ghost/body_ghost/back_01_ghost/back_02_ghost/back_03_ghost
  - curve:
      serializedVersion: 2
      m_Curve:
      - serializedVersion: 3
        time: 0
        value: {x: -0.335512, y: 0.2696143, z: 0.008709431}
        inSlope: {x: 0, y: 0, z: 0}
        outSlope: {x: 0, y: 0, z: 0}
        tangentMode: 0
        weightedMode: 0
        inWeight: {x: 0.3333333, y: 0.3333333, z: 0.3333333}
        outWeight: {x: 0.3333333, y: 0.3333333, z: 0.3333333}
      - serializedVersion: 3
        time: 2.066667
        value: {x: -0.335512, y: 0.2696143, z: 0.008709431}
        inSlope: {x: 0, y: 0, z: 0}
        outSlope: {x: 0, y: 0, z: 0}
        tangentMode: 0
        weightedMode: 0
        inWeight: {x: 0.3333333, y: 0.3333333, z: 0.3333333}
        outWeight: {x: 0.3333333, y: 0.3333333, z: 0.3333333}
      m_PreInfinity: 2
      m_PostInfinity: 2
      m_RotationOrder: 4
    path: root_ghost/body_ghost/left_01_ghost
  - curve:
      serializedVersion: 2
      m_Curve:
      - serializedVersion: 3
        time: 0
        value: {x: 0.01800144, y: -0.2899443, z: 1.110223e-18}
        inSlope: {x: 0.3533273, y: 0.1106094, z: 0}
        outSlope: {x: 0.3647863, y: 0.1141966, z: 0}
        tangentMode: 0
        weightedMode: 0
        inWeight: {x: 0.3333333, y: 0.3333333, z: 0.3333333}
        outWeight: {x: 0.3333333, y: 0.3333333, z: 0.3333333}
      - serializedVersion: 3
        time: 0.1666667
        value: {x: 0.07688929, y: -0.2715094, z: 1.110223e-18}
        inSlope: {x: 0.3304085, y: 0.1034346, z: 0}
        outSlope: {x: 0.2960305, y: 0.09267303, z: 0}
        tangentMode: 0
        weightedMode: 0
        inWeight: {x: 0.3333333, y: 0.3333333, z: 0.3333333}
        outWeight: {x: 0.3333333, y: 0.3333333, z: 0.3333333}
      - serializedVersion: 3
        time: 0.2666667
        value: {x: 0.1028636, y: -0.2633781, z: 1.110223e-18}
        inSlope: {x: 0.2215454, y: 0.06935515, z: 0}
        outSlope: {x: 0.1757087, y: 0.05500551, z: 0}
        tangentMode: 0
        weightedMode: 0
        inWeight: {x: 0.3333333, y: 0.3333333, z: 0.3333333}
        outWeight: {x: 0.3333333, y: 0.3333333, z: 0.3333333}
      - serializedVersion: 3
        time: 0.3333333
        value: {x: 0.1128586, y: -0.2602492, z: 1.110223e-18}
        inSlope: {x: 0.124142, y: 0.03886296, z: 0}
        outSlope: {x: 0.04392704, y: 0.01375181, z: 0}
        tangentMode: 0
        weightedMode: 0
        inWeight: {x: 0.3333333, y: 0.3333333, z: 0.3333333}
        outWeight: {x: 0.3333333, y: 0.3333333, z: 0.3333333}
      - serializedVersion: 3
        time: 0.4333333
        value: {x: 0.1128956, y: -0.2595969, z: 1.110223e-18}
        inSlope: {x: -0.0388965, y: 0.001720621, z: 0}
        outSlope: {x: -0.06680053, y: 0.002955434, z: 0}
        tangentMode: 0
        weightedMode: 0
        inWeight: {x: 0.3333333, y: 0.3333333, z: 0.3333333}
        outWeight: {x: 0.3333333, y: 0.3333333, z: 0.3333333}
      - serializedVersion: 3
        time: 0.5333333
        value: {x: 0.1033406, y: -0.2591741, z: 1.110223e-18}
        inSlope: {x: -0.1264133, y: 0.005592723, z: 0}
        outSlope: {x: -0.1492443, y: 0.006602675, z: 0}
        tangentMode: 0
        weightedMode: 0
        inWeight: {x: 0.3333333, y: 0.3333333, z: 0.3333333}
        outWeight: {x: 0.3333333, y: 0.3333333, z: 0.3333333}
      - serializedVersion: 3
        time: 0.6999999
        value: {x: 0.07153289, y: -0.2577669, z: 1.110223e-18}
        inSlope: {x: -0.2329559, y: 0.01030656, z: 0}
        outSlope: {x: -0.2481761, y: 0.01098001, z: 0}
        tangentMode: 0
        weightedMode: 0
        inWeight: {x: 0.3333333, y: 0.3333333, z: 0.3333333}
        outWeight: {x: 0.3333333, y: 0.3333333, z: 0.3333333}
      - serializedVersion: 3
        time: 0.8666667
        value: {x: 0.02585772, y: -0.2557462, z: 1.110223e-18}
        inSlope: {x: -0.2989106, y: 0.01322419, z: 0}
        outSlope: {x: -0.3065212, y: 0.01356069, z: 0}
        tangentMode: 0
        weightedMode: 0
        inWeight: {x: 0.3333333, y: 0.3333333, z: 0.3333333}
        outWeight: {x: 0.3333333, y: 0.3333333, z: 0.3333333}
      - serializedVersion: 3
        time: 0.9333333
        value: {x: 0.005211605, y: -0.2548327, z: 1.110223e-18}
        inSlope: {x: -0.3128628, y: 0.01384164, z: 0}
        outSlope: {x: -0.3179365, y: 0.01406652, z: 0}
        tangentMode: 0
        weightedMode: 0
        inWeight: {x: 0.3333333, y: 0.3333333, z: 0.3333333}
        outWeight: {x: 0.3333333, y: 0.3333333, z: 0.3333333}
      - serializedVersion: 3
        time: 0.9666666
        value: {x: -0.005386267, y: -0.2543639, z: 1.110223e-18}
        inSlope: {x: -0.3179365, y: 0.01406652, z: 0}
        outSlope: {x: -0.3217411, y: 0.01423412, z: 0}
        tangentMode: 0
        weightedMode: 0
        inWeight: {x: 0.3333333, y: 0.3333333, z: 0.3333333}
        outWeight: {x: 0.3333333, y: 0.3333333, z: 0.3333333}
      - serializedVersion: 3
        time: 1.3
        value: {x: -0.1092511, y: -0.2497687, z: 1.110223e-18}
        inSlope: {x: -0.2824221, y: 0.01249467, z: 0}
        outSlope: {x: -0.2710069, y: 0.01198999, z: 0}
        tangentMode: 0
        weightedMode: 0
        inWeight: {x: 0.3333333, y: 0.3333333, z: 0.3333333}
        outWeight: {x: 0.3333333, y: 0.3333333, z: 0.3333333}
      - serializedVersion: 3
        time: 1.566667
        value: {x: -0.1646926, y: -0.2473159, z: 1.110223e-18}
        inSlope: {x: -0.1340236, y: 0.005929189, z: 0}
        outSlope: {x: -0.1099252, y: 0.004863171, z: 0}
        tangentMode: 0
        weightedMode: 0
        inWeight: {x: 0.3333333, y: 0.3333333, z: 0.3333333}
        outWeight: {x: 0.3333333, y: 0.3333333, z: 0.3333333}
      - serializedVersion: 3
        time: 1.733333
        value: {x: -0.1725036, y: -0.2474354, z: 1.110223e-18}
        inSlope: {x: 0.03794693, y: -0.01563207, z: 0}
        outSlope: {x: 0.1089913, y: -0.04025863, z: 0}
        tangentMode: 0
        weightedMode: 0
        inWeight: {x: 0.3333333, y: 0.3333333, z: 0.3333333}
        outWeight: {x: 0.3333333, y: 0.3333333, z: 0.3333333}
      - serializedVersion: 3
        time: 1.833333
        value: {x: -0.15452, y: -0.2540781, z: 1.110223e-18}
        inSlope: {x: 0.2479556, y: -0.09158887, z: 0}
        outSlope: {x: 0.3187987, y: -0.1177564, z: 0}
        tangentMode: 0
        weightedMode: 0
        inWeight: {x: 0.3333333, y: 0.3333333, z: 0.3333333}
        outWeight: {x: 0.3333333, y: 0.3333333, z: 0.3333333}
      - serializedVersion: 3
        time: 2
        value: {x: -0.09048766, y: -0.2777301, z: 1.110223e-18}
        inSlope: {x: 0.4332394, y: -0.160028, z: 0}
        outSlope: {x: 0.4386912, y: -0.1620422, z: 0}
        tangentMode: 0
        weightedMode: 0
        inWeight: {x: 0.3333333, y: 0.3333333, z: 0.3333333}
        outWeight: {x: 0.3333333, y: 0.3333333, z: 0.3333333}
      - serializedVersion: 3
        time: 2.066667
        value: {x: -0.06151408, y: -0.2884323, z: 1.110223e-18}
        inSlope: {x: 0.4305139, y: -0.1590215, z: 0}
        outSlope: {x: 0.4141671, y: -0.152983, z: 0}
        tangentMode: 0
        weightedMode: 0
        inWeight: {x: 0.3333333, y: 0.3333333, z: 0.3333333}
        outWeight: {x: 0.3333333, y: 0.3333333, z: 0.3333333}
      m_PreInfinity: 2
      m_PostInfinity: 2
      m_RotationOrder: 4
    path: root_ghost/body_ghost/left_01_ghost/left_02_ghost
  - curve:
      serializedVersion: 2
      m_Curve:
      - serializedVersion: 3
        time: 0
        value: {x: -0.04967925, y: -0.1373534, z: 0}
        inSlope: {x: 0, y: 0, z: 0}
        outSlope: {x: 0, y: 0, z: 0}
        tangentMode: 0
        weightedMode: 0
        inWeight: {x: 0.3333333, y: 0.3333333, z: 0.3333333}
        outWeight: {x: 0.3333333, y: 0.3333333, z: 0.3333333}
      - serializedVersion: 3
        time: 2.066667
        value: {x: -0.04967925, y: -0.1373534, z: 0}
        inSlope: {x: 0, y: 0, z: 0}
        outSlope: {x: 0, y: 0, z: 0}
        tangentMode: 0
        weightedMode: 0
        inWeight: {x: 0.3333333, y: 0.3333333, z: 0.3333333}
        outWeight: {x: 0.3333333, y: 0.3333333, z: 0.3333333}
      m_PreInfinity: 2
      m_PostInfinity: 2
      m_RotationOrder: 4
    path: root_ghost/body_ghost/left_01_ghost/left_02_ghost/left_03_ghost
  m_ScaleCurves:
  - curve:
      serializedVersion: 2
      m_Curve:
      - serializedVersion: 3
        time: 0
        value: {x: 0.9999999, y: 0.9999999, z: 0.9999999}
        inSlope: {x: 0, y: 0, z: 0}
        outSlope: {x: 0, y: 0, z: 0}
        tangentMode: 0
        weightedMode: 0
        inWeight: {x: 0.3333333, y: 0.3333333, z: 0.3333333}
        outWeight: {x: 0.3333333, y: 0.3333333, z: 0.3333333}
      - serializedVersion: 3
        time: 2.066667
        value: {x: 0.9999999, y: 0.9999999, z: 0.9999999}
        inSlope: {x: 0, y: 0, z: 0}
        outSlope: {x: 0, y: 0, z: 0}
        tangentMode: 0
        weightedMode: 0
        inWeight: {x: 0.3333333, y: 0.3333333, z: 0.3333333}
        outWeight: {x: 0.3333333, y: 0.3333333, z: 0.3333333}
      m_PreInfinity: 2
      m_PostInfinity: 2
      m_RotationOrder: 4
    path: root_ghost
  - curve:
      serializedVersion: 2
      m_Curve:
      - serializedVersion: 3
        time: 0
        value: {x: 1, y: 1, z: 1}
        inSlope: {x: 0, y: 0, z: 0}
        outSlope: {x: 0, y: 0, z: 0}
        tangentMode: 0
        weightedMode: 0
        inWeight: {x: 0.3333333, y: 0.3333333, z: 0.3333333}
        outWeight: {x: 0.3333333, y: 0.3333333, z: 0.3333333}
      - serializedVersion: 3
        time: 2.066667
        value: {x: 1, y: 1, z: 1}
        inSlope: {x: 0, y: 0, z: 0}
        outSlope: {x: 0, y: 0, z: 0}
        tangentMode: 0
        weightedMode: 0
        inWeight: {x: 0.3333333, y: 0.3333333, z: 0.3333333}
        outWeight: {x: 0.3333333, y: 0.3333333, z: 0.3333333}
      m_PreInfinity: 2
      m_PostInfinity: 2
      m_RotationOrder: 4
    path: root_ghost/body_ghost
  - curve:
      serializedVersion: 2
      m_Curve:
      - serializedVersion: 3
        time: 0
        value: {x: 1, y: 1, z: 1}
        inSlope: {x: 0, y: 0, z: 0}
        outSlope: {x: 0, y: 0, z: 0}
        tangentMode: 0
        weightedMode: 0
        inWeight: {x: 0.3333333, y: 0.3333333, z: 0.3333333}
        outWeight: {x: 0.3333333, y: 0.3333333, z: 0.3333333}
      - serializedVersion: 3
        time: 2.066667
        value: {x: 1, y: 1, z: 1}
        inSlope: {x: 0, y: 0, z: 0}
        outSlope: {x: 0, y: 0, z: 0}
        tangentMode: 0
        weightedMode: 0
        inWeight: {x: 0.3333333, y: 0.3333333, z: 0.3333333}
        outWeight: {x: 0.3333333, y: 0.3333333, z: 0.3333333}
      m_PreInfinity: 2
      m_PostInfinity: 2
      m_RotationOrder: 4
    path: root_ghost/body_ghost/head_ghost
  - curve:
      serializedVersion: 2
      m_Curve:
      - serializedVersion: 3
        time: 0
        value: {x: 1, y: 1, z: 1}
        inSlope: {x: 0, y: 0, z: 0}
        outSlope: {x: 0, y: 0, z: 0}
        tangentMode: 0
        weightedMode: 0
        inWeight: {x: 0.3333333, y: 0.3333333, z: 0.3333333}
        outWeight: {x: 0.3333333, y: 0.3333333, z: 0.3333333}
      - serializedVersion: 3
        time: 2.066667
        value: {x: 1, y: 1, z: 1}
        inSlope: {x: 0, y: 0, z: 0}
        outSlope: {x: 0, y: 0, z: 0}
        tangentMode: 0
        weightedMode: 0
        inWeight: {x: 0.3333333, y: 0.3333333, z: 0.3333333}
        outWeight: {x: 0.3333333, y: 0.3333333, z: 0.3333333}
      m_PreInfinity: 2
      m_PostInfinity: 2
      m_RotationOrder: 4
    path: root_ghost/body_ghost/head_ghost/face_ghost
  - curve:
      serializedVersion: 2
      m_Curve:
      - serializedVersion: 3
        time: 0
        value: {x: 1, y: 1, z: 1}
        inSlope: {x: 0, y: 0, z: 0}
        outSlope: {x: 0, y: 0, z: 0}
        tangentMode: 0
        weightedMode: 0
        inWeight: {x: 0.3333333, y: 0.3333333, z: 0.3333333}
        outWeight: {x: 0.3333333, y: 0.3333333, z: 0.3333333}
      - serializedVersion: 3
        time: 2.066667
        value: {x: 1, y: 1, z: 1}
        inSlope: {x: 0, y: 0, z: 0}
        outSlope: {x: 0, y: 0, z: 0}
        tangentMode: 0
        weightedMode: 0
        inWeight: {x: 0.3333333, y: 0.3333333, z: 0.3333333}
        outWeight: {x: 0.3333333, y: 0.3333333, z: 0.3333333}
      m_PreInfinity: 2
      m_PostInfinity: 2
      m_RotationOrder: 4
    path: root_ghost/body_ghost/head_ghost/eyes_ghost
  - curve:
      serializedVersion: 2
      m_Curve:
      - serializedVersion: 3
        time: 0
        value: {x: 1, y: 1, z: 1}
        inSlope: {x: 0, y: 0, z: 0}
        outSlope: {x: 0, y: 0, z: 0}
        tangentMode: 0
        weightedMode: 0
        inWeight: {x: 0.3333333, y: 0.3333333, z: 0.3333333}
        outWeight: {x: 0.3333333, y: 0.3333333, z: 0.3333333}
      - serializedVersion: 3
        time: 2.066667
        value: {x: 1, y: 1, z: 1}
        inSlope: {x: 0, y: 0, z: 0}
        outSlope: {x: 0, y: 0, z: 0}
        tangentMode: 0
        weightedMode: 0
        inWeight: {x: 0.3333333, y: 0.3333333, z: 0.3333333}
        outWeight: {x: 0.3333333, y: 0.3333333, z: 0.3333333}
      m_PreInfinity: 2
      m_PostInfinity: 2
      m_RotationOrder: 4
    path: root_ghost/body_ghost/left_shoulder_ghost
  - curve:
      serializedVersion: 2
      m_Curve:
      - serializedVersion: 3
        time: 0
        value: {x: 1, y: 1, z: 1}
        inSlope: {x: 0, y: 0, z: 0}
        outSlope: {x: 0, y: 0, z: 0}
        tangentMode: 0
        weightedMode: 0
        inWeight: {x: 0.3333333, y: 0.3333333, z: 0.3333333}
        outWeight: {x: 0.3333333, y: 0.3333333, z: 0.3333333}
      - serializedVersion: 3
        time: 2.066667
        value: {x: 1, y: 1, z: 1}
        inSlope: {x: 0, y: 0, z: 0}
        outSlope: {x: 0, y: 0, z: 0}
        tangentMode: 0
        weightedMode: 0
        inWeight: {x: 0.3333333, y: 0.3333333, z: 0.3333333}
        outWeight: {x: 0.3333333, y: 0.3333333, z: 0.3333333}
      m_PreInfinity: 2
      m_PostInfinity: 2
      m_RotationOrder: 4
    path: root_ghost/body_ghost/left_shoulder_ghost/left_hand_ghost
  - curve:
      serializedVersion: 2
      m_Curve:
      - serializedVersion: 3
        time: 0
        value: {x: 1, y: 1, z: 1}
        inSlope: {x: 0, y: 0, z: 0}
        outSlope: {x: 0, y: 0, z: 0}
        tangentMode: 0
        weightedMode: 0
        inWeight: {x: 0.3333333, y: 0.3333333, z: 0.3333333}
        outWeight: {x: 0.3333333, y: 0.3333333, z: 0.3333333}
      - serializedVersion: 3
        time: 2.066667
        value: {x: 1, y: 1, z: 1}
        inSlope: {x: 0, y: 0, z: 0}
        outSlope: {x: 0, y: 0, z: 0}
        tangentMode: 0
        weightedMode: 0
        inWeight: {x: 0.3333333, y: 0.3333333, z: 0.3333333}
        outWeight: {x: 0.3333333, y: 0.3333333, z: 0.3333333}
      m_PreInfinity: 2
      m_PostInfinity: 2
      m_RotationOrder: 4
    path: root_ghost/body_ghost/right_shoulder_ghost
  - curve:
      serializedVersion: 2
      m_Curve:
      - serializedVersion: 3
        time: 0
        value: {x: 1, y: 1, z: 1}
        inSlope: {x: 0, y: 0, z: 0}
        outSlope: {x: 0, y: 0, z: 0}
        tangentMode: 0
        weightedMode: 0
        inWeight: {x: 0.3333333, y: 0.3333333, z: 0.3333333}
        outWeight: {x: 0.3333333, y: 0.3333333, z: 0.3333333}
      - serializedVersion: 3
        time: 2.066667
        value: {x: 1, y: 1, z: 1}
        inSlope: {x: 0, y: 0, z: 0}
        outSlope: {x: 0, y: 0, z: 0}
        tangentMode: 0
        weightedMode: 0
        inWeight: {x: 0.3333333, y: 0.3333333, z: 0.3333333}
        outWeight: {x: 0.3333333, y: 0.3333333, z: 0.3333333}
      m_PreInfinity: 2
      m_PostInfinity: 2
      m_RotationOrder: 4
    path: root_ghost/body_ghost/right_shoulder_ghost/right_hand_ghost
  - curve:
      serializedVersion: 2
      m_Curve:
      - serializedVersion: 3
        time: 0
        value: {x: 1, y: 1, z: 1}
        inSlope: {x: 0, y: 0, z: 0}
        outSlope: {x: 0, y: 0, z: 0}
        tangentMode: 0
        weightedMode: 0
        inWeight: {x: 0.3333333, y: 0.3333333, z: 0.3333333}
        outWeight: {x: 0.3333333, y: 0.3333333, z: 0.3333333}
      - serializedVersion: 3
        time: 2.066667
        value: {x: 1, y: 1, z: 1}
        inSlope: {x: 0, y: 0, z: 0}
        outSlope: {x: 0, y: 0, z: 0}
        tangentMode: 0
        weightedMode: 0
        inWeight: {x: 0.3333333, y: 0.3333333, z: 0.3333333}
        outWeight: {x: 0.3333333, y: 0.3333333, z: 0.3333333}
      m_PreInfinity: 2
      m_PostInfinity: 2
      m_RotationOrder: 4
    path: root_ghost/body_ghost/right_shoulder_ghost/chain_01_ghost
  - curve:
      serializedVersion: 2
      m_Curve:
      - serializedVersion: 3
        time: 0
        value: {x: 1, y: 1, z: 1}
        inSlope: {x: 0, y: 0, z: 0}
        outSlope: {x: 0, y: 0, z: 0}
        tangentMode: 0
        weightedMode: 0
        inWeight: {x: 0.3333333, y: 0.3333333, z: 0.3333333}
        outWeight: {x: 0.3333333, y: 0.3333333, z: 0.3333333}
      - serializedVersion: 3
        time: 2.066667
        value: {x: 1, y: 1, z: 1}
        inSlope: {x: 0, y: 0, z: 0}
        outSlope: {x: 0, y: 0, z: 0}
        tangentMode: 0
        weightedMode: 0
        inWeight: {x: 0.3333333, y: 0.3333333, z: 0.3333333}
        outWeight: {x: 0.3333333, y: 0.3333333, z: 0.3333333}
      m_PreInfinity: 2
      m_PostInfinity: 2
      m_RotationOrder: 4
    path: root_ghost/body_ghost/right_shoulder_ghost/chain_01_ghost/chain_02_ghost
  - curve:
      serializedVersion: 2
      m_Curve:
      - serializedVersion: 3
        time: 0
        value: {x: 1, y: 1, z: 1}
        inSlope: {x: 0, y: 0, z: 0}
        outSlope: {x: 0, y: 0, z: 0}
        tangentMode: 0
        weightedMode: 0
        inWeight: {x: 0.3333333, y: 0.3333333, z: 0.3333333}
        outWeight: {x: 0.3333333, y: 0.3333333, z: 0.3333333}
      - serializedVersion: 3
        time: 2.066667
        value: {x: 1, y: 1, z: 1}
        inSlope: {x: 0, y: 0, z: 0}
        outSlope: {x: 0, y: 0, z: 0}
        tangentMode: 0
        weightedMode: 0
        inWeight: {x: 0.3333333, y: 0.3333333, z: 0.3333333}
        outWeight: {x: 0.3333333, y: 0.3333333, z: 0.3333333}
      m_PreInfinity: 2
      m_PostInfinity: 2
      m_RotationOrder: 4
    path: root_ghost/body_ghost/right_shoulder_ghost/chain_01_ghost/chain_02_ghost/chain_03_ghost
  - curve:
      serializedVersion: 2
      m_Curve:
      - serializedVersion: 3
        time: 0
        value: {x: 1, y: 1, z: 1}
        inSlope: {x: 0, y: 0, z: 0}
        outSlope: {x: 0, y: 0, z: 0}
        tangentMode: 0
        weightedMode: 0
        inWeight: {x: 0.3333333, y: 0.3333333, z: 0.3333333}
        outWeight: {x: 0.3333333, y: 0.3333333, z: 0.3333333}
      - serializedVersion: 3
        time: 2.066667
        value: {x: 1, y: 1, z: 1}
        inSlope: {x: 0, y: 0, z: 0}
        outSlope: {x: 0, y: 0, z: 0}
        tangentMode: 0
        weightedMode: 0
        inWeight: {x: 0.3333333, y: 0.3333333, z: 0.3333333}
        outWeight: {x: 0.3333333, y: 0.3333333, z: 0.3333333}
      m_PreInfinity: 2
      m_PostInfinity: 2
      m_RotationOrder: 4
    path: root_ghost/body_ghost/right_shoulder_ghost/spikeball1
  - curve:
      serializedVersion: 2
      m_Curve:
      - serializedVersion: 3
        time: 0
        value: {x: 1, y: 1, z: 1}
        inSlope: {x: 0, y: 0, z: 0}
        outSlope: {x: 0, y: 0, z: 0}
        tangentMode: 0
        weightedMode: 0
        inWeight: {x: 0.3333333, y: 0.3333333, z: 0.3333333}
        outWeight: {x: 0.3333333, y: 0.3333333, z: 0.3333333}
      - serializedVersion: 3
        time: 2.066667
        value: {x: 1, y: 1, z: 1}
        inSlope: {x: 0, y: 0, z: 0}
        outSlope: {x: 0, y: 0, z: 0}
        tangentMode: 0
        weightedMode: 0
        inWeight: {x: 0.3333333, y: 0.3333333, z: 0.3333333}
        outWeight: {x: 0.3333333, y: 0.3333333, z: 0.3333333}
      m_PreInfinity: 2
      m_PostInfinity: 2
      m_RotationOrder: 4
    path: root_ghost/body_ghost/front_01_ghost
  - curve:
      serializedVersion: 2
      m_Curve:
      - serializedVersion: 3
        time: 0
        value: {x: 1, y: 1, z: 1}
        inSlope: {x: 0, y: 0, z: 0}
        outSlope: {x: 0, y: 0, z: 0}
        tangentMode: 0
        weightedMode: 0
        inWeight: {x: 0.3333333, y: 0.3333333, z: 0.3333333}
        outWeight: {x: 0.3333333, y: 0.3333333, z: 0.3333333}
      - serializedVersion: 3
        time: 2.066667
        value: {x: 1, y: 1, z: 1}
        inSlope: {x: 0, y: 0, z: 0}
        outSlope: {x: 0, y: 0, z: 0}
        tangentMode: 0
        weightedMode: 0
        inWeight: {x: 0.3333333, y: 0.3333333, z: 0.3333333}
        outWeight: {x: 0.3333333, y: 0.3333333, z: 0.3333333}
      m_PreInfinity: 2
      m_PostInfinity: 2
      m_RotationOrder: 4
    path: root_ghost/body_ghost/front_01_ghost/front_02_ghost
  - curve:
      serializedVersion: 2
      m_Curve:
      - serializedVersion: 3
        time: 0
        value: {x: 1, y: 1, z: 1}
        inSlope: {x: 0, y: 0, z: 0}
        outSlope: {x: 0, y: 0, z: 0}
        tangentMode: 0
        weightedMode: 0
        inWeight: {x: 0.3333333, y: 0.3333333, z: 0.3333333}
        outWeight: {x: 0.3333333, y: 0.3333333, z: 0.3333333}
      - serializedVersion: 3
        time: 2.066667
        value: {x: 1, y: 1, z: 1}
        inSlope: {x: 0, y: 0, z: 0}
        outSlope: {x: 0, y: 0, z: 0}
        tangentMode: 0
        weightedMode: 0
        inWeight: {x: 0.3333333, y: 0.3333333, z: 0.3333333}
        outWeight: {x: 0.3333333, y: 0.3333333, z: 0.3333333}
      m_PreInfinity: 2
      m_PostInfinity: 2
      m_RotationOrder: 4
    path: root_ghost/body_ghost/front_01_ghost/front_02_ghost/front_03_ghost
  - curve:
      serializedVersion: 2
      m_Curve:
      - serializedVersion: 3
        time: 0
        value: {x: 1, y: 1, z: 1}
        inSlope: {x: 0, y: 0, z: 0}
        outSlope: {x: 0, y: 0, z: 0}
        tangentMode: 0
        weightedMode: 0
        inWeight: {x: 0.3333333, y: 0.3333333, z: 0.3333333}
        outWeight: {x: 0.3333333, y: 0.3333333, z: 0.3333333}
      - serializedVersion: 3
        time: 2.066667
        value: {x: 1, y: 1, z: 1}
        inSlope: {x: 0, y: 0, z: 0}
        outSlope: {x: 0, y: 0, z: 0}
        tangentMode: 0
        weightedMode: 0
        inWeight: {x: 0.3333333, y: 0.3333333, z: 0.3333333}
        outWeight: {x: 0.3333333, y: 0.3333333, z: 0.3333333}
      m_PreInfinity: 2
      m_PostInfinity: 2
      m_RotationOrder: 4
    path: root_ghost/body_ghost/right_01_ghost
  - curve:
      serializedVersion: 2
      m_Curve:
      - serializedVersion: 3
        time: 0
        value: {x: 1, y: 1, z: 1}
        inSlope: {x: 0, y: 0, z: 0}
        outSlope: {x: 0, y: 0, z: 0}
        tangentMode: 0
        weightedMode: 0
        inWeight: {x: 0.3333333, y: 0.3333333, z: 0.3333333}
        outWeight: {x: 0.3333333, y: 0.3333333, z: 0.3333333}
      - serializedVersion: 3
        time: 2.066667
        value: {x: 1, y: 1, z: 1}
        inSlope: {x: 0, y: 0, z: 0}
        outSlope: {x: 0, y: 0, z: 0}
        tangentMode: 0
        weightedMode: 0
        inWeight: {x: 0.3333333, y: 0.3333333, z: 0.3333333}
        outWeight: {x: 0.3333333, y: 0.3333333, z: 0.3333333}
      m_PreInfinity: 2
      m_PostInfinity: 2
      m_RotationOrder: 4
    path: root_ghost/body_ghost/right_01_ghost/right_02_ghost
  - curve:
      serializedVersion: 2
      m_Curve:
      - serializedVersion: 3
        time: 0
        value: {x: 1, y: 1, z: 1}
        inSlope: {x: 0, y: 0, z: 0}
        outSlope: {x: 0, y: 0, z: 0}
        tangentMode: 0
        weightedMode: 0
        inWeight: {x: 0.3333333, y: 0.3333333, z: 0.3333333}
        outWeight: {x: 0.3333333, y: 0.3333333, z: 0.3333333}
      - serializedVersion: 3
        time: 2.066667
        value: {x: 1, y: 1, z: 1}
        inSlope: {x: 0, y: 0, z: 0}
        outSlope: {x: 0, y: 0, z: 0}
        tangentMode: 0
        weightedMode: 0
        inWeight: {x: 0.3333333, y: 0.3333333, z: 0.3333333}
        outWeight: {x: 0.3333333, y: 0.3333333, z: 0.3333333}
      m_PreInfinity: 2
      m_PostInfinity: 2
      m_RotationOrder: 4
    path: root_ghost/body_ghost/right_01_ghost/right_02_ghost/right_03_ghost
  - curve:
      serializedVersion: 2
      m_Curve:
      - serializedVersion: 3
        time: 0
        value: {x: 1, y: 1, z: 1}
        inSlope: {x: 0, y: 0, z: 0}
        outSlope: {x: 0, y: 0, z: 0}
        tangentMode: 0
        weightedMode: 0
        inWeight: {x: 0.3333333, y: 0.3333333, z: 0.3333333}
        outWeight: {x: 0.3333333, y: 0.3333333, z: 0.3333333}
      - serializedVersion: 3
        time: 2.066667
        value: {x: 1, y: 1, z: 1}
        inSlope: {x: 0, y: 0, z: 0}
        outSlope: {x: 0, y: 0, z: 0}
        tangentMode: 0
        weightedMode: 0
        inWeight: {x: 0.3333333, y: 0.3333333, z: 0.3333333}
        outWeight: {x: 0.3333333, y: 0.3333333, z: 0.3333333}
      m_PreInfinity: 2
      m_PostInfinity: 2
      m_RotationOrder: 4
    path: root_ghost/body_ghost/back_01_ghost
  - curve:
      serializedVersion: 2
      m_Curve:
      - serializedVersion: 3
        time: 0
        value: {x: 1, y: 1, z: 1}
        inSlope: {x: 0, y: 0, z: 0}
        outSlope: {x: 0, y: 0, z: 0}
        tangentMode: 0
        weightedMode: 0
        inWeight: {x: 0.3333333, y: 0.3333333, z: 0.3333333}
        outWeight: {x: 0.3333333, y: 0.3333333, z: 0.3333333}
      - serializedVersion: 3
        time: 2.066667
        value: {x: 1, y: 1, z: 1}
        inSlope: {x: 0, y: 0, z: 0}
        outSlope: {x: 0, y: 0, z: 0}
        tangentMode: 0
        weightedMode: 0
        inWeight: {x: 0.3333333, y: 0.3333333, z: 0.3333333}
        outWeight: {x: 0.3333333, y: 0.3333333, z: 0.3333333}
      m_PreInfinity: 2
      m_PostInfinity: 2
      m_RotationOrder: 4
    path: root_ghost/body_ghost/back_01_ghost/back_02_ghost
  - curve:
      serializedVersion: 2
      m_Curve:
      - serializedVersion: 3
        time: 0
        value: {x: 1, y: 1, z: 1}
        inSlope: {x: 0, y: 0, z: 0}
        outSlope: {x: 0, y: 0, z: 0}
        tangentMode: 0
        weightedMode: 0
        inWeight: {x: 0.3333333, y: 0.3333333, z: 0.3333333}
        outWeight: {x: 0.3333333, y: 0.3333333, z: 0.3333333}
      - serializedVersion: 3
        time: 2.066667
        value: {x: 1, y: 1, z: 1}
        inSlope: {x: 0, y: 0, z: 0}
        outSlope: {x: 0, y: 0, z: 0}
        tangentMode: 0
        weightedMode: 0
        inWeight: {x: 0.3333333, y: 0.3333333, z: 0.3333333}
        outWeight: {x: 0.3333333, y: 0.3333333, z: 0.3333333}
      m_PreInfinity: 2
      m_PostInfinity: 2
      m_RotationOrder: 4
    path: root_ghost/body_ghost/back_01_ghost/back_02_ghost/back_03_ghost
  - curve:
      serializedVersion: 2
      m_Curve:
      - serializedVersion: 3
        time: 0
        value: {x: 1, y: 1, z: 1}
        inSlope: {x: 0, y: 0, z: 0}
        outSlope: {x: 0, y: 0, z: 0}
        tangentMode: 0
        weightedMode: 0
        inWeight: {x: 0.3333333, y: 0.3333333, z: 0.3333333}
        outWeight: {x: 0.3333333, y: 0.3333333, z: 0.3333333}
      - serializedVersion: 3
        time: 2.066667
        value: {x: 1, y: 1, z: 1}
        inSlope: {x: 0, y: 0, z: 0}
        outSlope: {x: 0, y: 0, z: 0}
        tangentMode: 0
        weightedMode: 0
        inWeight: {x: 0.3333333, y: 0.3333333, z: 0.3333333}
        outWeight: {x: 0.3333333, y: 0.3333333, z: 0.3333333}
      m_PreInfinity: 2
      m_PostInfinity: 2
      m_RotationOrder: 4
    path: root_ghost/body_ghost/left_01_ghost
  - curve:
      serializedVersion: 2
      m_Curve:
      - serializedVersion: 3
        time: 0
        value: {x: 1, y: 1, z: 1}
        inSlope: {x: 0, y: 0, z: 0}
        outSlope: {x: 0, y: 0, z: 0}
        tangentMode: 0
        weightedMode: 0
        inWeight: {x: 0.3333333, y: 0.3333333, z: 0.3333333}
        outWeight: {x: 0.3333333, y: 0.3333333, z: 0.3333333}
      - serializedVersion: 3
        time: 2.066667
        value: {x: 1, y: 1, z: 1}
        inSlope: {x: 0, y: 0, z: 0}
        outSlope: {x: 0, y: 0, z: 0}
        tangentMode: 0
        weightedMode: 0
        inWeight: {x: 0.3333333, y: 0.3333333, z: 0.3333333}
        outWeight: {x: 0.3333333, y: 0.3333333, z: 0.3333333}
      m_PreInfinity: 2
      m_PostInfinity: 2
      m_RotationOrder: 4
    path: root_ghost/body_ghost/left_01_ghost/left_02_ghost
  - curve:
      serializedVersion: 2
      m_Curve:
      - serializedVersion: 3
        time: 0
        value: {x: 1, y: 1, z: 1}
        inSlope: {x: 0, y: 0, z: 0}
        outSlope: {x: 0, y: 0, z: 0}
        tangentMode: 0
        weightedMode: 0
        inWeight: {x: 0.3333333, y: 0.3333333, z: 0.3333333}
        outWeight: {x: 0.3333333, y: 0.3333333, z: 0.3333333}
      - serializedVersion: 3
        time: 2.066667
        value: {x: 1, y: 1, z: 1}
        inSlope: {x: 0, y: 0, z: 0}
        outSlope: {x: 0, y: 0, z: 0}
        tangentMode: 0
        weightedMode: 0
        inWeight: {x: 0.3333333, y: 0.3333333, z: 0.3333333}
        outWeight: {x: 0.3333333, y: 0.3333333, z: 0.3333333}
      m_PreInfinity: 2
      m_PostInfinity: 2
      m_RotationOrder: 4
    path: root_ghost/body_ghost/left_01_ghost/left_02_ghost/left_03_ghost
  m_FloatCurves: []
  m_PPtrCurves: []
  m_SampleRate: 30
  m_WrapMode: 2
  m_Bounds:
    m_Center: {x: 0.0366745, y: 0.7968881, z: -0.01996529}
    m_Extent: {x: 0.9331865, y: 0.7427456, z: 0.6909562}
  m_ClipBindingConstant:
    genericBindings: []
    pptrCurveMapping: []
  m_AnimationClipSettings:
    serializedVersion: 2
    m_AdditiveReferencePoseClip: {fileID: 0}
    m_AdditiveReferencePoseTime: 0
    m_StartTime: 0
    m_StopTime: 1
    m_OrientationOffsetY: 0
    m_Level: 0
    m_CycleOffset: 0
    m_HasAdditiveReferencePose: 0
    m_LoopTime: 0
    m_LoopBlend: 0
    m_LoopBlendOrientation: 0
    m_LoopBlendPositionY: 0
    m_LoopBlendPositionXZ: 0
    m_KeepOriginalOrientation: 0
    m_KeepOriginalPositionY: 1
    m_KeepOriginalPositionXZ: 0
    m_HeightFromFeet: 0
    m_Mirror: 0
  m_EditorCurves: []
  m_EulerEditorCurves: []
  m_HasGenericRootTransform: 0
  m_HasMotionFloatCurves: 0
  m_Events: []
