%YAML 1.1
%TAG !u! tag:unity3d.com,2011:
--- !u!74 &7400000
AnimationClip:
  m_CorrespondingSourceObject: {fileID: 0}
  m_PrefabInstance: {fileID: 0}
  m_PrefabAsset: {fileID: 0}
  m_Name: NetRotate
  serializedVersion: 6
  m_Legacy: 0
  m_Compressed: 0
  m_UseHighQualityCurve: 1
  m_RotationCurves:
  - curve:
      serializedVersion: 2
      m_Curve:
      - serializedVersion: 3
        time: 0
        value: {x: 0, y: 0, z: 0, w: -1}
        inSlope: {x: 0, y: 0, z: 0, w: 0}
        outSlope: {x: 0, y: 0, z: 1.566648, w: 0.02045631}
        tangentMode: 1
        weightedMode: 0
        inWeight: {x: 0.3333333, y: 0.3333333, z: 0.3333333, w: 0.3333333}
        outWeight: {x: 0.3333333, y: 0.3333333, z: 0.3333333, w: 0.3333333}
      - serializedVersion: 3
        time: 0.01666667
        value: {x: 0, y: 0, z: 0.0261108, w: -0.9996591}
        inSlope: {x: 0, y: 0, z: 1.56612, w: 0.04090726}
        outSlope: {x: 0, y: 0, z: 1.56612, w: 0.04090726}
        tangentMode: 1
        weightedMode: 0
        inWeight: {x: 0.3333333, y: 0.3333333, z: 0.3333333, w: 0.3333333}
        outWeight: {x: 0.3333333, y: 0.3333333, z: 0.3333333, w: 0.3333333}
      - serializedVersion: 3
        time: 0.03333334
        value: {x: 0, y: 0, z: 0.052204, w: -0.9986364}
        inSlope: {x: 0, y: 0, z: 1.564532, w: 0.08178591}
        outSlope: {x: 0, y: 0, z: 1.564532, w: 0.08178591}
        tangentMode: 1
        weightedMode: 0
        inWeight: {x: 0.3333333, y: 0.3333333, z: 0.3333333, w: 0.3333333}
        outWeight: {x: 0.3333333, y: 0.3333333, z: 0.3333333, w: 0.3333333}
      - serializedVersion: 3
        time: 0.05
        value: {x: 0, y: 0, z: 0.07826185, w: -0.9969329}
        inSlope: {x: 0, y: 0, z: 1.561877, w: 0.1226109}
        outSlope: {x: 0, y: 0, z: 1.561877, w: 0.1226109}
        tangentMode: 1
        weightedMode: 0
        inWeight: {x: 0.3333333, y: 0.3333333, z: 0.3333333, w: 0.3333333}
        outWeight: {x: 0.3333333, y: 0.3333333, z: 0.3333333, w: 0.3333333}
      - serializedVersion: 3
        time: 0.06666667
        value: {x: 0, y: 0, z: 0.1042666, w: -0.9945494}
        inSlope: {x: 0, y: 0, z: 1.55816, w: 0.1633555}
        outSlope: {x: 0, y: 0, z: 1.55816, w: 0.1633555}
        tangentMode: 1
        weightedMode: 0
        inWeight: {x: 0.3333333, y: 0.3333333, z: 0.3333333, w: 0.3333333}
        outWeight: {x: 0.3333333, y: 0.3333333, z: 0.3333333, w: 0.3333333}
      - serializedVersion: 3
        time: 0.08333334
        value: {x: 0, y: 0, z: 0.1302005, w: -0.9914877}
        inSlope: {x: 0, y: 0, z: 1.55338, w: 0.2039874}
        outSlope: {x: 0, y: 0, z: 1.55338, w: 0.2039874}
        tangentMode: 1
        weightedMode: 0
        inWeight: {x: 0.3333333, y: 0.3333333, z: 0.3333333, w: 0.3333333}
        outWeight: {x: 0.3333333, y: 0.3333333, z: 0.3333333, w: 0.3333333}
      - serializedVersion: 3
        time: 0.1
        value: {x: 0, y: 0, z: 0.1560459, w: -0.9877498}
        inSlope: {x: 0, y: 0, z: 1.547544, w: 0.2444834}
        outSlope: {x: 0, y: 0, z: 1.547544, w: 0.2444834}
        tangentMode: 1
        weightedMode: 0
        inWeight: {x: 0.3333333, y: 0.3333333, z: 0.3333333, w: 0.3333333}
        outWeight: {x: 0.3333333, y: 0.3333333, z: 0.3333333, w: 0.3333333}
      - serializedVersion: 3
        time: 0.1166667
        value: {x: 0, y: 0, z: 0.1817853, w: -0.9833382}
        inSlope: {x: 0, y: 0, z: 1.540652, w: 0.2848148}
        outSlope: {x: 0, y: 0, z: 1.540652, w: 0.2848148}
        tangentMode: 1
        weightedMode: 0
        inWeight: {x: 0.3333333, y: 0.3333333, z: 0.3333333, w: 0.3333333}
        outWeight: {x: 0.3333333, y: 0.3333333, z: 0.3333333, w: 0.3333333}
      - serializedVersion: 3
        time: 0.1333333
        value: {x: 0, y: 0, z: 0.207401, w: -0.978256}
        inSlope: {x: 0, y: 0, z: 1.53271, w: 0.3249514}
        outSlope: {x: 0, y: 0, z: 1.53271, w: 0.3249514}
        tangentMode: 1
        weightedMode: 0
        inWeight: {x: 0.3333333, y: 0.3333333, z: 0.3333333, w: 0.3333333}
        outWeight: {x: 0.3333333, y: 0.3333333, z: 0.3333333, w: 0.3333333}
      - serializedVersion: 3
        time: 0.15
        value: {x: 0, y: 0, z: 0.2328756, w: -0.9725065}
        inSlope: {x: 0, y: 0, z: 1.523725, w: 0.3648699}
        outSlope: {x: 0, y: 0, z: 1.523725, w: 0.3648699}
        tangentMode: 1
        weightedMode: 0
        inWeight: {x: 0.3333333, y: 0.3333333, z: 0.3333333, w: 0.3333333}
        outWeight: {x: 0.3333333, y: 0.3333333, z: 0.3333333, w: 0.3333333}
      - serializedVersion: 3
        time: 0.1666667
        value: {x: 0, y: 0, z: 0.2581918, w: -0.9660937}
        inSlope: {x: 0, y: 0, z: 1.513701, w: 0.4045415}
        outSlope: {x: 0, y: 0, z: 1.513701, w: 0.4045415}
        tangentMode: 1
        weightedMode: 0
        inWeight: {x: 0.3333333, y: 0.3333333, z: 0.3333333, w: 0.3333333}
        outWeight: {x: 0.3333333, y: 0.3333333, z: 0.3333333, w: 0.3333333}
      - serializedVersion: 3
        time: 0.1833333
        value: {x: 0, y: 0, z: 0.2833323, w: -0.9590218}
        inSlope: {x: 0, y: 0, z: 1.502644, w: 0.4439396}
        outSlope: {x: 0, y: 0, z: 1.502644, w: 0.4439396}
        tangentMode: 1
        weightedMode: 0
        inWeight: {x: 0.3333333, y: 0.3333333, z: 0.3333333, w: 0.3333333}
        outWeight: {x: 0.3333333, y: 0.3333333, z: 0.3333333, w: 0.3333333}
      - serializedVersion: 3
        time: 0.2
        value: {x: 0, y: 0, z: 0.30828, w: -0.9512957}
        inSlope: {x: 0, y: 0, z: 1.490565, w: 0.4830391}
        outSlope: {x: 0, y: 0, z: 1.490565, w: 0.4830391}
        tangentMode: 1
        weightedMode: 0
        inWeight: {x: 0.3333333, y: 0.3333333, z: 0.3333333, w: 0.3333333}
        outWeight: {x: 0.3333333, y: 0.3333333, z: 0.3333333, w: 0.3333333}
      - serializedVersion: 3
        time: 0.2166667
        value: {x: 0, y: 0, z: 0.3330178, w: -0.9429205}
        inSlope: {x: 0, y: 0, z: 1.47747, w: 0.5218095}
        outSlope: {x: 0, y: 0, z: 1.47747, w: 0.5218095}
        tangentMode: 1
        weightedMode: 0
        inWeight: {x: 0.3333333, y: 0.3333333, z: 0.3333333, w: 0.3333333}
        outWeight: {x: 0.3333333, y: 0.3333333, z: 0.3333333, w: 0.3333333}
      - serializedVersion: 3
        time: 0.2333333
        value: {x: 0, y: 0, z: 0.357529, w: -0.933902}
        inSlope: {x: 0, y: 0, z: 1.463367, w: 0.5602259}
        outSlope: {x: 0, y: 0, z: 1.463367, w: 0.5602259}
        tangentMode: 1
        weightedMode: 0
        inWeight: {x: 0.3333333, y: 0.3333333, z: 0.3333333, w: 0.3333333}
        outWeight: {x: 0.3333333, y: 0.3333333, z: 0.3333333, w: 0.3333333}
      - serializedVersion: 3
        time: 0.25
        value: {x: 0, y: 0, z: 0.3817967, w: -0.9242463}
        inSlope: {x: 0, y: 0, z: 1.448266, w: 0.5982629}
        outSlope: {x: 0, y: 0, z: 1.448266, w: 0.5982629}
        tangentMode: 1
        weightedMode: 0
        inWeight: {x: 0.3333333, y: 0.3333333, z: 0.3333333, w: 0.3333333}
        outWeight: {x: 0.3333333, y: 0.3333333, z: 0.3333333, w: 0.3333333}
      - serializedVersion: 3
        time: 0.2666667
        value: {x: 0, y: 0, z: 0.4058045, w: -0.9139599}
        inSlope: {x: 0, y: 0, z: 1.432177, w: 0.6358958}
        outSlope: {x: 0, y: 0, z: 1.432177, w: 0.6358958}
        tangentMode: 1
        weightedMode: 0
        inWeight: {x: 0.3333333, y: 0.3333333, z: 0.3333333, w: 0.3333333}
        outWeight: {x: 0.3333333, y: 0.3333333, z: 0.3333333, w: 0.3333333}
      - serializedVersion: 3
        time: 0.2833334
        value: {x: 0, y: 0, z: 0.429536, w: -0.9030498}
        inSlope: {x: 0, y: 0, z: 1.415112, w: 0.6730998}
        outSlope: {x: 0, y: 0, z: 1.415112, w: 0.6730998}
        tangentMode: 1
        weightedMode: 0
        inWeight: {x: 0.3333333, y: 0.3333333, z: 0.3333333, w: 0.3333333}
        outWeight: {x: 0.3333333, y: 0.3333333, z: 0.3333333, w: 0.3333333}
      - serializedVersion: 3
        time: 0.3
        value: {x: 0, y: 0, z: 0.4529749, w: -0.8915232}
        inSlope: {x: 0, y: 0, z: 1.39708, w: 0.709846}
        outSlope: {x: 0, y: 0, z: 1.39708, w: 0.709846}
        tangentMode: 1
        weightedMode: 0
        inWeight: {x: 0.3333333, y: 0.3333333, z: 0.3333333, w: 0.3333333}
        outWeight: {x: 0.3333333, y: 0.3333333, z: 0.3333333, w: 0.3333333}
      - serializedVersion: 3
        time: 0.3166667
        value: {x: 0, y: 0, z: 0.4761054, w: -0.8793882}
        inSlope: {x: 0, y: 0, z: 1.378096, w: 0.7461095}
        outSlope: {x: 0, y: 0, z: 1.378096, w: 0.7461095}
        tangentMode: 1
        weightedMode: 0
        inWeight: {x: 0.3333333, y: 0.3333333, z: 0.3333333, w: 0.3333333}
        outWeight: {x: 0.3333333, y: 0.3333333, z: 0.3333333, w: 0.3333333}
      - serializedVersion: 3
        time: 0.3333334
        value: {x: 0, y: 0, z: 0.4989115, w: -0.8666529}
        inSlope: {x: 0, y: 0, z: 1.358174, w: 0.7818686}
        outSlope: {x: 0, y: 0, z: 1.358174, w: 0.7818686}
        tangentMode: 1
        weightedMode: 0
        inWeight: {x: 0.3333333, y: 0.3333333, z: 0.3333333, w: 0.3333333}
        outWeight: {x: 0.3333333, y: 0.3333333, z: 0.3333333, w: 0.3333333}
      - serializedVersion: 3
        time: 0.3500001
        value: {x: 0, y: 0, z: 0.5213779, w: -0.8533259}
        inSlope: {x: 0, y: 0, z: 1.337321, w: 0.8170967}
        outSlope: {x: 0, y: 0, z: 1.337321, w: 0.8170967}
        tangentMode: 1
        weightedMode: 0
        inWeight: {x: 0.3333333, y: 0.3333333, z: 0.3333333, w: 0.3333333}
        outWeight: {x: 0.3333333, y: 0.3333333, z: 0.3333333, w: 0.3333333}
      - serializedVersion: 3
        time: 0.3666668
        value: {x: 0, y: 0, z: 0.5434889, w: -0.8394163}
        inSlope: {x: 0, y: 0, z: 1.315554, w: 0.8517705}
        outSlope: {x: 0, y: 0, z: 1.315554, w: 0.8517705}
        tangentMode: 1
        weightedMode: 0
        inWeight: {x: 0.3333333, y: 0.3333333, z: 0.3333333, w: 0.3333333}
        outWeight: {x: 0.3333333, y: 0.3333333, z: 0.3333333, w: 0.3333333}
      - serializedVersion: 3
        time: 0.3833334
        value: {x: 0, y: 0, z: 0.5652297, w: -0.8249335}
        inSlope: {x: 0, y: 0, z: 1.292895, w: 0.8858685}
        outSlope: {x: 0, y: 0, z: 1.292895, w: 0.8858685}
        tangentMode: 1
        weightedMode: 0
        inWeight: {x: 0.3333333, y: 0.3333333, z: 0.3333333, w: 0.3333333}
        outWeight: {x: 0.3333333, y: 0.3333333, z: 0.3333333, w: 0.3333333}
      - serializedVersion: 3
        time: 0.4000001
        value: {x: 0, y: 0, z: 0.5865855, w: -0.8098873}
        inSlope: {x: 0, y: 0, z: 1.269347, w: 0.9193639}
        outSlope: {x: 0, y: 0, z: 1.269347, w: 0.9193639}
        tangentMode: 1
        weightedMode: 0
        inWeight: {x: 0.3333333, y: 0.3333333, z: 0.3333333, w: 0.3333333}
        outWeight: {x: 0.3333333, y: 0.3333333, z: 0.3333333, w: 0.3333333}
      - serializedVersion: 3
        time: 0.4166668
        value: {x: 0, y: 0, z: 0.6075413, w: -0.794288}
        inSlope: {x: 0, y: 0, z: 1.244932, w: 0.9522353}
        outSlope: {x: 0, y: 0, z: 1.244932, w: 0.9522352}
        tangentMode: 1
        weightedMode: 0
        inWeight: {x: 0.3333333, y: 0.3333333, z: 0.3333333, w: 0.3333333}
        outWeight: {x: 0.3333333, y: 0.3333333, z: 0.3333333, w: 0.3333333}
      - serializedVersion: 3
        time: 0.4333335
        value: {x: 0, y: 0, z: 0.6280832, w: -0.7781461}
        inSlope: {x: 0, y: 0, z: 1.219671, w: 0.9844611}
        outSlope: {x: 0, y: 0, z: 1.219671, w: 0.9844611}
        tangentMode: 1
        weightedMode: 0
        inWeight: {x: 0.3333333, y: 0.3333333, z: 0.3333333, w: 0.3333333}
        outWeight: {x: 0.3333333, y: 0.3333333, z: 0.3333333, w: 0.3333333}
      - serializedVersion: 3
        time: 0.4500002
        value: {x: 0, y: 0, z: 0.6481971, w: -0.7614726}
        inSlope: {x: 0, y: 0, z: 1.193571, w: 1.016018}
        outSlope: {x: 0, y: 0, z: 1.193571, w: 1.016018}
        tangentMode: 1
        weightedMode: 0
        inWeight: {x: 0.3333333, y: 0.3333333, z: 0.3333333, w: 0.3333333}
        outWeight: {x: 0.3333333, y: 0.3333333, z: 0.3333333, w: 0.3333333}
      - serializedVersion: 3
        time: 0.4666668
        value: {x: 0, y: 0, z: 0.667869, w: -0.7442788}
        inSlope: {x: 0, y: 0, z: 1.166658, w: 1.046887}
        outSlope: {x: 0, y: 0, z: 1.166658, w: 1.046887}
        tangentMode: 1
        weightedMode: 0
        inWeight: {x: 0.3333333, y: 0.3333333, z: 0.3333333, w: 0.3333333}
        outWeight: {x: 0.3333333, y: 0.3333333, z: 0.3333333, w: 0.3333333}
      - serializedVersion: 3
        time: 0.4833335
        value: {x: 0, y: 0, z: 0.6870857, w: -0.7265764}
        inSlope: {x: 0, y: 0, z: 1.138948, w: 1.077045}
        outSlope: {x: 0, y: 0, z: 1.138948, w: 1.077045}
        tangentMode: 1
        weightedMode: 0
        inWeight: {x: 0.3333333, y: 0.3333333, z: 0.3333333, w: 0.3333333}
        outWeight: {x: 0.3333333, y: 0.3333333, z: 0.3333333, w: 0.3333333}
      - serializedVersion: 3
        time: 0.5000002
        value: {x: 0, y: 0, z: 0.7058339, w: -0.7083774}
        inSlope: {x: 0, y: 0, z: 1.110455, w: 1.10647}
        outSlope: {x: 0, y: 0, z: 1.110455, w: 1.10647}
        tangentMode: 1
        weightedMode: 0
        inWeight: {x: 0.3333333, y: 0.3333333, z: 0.3333333, w: 0.3333333}
        outWeight: {x: 0.3333333, y: 0.3333333, z: 0.3333333, w: 0.3333333}
      - serializedVersion: 3
        time: 0.5166668
        value: {x: 0, y: 0, z: 0.7241008, w: -0.6896941}
        inSlope: {x: 0, y: 0, z: 1.081203, w: 1.135142}
        outSlope: {x: 0, y: 0, z: 1.081203, w: 1.135142}
        tangentMode: 1
        weightedMode: 0
        inWeight: {x: 0.3333333, y: 0.3333333, z: 0.3333333, w: 0.3333333}
        outWeight: {x: 0.3333333, y: 0.3333333, z: 0.3333333, w: 0.3333333}
      - serializedVersion: 3
        time: 0.5333335
        value: {x: 0, y: 0, z: 0.741874, w: -0.6705393}
        inSlope: {x: 0, y: 0, z: 1.051212, w: 1.163046}
        outSlope: {x: 0, y: 0, z: 1.051212, w: 1.163046}
        tangentMode: 1
        weightedMode: 0
        inWeight: {x: 0.3333333, y: 0.3333333, z: 0.3333333, w: 0.3333333}
        outWeight: {x: 0.3333333, y: 0.3333333, z: 0.3333333, w: 0.3333333}
      - serializedVersion: 3
        time: 0.5500001
        value: {x: 0, y: 0, z: 0.7591412, w: -0.6509259}
        inSlope: {x: 0, y: 0, z: 1.020501, w: 1.190158}
        outSlope: {x: 0, y: 0, z: 1.020501, w: 1.190158}
        tangentMode: 1
        weightedMode: 0
        inWeight: {x: 0.3333333, y: 0.3333333, z: 0.3333333, w: 0.3333333}
        outWeight: {x: 0.3333333, y: 0.3333333, z: 0.3333333, w: 0.3333333}
      - serializedVersion: 3
        time: 0.5666668
        value: {x: 0, y: 0, z: 0.7758906, w: -0.6308674}
        inSlope: {x: 0, y: 0, z: 0.9890906, w: 1.216463}
        outSlope: {x: 0, y: 0, z: 0.9890906, w: 1.216463}
        tangentMode: 1
        weightedMode: 0
        inWeight: {x: 0.3333333, y: 0.3333333, z: 0.3333333, w: 0.3333333}
        outWeight: {x: 0.3333333, y: 0.3333333, z: 0.3333333, w: 0.3333333}
      - serializedVersion: 3
        time: 0.5833334
        value: {x: 0, y: 0, z: 0.7921109, w: -0.6103772}
        inSlope: {x: 0, y: 0, z: 0.9570006, w: 1.241939}
        outSlope: {x: 0, y: 0, z: 0.9570006, w: 1.241939}
        tangentMode: 1
        weightedMode: 0
        inWeight: {x: 0.3333333, y: 0.3333333, z: 0.3333333, w: 0.3333333}
        outWeight: {x: 0.3333333, y: 0.3333333, z: 0.3333333, w: 0.3333333}
      - serializedVersion: 3
        time: 0.6000001
        value: {x: 0, y: 0, z: 0.8077906, w: -0.5894695}
        inSlope: {x: 0, y: 0, z: 0.9242544, w: 1.266569}
        outSlope: {x: 0, y: 0, z: 0.9242544, w: 1.266569}
        tangentMode: 1
        weightedMode: 0
        inWeight: {x: 0.3333333, y: 0.3333333, z: 0.3333333, w: 0.3333333}
        outWeight: {x: 0.3333333, y: 0.3333333, z: 0.3333333, w: 0.3333333}
      - serializedVersion: 3
        time: 0.6166667
        value: {x: 0, y: 0, z: 0.8229193, w: -0.5681583}
        inSlope: {x: 0, y: 0, z: 0.8908751, w: 1.290344}
        outSlope: {x: 0, y: 0, z: 0.8908751, w: 1.290344}
        tangentMode: 1
        weightedMode: 0
        inWeight: {x: 0.3333333, y: 0.3333333, z: 0.3333333, w: 0.3333333}
        outWeight: {x: 0.3333333, y: 0.3333333, z: 0.3333333, w: 0.3333333}
      - serializedVersion: 3
        time: 0.6333334
        value: {x: 0, y: 0, z: 0.8374864, w: -0.5464581}
        inSlope: {x: 0, y: 0, z: 0.8568844, w: 1.313238}
        outSlope: {x: 0, y: 0, z: 0.8568844, w: 1.313238}
        tangentMode: 1
        weightedMode: 0
        inWeight: {x: 0.3333333, y: 0.3333333, z: 0.3333333, w: 0.3333333}
        outWeight: {x: 0.3333333, y: 0.3333333, z: 0.3333333, w: 0.3333333}
      - serializedVersion: 3
        time: 0.65
        value: {x: 0, y: 0, z: 0.8514821, w: -0.5243837}
        inSlope: {x: 0, y: 0, z: 0.8223035, w: 1.335237}
        outSlope: {x: 0, y: 0, z: 0.8223035, w: 1.335237}
        tangentMode: 1
        weightedMode: 0
        inWeight: {x: 0.3333333, y: 0.3333333, z: 0.3333333, w: 0.3333333}
        outWeight: {x: 0.3333333, y: 0.3333333, z: 0.3333333, w: 0.3333333}
      - serializedVersion: 3
        time: 0.6666667
        value: {x: 0, y: 0, z: 0.8648965, w: -0.5019502}
        inSlope: {x: 0, y: 0, z: 0.7871557, w: 1.356328}
        outSlope: {x: 0, y: 0, z: 0.7871557, w: 1.356328}
        tangentMode: 1
        weightedMode: 0
        inWeight: {x: 0.3333333, y: 0.3333333, z: 0.3333333, w: 0.3333333}
        outWeight: {x: 0.3333333, y: 0.3333333, z: 0.3333333, w: 0.3333333}
      - serializedVersion: 3
        time: 0.6833333
        value: {x: 0, y: 0, z: 0.8777206, w: -0.4791728}
        inSlope: {x: 0, y: 0, z: 0.7514699, w: 1.376501}
        outSlope: {x: 0, y: 0, z: 0.7514699, w: 1.376501}
        tangentMode: 1
        weightedMode: 0
        inWeight: {x: 0.3333333, y: 0.3333333, z: 0.3333333, w: 0.3333333}
        outWeight: {x: 0.3333333, y: 0.3333333, z: 0.3333333, w: 0.3333333}
      - serializedVersion: 3
        time: 0.7
        value: {x: 0, y: 0, z: 0.8899455, w: -0.4560669}
        inSlope: {x: 0, y: 0, z: 0.7152654, w: 1.395733}
        outSlope: {x: 0, y: 0, z: 0.7152654, w: 1.395733}
        tangentMode: 1
        weightedMode: 0
        inWeight: {x: 0.3333333, y: 0.3333333, z: 0.3333333, w: 0.3333333}
        outWeight: {x: 0.3333333, y: 0.3333333, z: 0.3333333, w: 0.3333333}
      - serializedVersion: 3
        time: 0.7166666
        value: {x: 0, y: 0, z: 0.9015628, w: -0.4326484}
        inSlope: {x: 0, y: 0, z: 0.6785656, w: 1.414015}
        outSlope: {x: 0, y: 0, z: 0.6785656, w: 1.414015}
        tangentMode: 1
        weightedMode: 0
        inWeight: {x: 0.3333333, y: 0.3333333, z: 0.3333333, w: 0.3333333}
        outWeight: {x: 0.3333333, y: 0.3333333, z: 0.3333333, w: 0.3333333}
      - serializedVersion: 3
        time: 0.7333333
        value: {x: 0, y: 0, z: 0.9125643, w: -0.4089331}
        inSlope: {x: 0, y: 0, z: 0.641399, w: 1.431334}
        outSlope: {x: 0, y: 0, z: 0.641399, w: 1.431334}
        tangentMode: 1
        weightedMode: 0
        inWeight: {x: 0.3333333, y: 0.3333333, z: 0.3333333, w: 0.3333333}
        outWeight: {x: 0.3333333, y: 0.3333333, z: 0.3333333, w: 0.3333333}
      - serializedVersion: 3
        time: 0.7499999
        value: {x: 0, y: 0, z: 0.9229427, w: -0.3849373}
        inSlope: {x: 0, y: 0, z: 0.6037909, w: 1.447676}
        outSlope: {x: 0, y: 0, z: 0.6037909, w: 1.447676}
        tangentMode: 1
        weightedMode: 0
        inWeight: {x: 0.3333333, y: 0.3333333, z: 0.3333333, w: 0.3333333}
        outWeight: {x: 0.3333333, y: 0.3333333, z: 0.3333333, w: 0.3333333}
      - serializedVersion: 3
        time: 0.7666666
        value: {x: 0, y: 0, z: 0.9326907, w: -0.3606773}
        inSlope: {x: 0, y: 0, z: 0.565766, w: 1.46304}
        outSlope: {x: 0, y: 0, z: 0.565766, w: 1.46304}
        tangentMode: 1
        weightedMode: 0
        inWeight: {x: 0.3333333, y: 0.3333333, z: 0.3333333, w: 0.3333333}
        outWeight: {x: 0.3333333, y: 0.3333333, z: 0.3333333, w: 0.3333333}
      - serializedVersion: 3
        time: 0.7833332
        value: {x: 0, y: 0, z: 0.9418015, w: -0.3361694}
        inSlope: {x: 0, y: 0, z: 0.5273478, w: 1.477404}
        outSlope: {x: 0, y: 0, z: 0.5273478, w: 1.477404}
        tangentMode: 1
        weightedMode: 0
        inWeight: {x: 0.3333333, y: 0.3333333, z: 0.3333333, w: 0.3333333}
        outWeight: {x: 0.3333333, y: 0.3333333, z: 0.3333333, w: 0.3333333}
      - serializedVersion: 3
        time: 0.7999999
        value: {x: 0, y: 0, z: 0.9502689, w: -0.3114305}
        inSlope: {x: 0, y: 0, z: 0.4885613, w: 1.490752}
        outSlope: {x: 0, y: 0, z: 0.4885613, w: 1.490752}
        tangentMode: 1
        weightedMode: 0
        inWeight: {x: 0.3333333, y: 0.3333333, z: 0.3333333, w: 0.3333333}
        outWeight: {x: 0.3333333, y: 0.3333333, z: 0.3333333, w: 0.3333333}
      - serializedVersion: 3
        time: 0.8166665
        value: {x: 0, y: 0, z: 0.9580869, w: -0.2864777}
        inSlope: {x: 0, y: 0, z: 0.4494385, w: 1.503093}
        outSlope: {x: 0, y: 0, z: 0.4494385, w: 1.503093}
        tangentMode: 1
        weightedMode: 0
        inWeight: {x: 0.3333333, y: 0.3333333, z: 0.3333333, w: 0.3333333}
        outWeight: {x: 0.3333333, y: 0.3333333, z: 0.3333333, w: 0.3333333}
      - serializedVersion: 3
        time: 0.8333332
        value: {x: 0, y: 0, z: 0.9652502, w: -0.2613275}
        inSlope: {x: 0, y: 0, z: 0.4100046, w: 1.514413}
        outSlope: {x: 0, y: 0, z: 0.4100046, w: 1.514413}
        tangentMode: 1
        weightedMode: 0
        inWeight: {x: 0.3333333, y: 0.3333333, z: 0.3333333, w: 0.3333333}
        outWeight: {x: 0.3333333, y: 0.3333333, z: 0.3333333, w: 0.3333333}
      - serializedVersion: 3
        time: 0.8499998
        value: {x: 0, y: 0, z: 0.9717537, w: -0.2359973}
        inSlope: {x: 0, y: 0, z: 0.3702829, w: 1.524696}
        outSlope: {x: 0, y: 0, z: 0.3702829, w: 1.524696}
        tangentMode: 1
        weightedMode: 0
        inWeight: {x: 0.3333333, y: 0.3333333, z: 0.3333333, w: 0.3333333}
        outWeight: {x: 0.3333333, y: 0.3333333, z: 0.3333333, w: 0.3333333}
      - serializedVersion: 3
        time: 0.8666665
        value: {x: 0, y: 0, z: 0.9775929, w: -0.2105043}
        inSlope: {x: 0, y: 0, z: 0.3303, w: 1.533935}
        outSlope: {x: 0, y: 0, z: 0.3303, w: 1.533935}
        tangentMode: 1
        weightedMode: 0
        inWeight: {x: 0.3333333, y: 0.3333333, z: 0.3333333, w: 0.3333333}
        outWeight: {x: 0.3333333, y: 0.3333333, z: 0.3333333, w: 0.3333333}
      - serializedVersion: 3
        time: 0.8833331
        value: {x: 0, y: 0, z: 0.9827637, w: -0.1848662}
        inSlope: {x: 0, y: 0, z: 0.2900848, w: 1.542125}
        outSlope: {x: 0, y: 0, z: 0.2900848, w: 1.542125}
        tangentMode: 1
        weightedMode: 0
        inWeight: {x: 0.3333333, y: 0.3333333, z: 0.3333333, w: 0.3333333}
        outWeight: {x: 0.3333333, y: 0.3333333, z: 0.3333333, w: 0.3333333}
      - serializedVersion: 3
        time: 0.8999998
        value: {x: 0, y: 0, z: 0.9872624, w: -0.1591002}
        inSlope: {x: 0, y: 0, z: 0.2496674, w: 1.54927}
        outSlope: {x: 0, y: 0, z: 0.2496674, w: 1.54927}
        tangentMode: 1
        weightedMode: 0
        inWeight: {x: 0.3333333, y: 0.3333333, z: 0.3333333, w: 0.3333333}
        outWeight: {x: 0.3333333, y: 0.3333333, z: 0.3333333, w: 0.3333333}
      - serializedVersion: 3
        time: 0.9166664
        value: {x: 0, y: 0, z: 0.9910859, w: -0.1332239}
        inSlope: {x: 0, y: 0, z: 0.209073, w: 1.555359}
        outSlope: {x: 0, y: 0, z: 0.209073, w: 1.555359}
        tangentMode: 1
        weightedMode: 0
        inWeight: {x: 0.3333333, y: 0.3333333, z: 0.3333333, w: 0.3333333}
        outWeight: {x: 0.3333333, y: 0.3333333, z: 0.3333333, w: 0.3333333}
      - serializedVersion: 3
        time: 0.9333331
        value: {x: 0, y: 0, z: 0.9942315, w: -0.1072549}
        inSlope: {x: 0, y: 0, z: 0.1683284, w: 1.560384}
        outSlope: {x: 0, y: 0, z: 0.1683284, w: 1.560384}
        tangentMode: 1
        weightedMode: 0
        inWeight: {x: 0.3333333, y: 0.3333333, z: 0.3333333, w: 0.3333333}
        outWeight: {x: 0.3333333, y: 0.3333333, z: 0.3333333, w: 0.3333333}
      - serializedVersion: 3
        time: 0.9499997
        value: {x: 0, y: 0, z: 0.9966969, w: -0.08121116}
        inSlope: {x: 0, y: 0, z: 0.1274623, w: 1.564338}
        outSlope: {x: 0, y: 0, z: 0.1274623, w: 1.564338}
        tangentMode: 1
        weightedMode: 0
        inWeight: {x: 0.3333333, y: 0.3333333, z: 0.3333333, w: 0.3333333}
        outWeight: {x: 0.3333333, y: 0.3333333, z: 0.3333333, w: 0.3333333}
      - serializedVersion: 3
        time: 0.9666664
        value: {x: 0, y: 0, z: 0.9984803, w: -0.05511037}
        inSlope: {x: 0, y: 0, z: 0.08650132, w: 1.567227}
        outSlope: {x: 0, y: 0, z: 0.08650132, w: 1.567227}
        tangentMode: 1
        weightedMode: 0
        inWeight: {x: 0.3333333, y: 0.3333333, z: 0.3333333, w: 0.3333333}
        outWeight: {x: 0.3333333, y: 0.3333333, z: 0.3333333, w: 0.3333333}
      - serializedVersion: 3
        time: 0.9833331
        value: {x: 0, y: 0, z: 0.9995803, w: -0.02897032}
        inSlope: {x: 0, y: 0, z: 0.04547421, w: 1.569043}
        outSlope: {x: 0, y: 0, z: 0.04547421, w: 1.569043}
        tangentMode: 1
        weightedMode: 0
        inWeight: {x: 0.3333333, y: 0.3333333, z: 0.3333333, w: 0.3333333}
        outWeight: {x: 0.3333333, y: 0.3333333, z: 0.3333333, w: 0.3333333}
      - serializedVersion: 3
        time: 0.9999997
        value: {x: 0, y: 0, z: 0.9999961, w: -0.002809}
        inSlope: {x: 0, y: 0, z: 0.004407797, w: 1.569793}
        outSlope: {x: 0, y: 0, z: 0.004407797, w: 1.569793}
        tangentMode: 1
        weightedMode: 0
        inWeight: {x: 0.3333333, y: 0.3333333, z: 0.3333333, w: 0.3333333}
        outWeight: {x: 0.3333333, y: 0.3333333, z: 0.3333333, w: 0.3333333}
      - serializedVersion: 3
        time: 1.016666
        value: {x: 0, y: 0, z: 0.9997272, w: 0.02335615}
        inSlope: {x: 0, y: 0, z: -0.03666759, w: 1.569471}
        outSlope: {x: 0, y: 0, z: -0.03666759, w: 1.569471}
        tangentMode: 1
        weightedMode: 0
        inWeight: {x: 0.3333333, y: 0.3333333, z: 0.3333333, w: 0.3333333}
        outWeight: {x: 0.3333333, y: 0.3333333, z: 0.3333333, w: 0.3333333}
      - serializedVersion: 3
        time: 1.033333
        value: {x: 0, y: 0, z: 0.9987738, w: 0.04950673}
        inSlope: {x: 0, y: 0, z: -0.07772513, w: 1.568059}
        outSlope: {x: 0, y: 0, z: -0.07772513, w: 1.568059}
        tangentMode: 1
        weightedMode: 0
        inWeight: {x: 0.3333333, y: 0.3333333, z: 0.3333333, w: 0.3333333}
        outWeight: {x: 0.3333333, y: 0.3333333, z: 0.3333333, w: 0.3333333}
      - serializedVersion: 3
        time: 1.05
        value: {x: 0, y: 0, z: 0.9971364, w: 0.07562472}
        inSlope: {x: 0, y: 0, z: -0.1187397, w: 1.565584}
        outSlope: {x: 0, y: 0, z: -0.1187397, w: 1.565584}
        tangentMode: 1
        weightedMode: 0
        inWeight: {x: 0.3333333, y: 0.3333333, z: 0.3333333, w: 0.3333333}
        outWeight: {x: 0.3333333, y: 0.3333333, z: 0.3333333, w: 0.3333333}
      - serializedVersion: 3
        time: 1.066666
        value: {x: 0, y: 0, z: 0.9948158, w: 0.1016928}
        inSlope: {x: 0, y: 0, z: -0.1596774, w: 1.562044}
        outSlope: {x: 0, y: 0, z: -0.1596774, w: 1.562044}
        tangentMode: 1
        weightedMode: 0
        inWeight: {x: 0.3333333, y: 0.3333333, z: 0.3333333, w: 0.3333333}
        outWeight: {x: 0.3333333, y: 0.3333333, z: 0.3333333, w: 0.3333333}
      - serializedVersion: 3
        time: 1.083333
        value: {x: 0, y: 0, z: 0.9918138, w: 0.1276928}
        inSlope: {x: 0, y: 0, z: -0.200515, w: 1.557425}
        outSlope: {x: 0, y: 0, z: -0.200515, w: 1.557425}
        tangentMode: 1
        weightedMode: 0
        inWeight: {x: 0.3333333, y: 0.3333333, z: 0.3333333, w: 0.3333333}
        outWeight: {x: 0.3333333, y: 0.3333333, z: 0.3333333, w: 0.3333333}
      - serializedVersion: 3
        time: 1.1
        value: {x: 0, y: 0, z: 0.988132, w: 0.153607}
        inSlope: {x: 0, y: 0, z: -0.2412238, w: 1.551747}
        outSlope: {x: 0, y: 0, z: -0.2412238, w: 1.551747}
        tangentMode: 1
        weightedMode: 0
        inWeight: {x: 0.3333333, y: 0.3333333, z: 0.3333333, w: 0.3333333}
        outWeight: {x: 0.3333333, y: 0.3333333, z: 0.3333333, w: 0.3333333}
      - serializedVersion: 3
        time: 1.116666
        value: {x: 0, y: 0, z: 0.983773, w: 0.1794176}
        inSlope: {x: 0, y: 0, z: -0.2817735, w: 1.545003}
        outSlope: {x: 0, y: 0, z: -0.2817735, w: 1.545003}
        tangentMode: 1
        weightedMode: 0
        inWeight: {x: 0.3333333, y: 0.3333333, z: 0.3333333, w: 0.3333333}
        outWeight: {x: 0.3333333, y: 0.3333333, z: 0.3333333, w: 0.3333333}
      - serializedVersion: 3
        time: 1.133333
        value: {x: 0, y: 0, z: 0.9787396, w: 0.205107}
        inSlope: {x: 0, y: 0, z: -0.322139, w: 1.537196}
        outSlope: {x: 0, y: 0, z: -0.322139, w: 1.537196}
        tangentMode: 1
        weightedMode: 0
        inWeight: {x: 0.3333333, y: 0.3333333, z: 0.3333333, w: 0.3333333}
        outWeight: {x: 0.3333333, y: 0.3333333, z: 0.3333333, w: 0.3333333}
      - serializedVersion: 3
        time: 1.15
        value: {x: 0, y: 0, z: 0.973035, w: 0.2306575}
        inSlope: {x: 0, y: 0, z: -0.3622935, w: 1.528338}
        outSlope: {x: 0, y: 0, z: -0.3622935, w: 1.528338}
        tangentMode: 1
        weightedMode: 0
        inWeight: {x: 0.3333333, y: 0.3333333, z: 0.3333333, w: 0.3333333}
        outWeight: {x: 0.3333333, y: 0.3333333, z: 0.3333333, w: 0.3333333}
      - serializedVersion: 3
        time: 1.166666
        value: {x: 0, y: 0, z: 0.9666631, w: 0.2560516}
        inSlope: {x: 0, y: 0, z: -0.4022084, w: 1.518436}
        outSlope: {x: 0, y: 0, z: -0.4022084, w: 1.518436}
        tangentMode: 1
        weightedMode: 0
        inWeight: {x: 0.3333333, y: 0.3333333, z: 0.3333333, w: 0.3333333}
        outWeight: {x: 0.3333333, y: 0.3333333, z: 0.3333333, w: 0.3333333}
      - serializedVersion: 3
        time: 1.183333
        value: {x: 0, y: 0, z: 0.9596281, w: 0.281272}
        inSlope: {x: 0, y: 0, z: -0.4418532, w: 1.507489}
        outSlope: {x: 0, y: 0, z: -0.4418532, w: 1.507489}
        tangentMode: 1
        weightedMode: 0
        inWeight: {x: 0.3333333, y: 0.3333333, z: 0.3333333, w: 0.3333333}
        outWeight: {x: 0.3333333, y: 0.3333333, z: 0.3333333, w: 0.3333333}
      - serializedVersion: 3
        time: 1.2
        value: {x: 0, y: 0, z: 0.9519347, w: 0.3063011}
        inSlope: {x: 0, y: 0, z: -0.4812066, w: 1.495506}
        outSlope: {x: 0, y: 0, z: -0.4812067, w: 1.495506}
        tangentMode: 1
        weightedMode: 0
        inWeight: {x: 0.3333333, y: 0.3333333, z: 0.3333333, w: 0.3333333}
        outWeight: {x: 0.3333333, y: 0.3333333, z: 0.3333333, w: 0.3333333}
      - serializedVersion: 3
        time: 1.216666
        value: {x: 0, y: 0, z: 0.9435879, w: 0.3311221}
        inSlope: {x: 0, y: 0, z: -0.5202382, w: 1.482497}
        outSlope: {x: 0, y: 0, z: -0.5202382, w: 1.482497}
        tangentMode: 1
        weightedMode: 0
        inWeight: {x: 0.3333333, y: 0.3333333, z: 0.3333333, w: 0.3333333}
        outWeight: {x: 0.3333333, y: 0.3333333, z: 0.3333333, w: 0.3333333}
      - serializedVersion: 3
        time: 1.233333
        value: {x: 0, y: 0, z: 0.9345934, w: 0.3557177}
        inSlope: {x: 0, y: 0, z: -0.5589193, w: 1.468472}
        outSlope: {x: 0, y: 0, z: -0.5589193, w: 1.468472}
        tangentMode: 1
        weightedMode: 0
        inWeight: {x: 0.3333333, y: 0.3333333, z: 0.3333333, w: 0.3333333}
        outWeight: {x: 0.3333333, y: 0.3333333, z: 0.3333333, w: 0.3333333}
      - serializedVersion: 3
        time: 1.25
        value: {x: 0, y: 0, z: 0.9249573, w: 0.3800711}
        inSlope: {x: 0, y: 0, z: -0.5972284, w: 1.45344}
        outSlope: {x: 0, y: 0, z: -0.5972284, w: 1.45344}
        tangentMode: 1
        weightedMode: 0
        inWeight: {x: 0.3333333, y: 0.3333333, z: 0.3333333, w: 0.3333333}
        outWeight: {x: 0.3333333, y: 0.3333333, z: 0.3333333, w: 0.3333333}
      - serializedVersion: 3
        time: 1.266666
        value: {x: 0, y: 0, z: 0.9146858, w: 0.4041656}
        inSlope: {x: 0, y: 0, z: -0.6351352, w: 1.437398}
        outSlope: {x: 0, y: 0, z: -0.6351352, w: 1.437398}
        tangentMode: 1
        weightedMode: 0
        inWeight: {x: 0.3333333, y: 0.3333333, z: 0.3333333, w: 0.3333333}
        outWeight: {x: 0.3333333, y: 0.3333333, z: 0.3333333, w: 0.3333333}
      - serializedVersion: 3
        time: 1.283333
        value: {x: 0, y: 0, z: 0.9037861, w: 0.4279844}
        inSlope: {x: 0, y: 0, z: -0.6726164, w: 1.420377}
        outSlope: {x: 0, y: 0, z: -0.6726164, w: 1.420377}
        tangentMode: 1
        weightedMode: 0
        inWeight: {x: 0.3333333, y: 0.3333333, z: 0.3333333, w: 0.3333333}
        outWeight: {x: 0.3333333, y: 0.3333333, z: 0.3333333, w: 0.3333333}
      - serializedVersion: 3
        time: 1.299999
        value: {x: 0, y: 0, z: 0.8922653, w: 0.4515115}
        inSlope: {x: 0, y: 0, z: -0.7096435, w: 1.402376}
        outSlope: {x: 0, y: 0, z: -0.7096435, w: 1.402376}
        tangentMode: 1
        weightedMode: 0
        inWeight: {x: 0.3333333, y: 0.3333333, z: 0.3333333, w: 0.3333333}
        outWeight: {x: 0.3333333, y: 0.3333333, z: 0.3333333, w: 0.3333333}
      - serializedVersion: 3
        time: 1.316666
        value: {x: 0, y: 0, z: 0.8801314, w: 0.4747302}
        inSlope: {x: 0, y: 0, z: -0.7461913, w: 1.383405}
        outSlope: {x: 0, y: 0, z: -0.7461913, w: 1.383405}
        tangentMode: 1
        weightedMode: 0
        inWeight: {x: 0.3333333, y: 0.3333333, z: 0.3333333, w: 0.3333333}
        outWeight: {x: 0.3333333, y: 0.3333333, z: 0.3333333, w: 0.3333333}
      - serializedVersion: 3
        time: 1.333333
        value: {x: 0, y: 0, z: 0.8673923, w: 0.4976249}
        inSlope: {x: 0, y: 0, z: -0.7822402, w: 1.363493}
        outSlope: {x: 0, y: 0, z: -0.7822402, w: 1.363493}
        tangentMode: 1
        weightedMode: 0
        inWeight: {x: 0.3333333, y: 0.3333333, z: 0.3333333, w: 0.3333333}
        outWeight: {x: 0.3333333, y: 0.3333333, z: 0.3333333, w: 0.3333333}
      - serializedVersion: 3
        time: 1.349999
        value: {x: 0, y: 0, z: 0.8540567, w: 0.5201799}
        inSlope: {x: 0, y: 0, z: -0.8177598, w: 1.342635}
        outSlope: {x: 0, y: 0, z: -0.8177598, w: 1.342635}
        tangentMode: 1
        weightedMode: 0
        inWeight: {x: 0.3333333, y: 0.3333333, z: 0.3333333, w: 0.3333333}
        outWeight: {x: 0.3333333, y: 0.3333333, z: 0.3333333, w: 0.3333333}
      - serializedVersion: 3
        time: 1.366666
        value: {x: 0, y: 0, z: 0.8401337, w: 0.5423794}
        inSlope: {x: 0, y: 0, z: -0.8527216, w: 1.320843}
        outSlope: {x: 0, y: 0, z: -0.8527216, w: 1.320843}
        tangentMode: 1
        weightedMode: 0
        inWeight: {x: 0.3333333, y: 0.3333333, z: 0.3333333, w: 0.3333333}
        outWeight: {x: 0.3333333, y: 0.3333333, z: 0.3333333, w: 0.3333333}
      - serializedVersion: 3
        time: 1.383333
        value: {x: 0, y: 0, z: 0.8256327, w: 0.564208}
        inSlope: {x: 0, y: 0, z: -0.8871075, w: 1.298144}
        outSlope: {x: 0, y: 0, z: -0.8871075, w: 1.298144}
        tangentMode: 1
        weightedMode: 0
        inWeight: {x: 0.3333333, y: 0.3333333, z: 0.3333333, w: 0.3333333}
        outWeight: {x: 0.3333333, y: 0.3333333, z: 0.3333333, w: 0.3333333}
      - serializedVersion: 3
        time: 1.399999
        value: {x: 0, y: 0, z: 0.8105634, w: 0.5856508}
        inSlope: {x: 0, y: 0, z: -0.9209015, w: 1.274562}
        outSlope: {x: 0, y: 0, z: -0.9209015, w: 1.274562}
        tangentMode: 1
        weightedMode: 0
        inWeight: {x: 0.3333333, y: 0.3333333, z: 0.3333333, w: 0.3333333}
        outWeight: {x: 0.3333333, y: 0.3333333, z: 0.3333333, w: 0.3333333}
      - serializedVersion: 3
        time: 1.416666
        value: {x: 0, y: 0, z: 0.794936, w: 0.6066933}
        inSlope: {x: 0, y: 0, z: -0.954068, w: 1.250091}
        outSlope: {x: 0, y: 0, z: -0.9540681, w: 1.250091}
        tangentMode: 1
        weightedMode: 0
        inWeight: {x: 0.3333333, y: 0.3333333, z: 0.3333333, w: 0.3333333}
        outWeight: {x: 0.3333333, y: 0.3333333, z: 0.3333333, w: 0.3333333}
      - serializedVersion: 3
        time: 1.433333
        value: {x: 0, y: 0, z: 0.7787612, w: 0.6273205}
        inSlope: {x: 0, y: 0, z: -0.9865818, w: 1.224748}
        outSlope: {x: 0, y: 0, z: -0.9865818, w: 1.224748}
        tangentMode: 1
        weightedMode: 0
        inWeight: {x: 0.3333333, y: 0.3333333, z: 0.3333333, w: 0.3333333}
        outWeight: {x: 0.3333333, y: 0.3333333, z: 0.3333333, w: 0.3333333}
      - serializedVersion: 3
        time: 1.449999
        value: {x: 0, y: 0, z: 0.76205, w: 0.6475182}
        inSlope: {x: 0, y: 0, z: -1.01843, w: 1.198566}
        outSlope: {x: 0, y: 0, z: -1.01843, w: 1.198566}
        tangentMode: 1
        weightedMode: 0
        inWeight: {x: 0.3333333, y: 0.3333333, z: 0.3333333, w: 0.3333333}
        outWeight: {x: 0.3333333, y: 0.3333333, z: 0.3333333, w: 0.3333333}
      - serializedVersion: 3
        time: 1.466666
        value: {x: 0, y: 0, z: 0.7448136, w: 0.6672726}
        inSlope: {x: 0, y: 0, z: -1.049592, w: 1.171558}
        outSlope: {x: 0, y: 0, z: -1.049592, w: 1.171558}
        tangentMode: 1
        weightedMode: 0
        inWeight: {x: 0.3333333, y: 0.3333333, z: 0.3333333, w: 0.3333333}
        outWeight: {x: 0.3333333, y: 0.3333333, z: 0.3333333, w: 0.3333333}
      - serializedVersion: 3
        time: 1.483333
        value: {x: 0, y: 0, z: 0.7270636, w: 0.6865701}
        inSlope: {x: 0, y: 0, z: -1.080037, w: 1.143736}
        outSlope: {x: 0, y: 0, z: -1.080037, w: 1.143736}
        tangentMode: 1
        weightedMode: 0
        inWeight: {x: 0.3333333, y: 0.3333333, z: 0.3333333, w: 0.3333333}
        outWeight: {x: 0.3333333, y: 0.3333333, z: 0.3333333, w: 0.3333333}
      - serializedVersion: 3
        time: 1.499999
        value: {x: 0, y: 0, z: 0.7088124, w: 0.7053971}
        inSlope: {x: 0, y: 0, z: -1.109745, w: 1.115115}
        outSlope: {x: 0, y: 0, z: -1.109745, w: 1.115115}
        tangentMode: 1
        weightedMode: 0
        inWeight: {x: 0.3333333, y: 0.3333333, z: 0.3333333, w: 0.3333333}
        outWeight: {x: 0.3333333, y: 0.3333333, z: 0.3333333, w: 0.3333333}
      - serializedVersion: 3
        time: 1.516666
        value: {x: 0, y: 0, z: 0.6900721, w: 0.7237406}
        inSlope: {x: 0, y: 0, z: -1.138703, w: 1.085727}
        outSlope: {x: 0, y: 0, z: -1.138703, w: 1.085727}
        tangentMode: 1
        weightedMode: 0
        inWeight: {x: 0.3333333, y: 0.3333333, z: 0.3333333, w: 0.3333333}
        outWeight: {x: 0.3333333, y: 0.3333333, z: 0.3333333, w: 0.3333333}
      - serializedVersion: 3
        time: 1.533333
        value: {x: 0, y: 0, z: 0.6708556, w: 0.741588}
        inSlope: {x: 0, y: 0, z: -1.166882, w: 1.055584}
        outSlope: {x: 0, y: 0, z: -1.166882, w: 1.055584}
        tangentMode: 1
        weightedMode: 0
        inWeight: {x: 0.3333333, y: 0.3333333, z: 0.3333333, w: 0.3333333}
        outWeight: {x: 0.3333333, y: 0.3333333, z: 0.3333333, w: 0.3333333}
      - serializedVersion: 3
        time: 1.549999
        value: {x: 0, y: 0, z: 0.6511761, w: 0.7589267}
        inSlope: {x: 0, y: 0, z: -1.194264, w: 1.024701}
        outSlope: {x: 0, y: 0, z: -1.194264, w: 1.024701}
        tangentMode: 1
        weightedMode: 0
        inWeight: {x: 0.3333333, y: 0.3333333, z: 0.3333333, w: 0.3333333}
        outWeight: {x: 0.3333333, y: 0.3333333, z: 0.3333333, w: 0.3333333}
      - serializedVersion: 3
        time: 1.566666
        value: {x: 0, y: 0, z: 0.6310469, w: 0.7757447}
        inSlope: {x: 0, y: 0, z: -1.220846, w: 0.993121}
        outSlope: {x: 0, y: 0, z: -1.220846, w: 0.993121}
        tangentMode: 1
        weightedMode: 0
        inWeight: {x: 0.3333333, y: 0.3333333, z: 0.3333333, w: 0.3333333}
        outWeight: {x: 0.3333333, y: 0.3333333, z: 0.3333333, w: 0.3333333}
      - serializedVersion: 3
        time: 1.583333
        value: {x: 0, y: 0, z: 0.6104813, w: 0.7920307}
        inSlope: {x: 0, y: 0, z: -1.246588, w: 0.9608433}
        outSlope: {x: 0, y: 0, z: -1.246588, w: 0.9608433}
        tangentMode: 1
        weightedMode: 0
        inWeight: {x: 0.3333333, y: 0.3333333, z: 0.3333333, w: 0.3333333}
        outWeight: {x: 0.3333333, y: 0.3333333, z: 0.3333333, w: 0.3333333}
      - serializedVersion: 3
        time: 1.599999
        value: {x: 0, y: 0, z: 0.589494, w: 0.8077728}
        inSlope: {x: 0, y: 0, z: -1.271474, w: 0.9278896}
        outSlope: {x: 0, y: 0, z: -1.271474, w: 0.9278896}
        tangentMode: 1
        weightedMode: 0
        inWeight: {x: 0.3333333, y: 0.3333333, z: 0.3333333, w: 0.3333333}
        outWeight: {x: 0.3333333, y: 0.3333333, z: 0.3333333, w: 0.3333333}
      - serializedVersion: 3
        time: 1.616666
        value: {x: 0, y: 0, z: 0.5680988, w: 0.8229603}
        inSlope: {x: 0, y: 0, z: -1.295505, w: 0.8942994}
        outSlope: {x: 0, y: 0, z: -1.295505, w: 0.8942994}
        tangentMode: 1
        weightedMode: 0
        inWeight: {x: 0.3333333, y: 0.3333333, z: 0.3333333, w: 0.3333333}
        outWeight: {x: 0.3333333, y: 0.3333333, z: 0.3333333, w: 0.3333333}
      - serializedVersion: 3
        time: 1.633332
        value: {x: 0, y: 0, z: 0.5463105, w: 0.8375827}
        inSlope: {x: 0, y: 0, z: -1.318643, w: 0.860078}
        outSlope: {x: 0, y: 0, z: -1.318643, w: 0.860078}
        tangentMode: 1
        weightedMode: 0
        inWeight: {x: 0.3333333, y: 0.3333333, z: 0.3333333, w: 0.3333333}
        outWeight: {x: 0.3333333, y: 0.3333333, z: 0.3333333, w: 0.3333333}
      - serializedVersion: 3
        time: 1.649999
        value: {x: 0, y: 0, z: 0.5241441, w: 0.8516296}
        inSlope: {x: 0, y: 0, z: -1.340884, w: 0.8252593}
        outSlope: {x: 0, y: 0, z: -1.340884, w: 0.8252593}
        tangentMode: 1
        weightedMode: 0
        inWeight: {x: 0.3333333, y: 0.3333333, z: 0.3333333, w: 0.3333333}
        outWeight: {x: 0.3333333, y: 0.3333333, z: 0.3333333, w: 0.3333333}
      - serializedVersion: 3
        time: 1.666666
        value: {x: 0, y: 0, z: 0.5016145, w: 0.8650913}
        inSlope: {x: 0, y: 0, z: -1.362198, w: 0.7898558}
        outSlope: {x: 0, y: 0, z: -1.362198, w: 0.7898558}
        tangentMode: 1
        weightedMode: 0
        inWeight: {x: 0.3333333, y: 0.3333333, z: 0.3333333, w: 0.3333333}
        outWeight: {x: 0.3333333, y: 0.3333333, z: 0.3333333, w: 0.3333333}
      - serializedVersion: 3
        time: 1.683332
        value: {x: 0, y: 0, z: 0.4787376, w: 0.8779581}
        inSlope: {x: 0, y: 0, z: -1.382591, w: 0.7539017}
        outSlope: {x: 0, y: 0, z: -1.382591, w: 0.7539017}
        tangentMode: 1
        weightedMode: 0
        inWeight: {x: 0.3333333, y: 0.3333333, z: 0.3333333, w: 0.3333333}
        outWeight: {x: 0.3333333, y: 0.3333333, z: 0.3333333, w: 0.3333333}
      - serializedVersion: 3
        time: 1.699999
        value: {x: 0, y: 0, z: 0.4555281, w: 0.8902214}
        inSlope: {x: 0, y: 0, z: -1.402048, w: 0.717429}
        outSlope: {x: 0, y: 0, z: -1.402048, w: 0.717429}
        tangentMode: 1
        weightedMode: 0
        inWeight: {x: 0.3333333, y: 0.3333333, z: 0.3333333, w: 0.3333333}
        outWeight: {x: 0.3333333, y: 0.3333333, z: 0.3333333, w: 0.3333333}
      - serializedVersion: 3
        time: 1.716666
        value: {x: 0, y: 0, z: 0.4320027, w: 0.9018723}
        inSlope: {x: 0, y: 0, z: -1.420521, w: 0.6804377}
        outSlope: {x: 0, y: 0, z: -1.420521, w: 0.6804377}
        tangentMode: 1
        weightedMode: 0
        inWeight: {x: 0.3333333, y: 0.3333333, z: 0.3333333, w: 0.3333333}
        outWeight: {x: 0.3333333, y: 0.3333333, z: 0.3333333, w: 0.3333333}
      - serializedVersion: 3
        time: 1.733332
        value: {x: 0, y: 0, z: 0.4081775, w: 0.9129026}
        inSlope: {x: 0, y: 0, z: -1.438031, w: 0.6429708}
        outSlope: {x: 0, y: 0, z: -1.438031, w: 0.6429708}
        tangentMode: 1
        weightedMode: 0
        inWeight: {x: 0.3333333, y: 0.3333333, z: 0.3333333, w: 0.3333333}
        outWeight: {x: 0.3333333, y: 0.3333333, z: 0.3333333, w: 0.3333333}
      - serializedVersion: 3
        time: 1.749999
        value: {x: 0, y: 0, z: 0.3840683, w: 0.9233047}
        inSlope: {x: 0, y: 0, z: -1.454575, w: 0.6050587}
        outSlope: {x: 0, y: 0, z: -1.454575, w: 0.6050587}
        tangentMode: 1
        weightedMode: 0
        inWeight: {x: 0.3333333, y: 0.3333333, z: 0.3333333, w: 0.3333333}
        outWeight: {x: 0.3333333, y: 0.3333333, z: 0.3333333, w: 0.3333333}
      - serializedVersion: 3
        time: 1.766666
        value: {x: 0, y: 0, z: 0.3596917, w: 0.9330712}
        inSlope: {x: 0, y: 0, z: -1.470101, w: 0.5667102}
        outSlope: {x: 0, y: 0, z: -1.470101, w: 0.5667102}
        tangentMode: 1
        weightedMode: 0
        inWeight: {x: 0.3333333, y: 0.3333333, z: 0.3333333, w: 0.3333333}
        outWeight: {x: 0.3333333, y: 0.3333333, z: 0.3333333, w: 0.3333333}
      - serializedVersion: 3
        time: 1.783332
        value: {x: 0, y: 0, z: 0.335065, w: 0.942195}
        inSlope: {x: 0, y: 0, z: -1.48461, w: 0.5279576}
        outSlope: {x: 0, y: 0, z: -1.48461, w: 0.5279576}
        tangentMode: 1
        weightedMode: 0
        inWeight: {x: 0.3333333, y: 0.3333333, z: 0.3333333, w: 0.3333333}
        outWeight: {x: 0.3333333, y: 0.3333333, z: 0.3333333, w: 0.3333333}
      - serializedVersion: 3
        time: 1.799999
        value: {x: 0, y: 0, z: 0.3102047, w: 0.9506698}
        inSlope: {x: 0, y: 0, z: -1.498128, w: 0.4888384}
        outSlope: {x: 0, y: 0, z: -1.498128, w: 0.4888384}
        tangentMode: 1
        weightedMode: 0
        inWeight: {x: 0.3333333, y: 0.3333333, z: 0.3333333, w: 0.3333333}
        outWeight: {x: 0.3333333, y: 0.3333333, z: 0.3333333, w: 0.3333333}
      - serializedVersion: 3
        time: 1.816666
        value: {x: 0, y: 0, z: 0.2851275, w: 0.9584896}
        inSlope: {x: 0, y: 0, z: -1.510608, w: 0.449367}
        outSlope: {x: 0, y: 0, z: -1.510608, w: 0.449367}
        tangentMode: 1
        weightedMode: 0
        inWeight: {x: 0.3333333, y: 0.3333333, z: 0.3333333, w: 0.3333333}
        outWeight: {x: 0.3333333, y: 0.3333333, z: 0.3333333, w: 0.3333333}
      - serializedVersion: 3
        time: 1.833332
        value: {x: 0, y: 0, z: 0.2598512, w: 0.9656487}
        inSlope: {x: 0, y: 0, z: -1.522043, w: 0.4095719}
        outSlope: {x: 0, y: 0, z: -1.522043, w: 0.4095719}
        tangentMode: 1
        weightedMode: 0
        inWeight: {x: 0.3333333, y: 0.3333333, z: 0.3333333, w: 0.3333333}
        outWeight: {x: 0.3333333, y: 0.3333333, z: 0.3333333, w: 0.3333333}
      - serializedVersion: 3
        time: 1.849999
        value: {x: 0, y: 0, z: 0.2343927, w: 0.972142}
        inSlope: {x: 0, y: 0, z: -1.532438, w: 0.3694836}
        outSlope: {x: 0, y: 0, z: -1.532438, w: 0.3694836}
        tangentMode: 1
        weightedMode: 0
        inWeight: {x: 0.3333333, y: 0.3333333, z: 0.3333333, w: 0.3333333}
        outWeight: {x: 0.3333333, y: 0.3333333, z: 0.3333333, w: 0.3333333}
      - serializedVersion: 3
        time: 1.866666
        value: {x: 0, y: 0, z: 0.20877, w: 0.9779648}
        inSlope: {x: 0, y: 0, z: -1.54177, w: 0.3291252}
        outSlope: {x: 0, y: 0, z: -1.54177, w: 0.3291252}
        tangentMode: 1
        weightedMode: 0
        inWeight: {x: 0.3333333, y: 0.3333333, z: 0.3333333, w: 0.3333333}
        outWeight: {x: 0.3333333, y: 0.3333333, z: 0.3333333, w: 0.3333333}
      - serializedVersion: 3
        time: 1.883332
        value: {x: 0, y: 0, z: 0.1830005, w: 0.9831128}
        inSlope: {x: 0, y: 0, z: -1.550055, w: 0.2885309}
        outSlope: {x: 0, y: 0, z: -1.550055, w: 0.2885309}
        tangentMode: 1
        weightedMode: 0
        inWeight: {x: 0.3333333, y: 0.3333333, z: 0.3333333, w: 0.3333333}
        outWeight: {x: 0.3333333, y: 0.3333333, z: 0.3333333, w: 0.3333333}
      - serializedVersion: 3
        time: 1.899999
        value: {x: 0, y: 0, z: 0.1571015, w: 0.9875824}
        inSlope: {x: 0, y: 0, z: -1.557264, w: 0.2477237}
        outSlope: {x: 0, y: 0, z: -1.557264, w: 0.2477237}
        tangentMode: 1
        weightedMode: 0
        inWeight: {x: 0.3333333, y: 0.3333333, z: 0.3333333, w: 0.3333333}
        outWeight: {x: 0.3333333, y: 0.3333333, z: 0.3333333, w: 0.3333333}
      - serializedVersion: 3
        time: 1.916666
        value: {x: 0, y: 0, z: 0.1310917, w: 0.9913703}
        inSlope: {x: 0, y: 0, z: -1.5634, w: 0.2067306}
        outSlope: {x: 0, y: 0, z: -1.5634, w: 0.2067306}
        tangentMode: 1
        weightedMode: 0
        inWeight: {x: 0.3333333, y: 0.3333333, z: 0.3333333, w: 0.3333333}
        outWeight: {x: 0.3333333, y: 0.3333333, z: 0.3333333, w: 0.3333333}
      - serializedVersion: 3
        time: 1.933332
        value: {x: 0, y: 0, z: 0.1049882, w: 0.9944735}
        inSlope: {x: 0, y: 0, z: -1.568464, w: 0.1655836}
        outSlope: {x: 0, y: 0, z: -1.568464, w: 0.1655836}
        tangentMode: 1
        weightedMode: 0
        inWeight: {x: 0.3333333, y: 0.3333333, z: 0.3333333, w: 0.3333333}
        outWeight: {x: 0.3333333, y: 0.3333333, z: 0.3333333, w: 0.3333333}
      - serializedVersion: 3
        time: 1.949999
        value: {x: 0, y: 0, z: 0.07880962, w: 0.9968897}
        inSlope: {x: 0, y: 0, z: -1.572439, w: 0.124308}
        outSlope: {x: 0, y: 0, z: -1.572439, w: 0.124308}
        tangentMode: 1
        weightedMode: 0
        inWeight: {x: 0.3333333, y: 0.3333333, z: 0.3333333, w: 0.3333333}
        outWeight: {x: 0.3333333, y: 0.3333333, z: 0.3333333, w: 0.3333333}
      - serializedVersion: 3
        time: 1.966666
        value: {x: 0, y: 0, z: 0.05257366, w: 0.9986171}
        inSlope: {x: 0, y: 0, z: -1.575349, w: 0.08293398}
        outSlope: {x: 0, y: 0, z: -1.575349, w: 0.08293398}
        tangentMode: 1
        weightedMode: 0
        inWeight: {x: 0.3333333, y: 0.3333333, z: 0.3333333, w: 0.3333333}
        outWeight: {x: 0.3333333, y: 0.3333333, z: 0.3333333, w: 0.3333333}
      - serializedVersion: 3
        time: 1.983332
        value: {x: 0, y: 0, z: 0.02629803, w: 0.9996542}
        inSlope: {x: 0, y: 0, z: -1.577158, w: 0.04148771}
        outSlope: {x: 0, y: 0, z: -1.577158, w: 0.04148771}
        tangentMode: 1
        weightedMode: 0
        inWeight: {x: 0.3333333, y: 0.3333333, z: 0.3333333, w: 0.3333333}
        outWeight: {x: 0.3333333, y: 0.3333333, z: 0.3333333, w: 0.3333333}
      - serializedVersion: 3
        time: 2
        value: {x: 0, y: 0, z: -8.742278E-08, w: 1}
        inSlope: {x: 0, y: 0, z: -1.577775, w: 0.0207481}
        outSlope: {x: 0, y: 0, z: 0, w: 0}
        tangentMode: 1
        weightedMode: 0
        inWeight: {x: 0.3333333, y: 0.3333333, z: 0.3333333, w: 0.3333333}
        outWeight: {x: 0.3333333, y: 0.3333333, z: 0.3333333, w: 0.3333333}
      m_PreInfinity: 2
      m_PostInfinity: 2
      m_RotationOrder: 4
    path:
  m_CompressedRotationCurves: []
  m_EulerCurves: []
  m_PositionCurves: []
  m_ScaleCurves: []
  m_FloatCurves: []
  m_PPtrCurves: []
  m_SampleRate: 60
  m_WrapMode: 2
  m_Bounds:
    m_Center: {x: 0, y: 0, z: 0}
    m_Extent: {x: 0, y: 0, z: 0}
  m_ClipBindingConstant:
    genericBindings:
    - path: 0
      attribute: 2
      script: {fileID: 0}
      classID: 4
      customType: 0
      isPPtrCurve: 0
    pptrCurveMapping: []
  m_AnimationClipSettings:
    serializedVersion: 2
    m_AdditiveReferencePoseClip: {fileID: 0}
    m_AdditiveReferencePoseTime: 0
    m_StartTime: 0
    m_StopTime: 2
    m_OrientationOffsetY: 0
    m_Level: 0
    m_CycleOffset: 0
    m_HasAdditiveReferencePose: 0
    m_LoopTime: 1
    m_LoopBlend: 0
    m_LoopBlendOrientation: 0
    m_LoopBlendPositionY: 0
    m_LoopBlendPositionXZ: 0
    m_KeepOriginalOrientation: 0
    m_KeepOriginalPositionY: 1
    m_KeepOriginalPositionXZ: 0
    m_HeightFromFeet: 0
    m_Mirror: 0
  m_EditorCurves: []
  m_EulerEditorCurves: []
  m_HasGenericRootTransform: 1
  m_HasMotionFloatCurves: 0
  m_GenerateMotionCurves: 0
  m_Events: []
