%YAML 1.1
%TAG !u! tag:unity3d.com,2011:
--- !u!114 &11400000
MonoBehaviour:
  m_ObjectHideFlags: 0
  m_CorrespondingSourceObject: {fileID: 0}
  m_PrefabInstance: {fileID: 0}
  m_PrefabAsset: {fileID: 0}
  m_GameObject: {fileID: 0}
  m_Enabled: 1
  m_EditorHideFlags: 0
  m_Script: {fileID: 11500000, guid: 40d46139737070b44a3ac82342f8904d, type: 3}
  m_Name: DATA_Talent
  m_EditorClassIdentifier: 
  Talents:
  - Name: 0
    Level: 0
    Explanation: "\uCD5C\uB300 HP +##"
    Veriable: 100
  - Name: 1
    Level: 0
    Explanation: "\uACF5\uACA9\uB825 +##"
    Veriable: 50
  - Name: 2
    Level: 0
    Explanation: "\uD790\uB9C1\uD558\uD2B8\uC758 \uD68C\uBCF5 \uD6A8\uACFC +##"
    Veriable: 200
  - Name: 3
    Level: 0
    Explanation: "\uCDA9\uB3CC \uB370\uBBF8\uC9C0 \uC800\uD56D +##"
    Veriable: 50
  - Name: 4
    Level: 0
    Explanation: "\uACF5\uACA9 \uC18D\uB3C4 +##%"
    Veriable: 2
  - Name: 5
    Level: 0
    Explanation: "\uC804\uD22C \uC911 \uB808\uBCA8\uC5C5 \uD68C\uBCF5 +##"
    Veriable: 100
  - Name: 6
    Level: 0
    Explanation: "\uC7A5\uBE44\uC758 \uAE30\uBCF8 \uC2A4\uD0EF +##%"
    Veriable: 3
  - Name: 7
    Level: 0
    Explanation: "\uC2DC\uAC04 \uBCF4\uC0C1 \uBD80\uC2A4\uD2B8"
    Veriable: 
  - Name: 8
    Level: 1
    Explanation: "\uC2A4\uD0AC 1\uAC1C\uB97C \uBC1B\uC2B5\uB2C8\uB2E4"
    Veriable: 
