%YAML 1.1
%TAG !u! tag:unity3d.com,2011:
--- !u!1 &4029975143912796124
GameObject:
  m_ObjectHideFlags: 0
  m_CorrespondingSourceObject: {fileID: 0}
  m_PrefabInstance: {fileID: 0}
  m_PrefabAsset: {fileID: 0}
  serializedVersion: 6
  m_Component:
  - component: {fileID: 8521018483293318324}
  - component: {fileID: 922313805251132334}
  - component: {fileID: 7915283300155068141}
  m_Layer: 0
  m_Name: TESTweapon
  m_TagString: Untagged
  m_Icon: {fileID: 0}
  m_NavMeshLayer: 0
  m_StaticEditorFlags: 0
  m_IsActive: 1
--- !u!4 &8521018483293318324
Transform:
  m_ObjectHideFlags: 0
  m_CorrespondingSourceObject: {fileID: 0}
  m_PrefabInstance: {fileID: 0}
  m_PrefabAsset: {fileID: 0}
  m_GameObject: {fileID: 4029975143912796124}
  m_LocalRotation: {x: 0, y: 0, z: 0, w: 1}
  m_LocalPosition: {x: 0, y: 0, z: 0}
  m_LocalScale: {x: 1, y: 1, z: 1}
  m_Children: []
  m_Father: {fileID: 0}
  m_RootOrder: 0
  m_LocalEulerAnglesHint: {x: 0, y: 0, z: 0}
--- !u!114 &922313805251132334
MonoBehaviour:
  m_ObjectHideFlags: 0
  m_CorrespondingSourceObject: {fileID: 0}
  m_PrefabInstance: {fileID: 0}
  m_PrefabAsset: {fileID: 0}
  m_GameObject: {fileID: 4029975143912796124}
  m_Enabled: 1
  m_EditorHideFlags: 0
  m_Script: {fileID: 11500000, guid: 57df901a3d5d9974394c48262868e93c, type: 3}
  m_Name: 
  m_EditorClassIdentifier: 
  ArrowPrefab: {fileID: 1666189954646725, guid: bff85671c6acfc6468fa0e8aa9ef30dc,
    type: 3}
  GrenadePrefab: {fileID: 1029546039623712, guid: a18586bae358c234892ad4026671ea69,
    type: 3}
  BoomerangPrefab: {fileID: 1879004134754344, guid: 6e6f7b5eb464c7046be423f340a9c8d2,
    type: 3}
  Player: {fileID: 0}
  bulletBuilder: {fileID: 0}
--- !u!114 &7915283300155068141
MonoBehaviour:
  m_ObjectHideFlags: 0
  m_CorrespondingSourceObject: {fileID: 0}
  m_PrefabInstance: {fileID: 0}
  m_PrefabAsset: {fileID: 0}
  m_GameObject: {fileID: 4029975143912796124}
  m_Enabled: 1
  m_EditorHideFlags: 0
  m_Script: {fileID: 11500000, guid: 31f0508fff201414ab0fd589b2e041e0, type: 3}
  m_Name: 
  m_EditorClassIdentifier: 
  originCondition: {fileID: 11400000, guid: 0010cb890ee68b24fa767a480a6ebfe3, type: 2}
  originAttackData: {fileID: 11400000, guid: 2506b7c022669bd4aa9c35c2f6458121, type: 2}
  originStatus: {fileID: 0}
  bulletPreb: {fileID: 0}
