%YAML 1.1
%TAG !u! tag:unity3d.com,2011:
--- !u!21 &2100000
Material:
  serializedVersion: 6
  m_ObjectHideFlags: 0
  m_CorrespondingSourceObject: {fileID: 0}
  m_PrefabInstance: {fileID: 0}
  m_PrefabAsset: {fileID: 0}
  m_Name: eff_bow_bullet_a03_mask 2
  m_Shader: {fileID: 10722, guid: 0000000000000000f000000000000000, type: 0}
  m_ShaderKeywords: 
  m_LightmapFlags: 4
  m_EnableInstancingVariants: 0
  m_DoubleSidedGI: 0
  m_CustomRenderQueue: -1
  stringTagMap: {}
  disabledShaderPasses: []
  m_SavedProperties:
    serializedVersion: 3
    m_TexEnvs:
    - _DetailTex:
        m_Texture: {fileID: 2800000, guid: 3c9db1c2eda72634a8047e5a657db0eb, type: 3}
        m_Scale: {x: 0.5, y: 0.5}
        m_Offset: {x: 0, y: 0}
    - _MainTex:
        m_Texture: {fileID: 2800000, guid: 403303e55e6312a4b9dead8f9f3d2b63, type: 3}
        m_Scale: {x: 1, y: 1}
        m_Offset: {x: 0, y: 0}
    - _MaskTex:
        m_Texture: {fileID: 2800000, guid: 139034a72fd1e144582b2e5bd0692cbf, type: 3}
        m_Scale: {x: 1, y: 1}
        m_Offset: {x: 0, y: 0}
    m_Floats:
    - _Alpha: 1
    - _InvFade: 1
    - _MMultiplier: 2
    - _Scroll2X: -30
    - _Scroll2Y: 0
    - _ScrollX: 0
    - _ScrollY: 0
    - _SineAmplX: 0
    - _SineAmplX2: 0
    - _SineAmplY: 0
    - _SineAmplY2: 0
    - _SineFreqX: 0
    - _SineFreqX2: 0
    - _SineFreqY: 0
    - _SineFreqY2: 0
    m_Colors:
    - _Color: {r: 1, g: 0.2971698, b: 1, a: 1}
    - _EmisColor: {r: 1, g: 1, b: 1, a: 0}
    - _TintColor: {r: 0.5, g: 0.5, b: 0.5, a: 0.5}
