%YAML 1.1
%TAG !u! tag:unity3d.com,2011:
--- !u!21 &2100000
Material:
  serializedVersion: 6
  m_ObjectHideFlags: 0
  m_CorrespondingSourceObject: {fileID: 0}
  m_PrefabInstance: {fileID: 0}
  m_PrefabAsset: {fileID: 0}
  m_Name: eff_bow_02
  m_Shader: {fileID: 10721, guid: 0000000000000000f000000000000000, type: 0}
  m_ShaderKeywords: 
  m_LightmapFlags: 4
  m_EnableInstancingVariants: 0
  m_DoubleSidedGI: 0
  m_CustomRenderQueue: -1
  stringTagMap: {}
  disabledShaderPasses: []
  m_SavedProperties:
    serializedVersion: 3
    m_TexEnvs:
    - _MainTex:
        m_Texture: {fileID: 2800000, guid: 6ab52d9482352b040bb43ea480fd68f4, type: 3}
        m_Scale: {x: 1, y: 1}
        m_Offset: {x: 0, y: 0}
    - _ToonShade:
        m_Texture: {fileID: 0}
        m_Scale: {x: 1, y: 1}
        m_Offset: {x: 0, y: 0}
    m_Floats:
    - _Factor: 0.06
    - _RimPower: 0
    m_Colors:
    - _Color: {r: 1, g: 1, b: 1, a: 1}
    - _MainColor: {r: 1, g: 1, b: 1, a: 1}
    - _OutLineColor: {r: 0.27, g: 0.41, b: 0.27, a: 1}
    - _RimColor: {r: 1, g: 1, b: 1, a: 1}
    - _TextureColor: {r: 0, g: 0, b: 0, a: 1}
