%YAML 1.1
%TAG !u! tag:unity3d.com,2011:
--- !u!21 &2100000
Material:
  serializedVersion: 6
  m_CorrespondingSourceObject: {fileID: 0}
  m_PrefabInstance: {fileID: 0}
  m_PrefabAsset: {fileID: 0}
  m_Name: eff_bow_bullet_a03_mask 48_eMainHero
  m_Shader: {fileID: 4800000, guid: c80a627c0b58b3f49a817924e617b920, type: 3}
  m_ShaderKeywords:
  m_LightmapFlags: 4
  m_EnableInstancingVariants: 0
  m_DoubleSidedGI: 0
  m_CustomRenderQueue: 2600
  stringTagMap: {}
  disabledShaderPasses: []
  m_SavedProperties:
    serializedVersion: 3
    m_TexEnvs:
    - _MainTex:
        m_Texture: {fileID: 2800000, guid: 5fcc88c4b0992714cb61e2a949863055, type: 3}
        m_Scale: {x: 0.6, y: 0.15}
        m_Offset: {x: 0, y: 0}
    - _MaskTex:
        m_Texture: {fileID: 2800000, guid: d0a9d2c053d78a44f9b257fdd9c4ac4e, type: 3}
        m_Scale: {x: 1, y: 1}
        m_Offset: {x: 0, y: 0}
    - _WiggleTex:
        m_Texture: {fileID: 2800000, guid: d511c8e064aa67f4fa66906b26ffc8bb, type: 3}
        m_Scale: {x: 1, y: 1}
        m_Offset: {x: 0, y: 0}
    m_Floats:
    - _Alpha: 1
    - _InvFade: 1
    - _MMultiplier: 2
    - _Scroll2X: -20
    - _Scroll2Y: 0
    - _ScrollX: 0
    - _ScrollY: 0
    - _SineAmplX: 0
    - _SineAmplX2: 0
    - _SineAmplY: 0
    - _SineAmplY2: 0
    - _SineFreqX: 0
    - _SineFreqX2: 0
    - _SineFreqY: 0
    - _SineFreqY2: 0
    - _WiggleScrollX: 0.2
    - _WiggleScrollY: -0.02
    - _WiggleStrength: 0.05
    m_Colors:
    - _Color: {r: 1, g: 0, b: 0, a: 1}
    - _TintColor: {r: 0.5, g: 0.5, b: 0.5, a: 0.5}
