%YAML 1.1
%TAG !u! tag:unity3d.com,2011:
--- !u!21 &2100000
Material:
  serializedVersion: 6
  m_CorrespondingSourceObject: {fileID: 0}
  m_PrefabInstance: {fileID: 0}
  m_PrefabAsset: {fileID: 0}
  m_Name: eff_bullet_ice_13
  m_Shader: {fileID: 4800000, guid: c80a627c0b58b3f49a817924e617b920, type: 3}
  m_ShaderKeywords:
  m_LightmapFlags: 4
  m_EnableInstancingVariants: 0
  m_DoubleSidedGI: 0
  m_CustomRenderQueue: -1
  stringTagMap: {}
  disabledShaderPasses: []
  m_SavedProperties:
    serializedVersion: 3
    m_TexEnvs:
    - _MainTex:
        m_Texture: {fileID: 2800000, guid: 3063b7cb5215cc04681bf5ee5a1cd34c, type: 3}
        m_Scale: {x: 1, y: 1}
        m_Offset: {x: 0, y: 0}
    - _MaskTex:
        m_Texture: {fileID: 2800000, guid: 64d91c05efed66744b60714eb7dd0464, type: 3}
        m_Scale: {x: 1, y: 1}
        m_Offset: {x: 0, y: 0}
    - _WiggleTex:
        m_Texture: {fileID: 2800000, guid: 3c9db1c2eda72634a8047e5a657db0eb, type: 3}
        m_Scale: {x: 0.5, y: 0.5}
        m_Offset: {x: 0, y: 0}
    m_Floats:
    - _Alpha: 1
    - _BumpScale: 1
    - _ColorMask: 15
    - _Cutoff: 0.5
    - _DetailNormalMapScale: 1
    - _DstBlend: 0
    - _GlossMapScale: 1
    - _Glossiness: 0.5
    - _GlossyReflections: 1
    - _InvFade: 1
    - _MMultiplier: 2
    - _Metallic: 0
    - _Mode: 0
    - _OcclusionStrength: 1
    - _Parallax: 0.02
    - _RimIntensity: 100
    - _RimPower: 30.6
    - _Scroll2X: 1
    - _Scroll2Y: 0
    - _ScrollX: 0
    - _ScrollY: 0
    - _SineAmplX: 0.5
    - _SineAmplX2: 0.5
    - _SineAmplY: 0.5
    - _SineAmplY2: 0.5
    - _SineFreqX: 10
    - _SineFreqX2: 10
    - _SineFreqY: 10
    - _SineFreqY2: 10
    - _SmoothnessTextureChannel: 0
    - _SpecularHighlights: 1
    - _SrcBlend: 1
    - _Stencil: 0
    - _StencilComp: 10.45
    - _StencilOp: 0
    - _StencilReadMask: 255
    - _StencilWriteMask: 255
    - _UVSec: 0
    - _UseUIAlphaClip: 0
    - _WiggleScrollX: 8
    - _WiggleScrollY: 0
    - _WiggleStrength: 0.31
    - _ZWrite: 1
    m_Colors:
    - _Color: {r: 0.254717, g: 0.254717, b: 0.254717, a: 1}
    - _EmissionColor: {r: 0, g: 0, b: 0, a: 1}
    - _MainColor: {r: 0.5, g: 0.5, b: 0.5, a: 1}
    - _RimColor: {r: 0.5, g: 0.5, b: 0.5, a: 1}
    - _SpecColor: {r: 0, g: 0, b: 0, a: 1}
    - _TintColor: {r: 0.7370917, g: 0.7148896, b: 0.990566, a: 0.7568628}
