%YAML 1.1
%TAG !u! tag:unity3d.com,2011:
--- !u!1045 &1
EditorBuildSettings:
  m_ObjectHideFlags: 0
  serializedVersion: 2
  m_Scenes:
  - enabled: 1
    path: Assets/Scene/0MainLoadingScene.unity
    guid: 1e7e0b9cf15c9a14e93f7cece79024c3
  - enabled: 1
    path: Assets/Scene/1LobbyScene.unity
    guid: f78bfcf62b85ed04c821c9078267cd81
  - enabled: 1
    path: Assets/Scene/2StageLoadingScene.unity
    guid: 7a4f2e80427d527418003a2847535eae
  - enabled: 1
    path: Assets/Scene/3InGameScene.unity
    guid: b01761823cc230f4fa3871805ad54ee3
  m_configObjects:
    com.unity.addressableassets: {fileID: 11400000, guid: 63a8a8ccb24a2b5458d556af8ee94a67,
      type: 2}
