%YAML 1.1
%TAG !u! tag:unity3d.com,2011:
--- !u!114 &11400000
MonoBehaviour:
  m_ObjectHideFlags: 0
  m_CorrespondingSourceObject: {fileID: 0}
  m_PrefabInstance: {fileID: 0}
  m_PrefabAsset: {fileID: 0}
  m_GameObject: {fileID: 0}
  m_Enabled: 1
  m_EditorHideFlags: 0
  m_Script: {fileID: 11500000, guid: fb1c9249b009d79449ed0547b4b25ef4, type: 3}
  m_Name: TileSet
  m_EditorClassIdentifier: 
  prefabs:
  - {fileID: 4905692155130273, guid: 9bb77c5cbcfeacc42a629dd968a62909, type: 3}
  - {fileID: 4636835528134856, guid: b9e0594a6d8a25c4497a509320b3654e, type: 3}
  - {fileID: 4161340725298837, guid: 387a05c441143cc40bcb86f0e727f5f7, type: 3}
  - {fileID: 4161340725298837, guid: f48ea524f87cd9b48aea6007f6b25b99, type: 3}
  - {fileID: 4161340725298837, guid: 7198186a9935ad845af1724e7bea944b, type: 3}
  - {fileID: 4161340725298837, guid: 36fc810cde4654a4ba4fa0b2392a4b66, type: 3}
  - {fileID: 4161340725298837, guid: 3b15c722cc37db54b83963d322953d12, type: 3}
  - {fileID: 4161340725298837, guid: f9504f37ba54f934aba65078bdcb2f03, type: 3}
  - {fileID: 4161340725298837, guid: b37dccbcbbfd2354999f2296a8811024, type: 3}
  - {fileID: 4161340725298837, guid: e8739dc88ae82954d93faf668c57eee3, type: 3}
